﻿
DisplayName "Grand Noah"



EVENT   1
 PAGE   1
  If(1,1052,0,0,0)
   ShowMessageFace("",0,0,2,1)
   ShowMessage("\\n<衛兵Ａ>Halt, travelers.")
   205(-1,bytes(0x04,0x08,0x6f,0x3a,0x13,0x52,0x50,0x47,0x3a,0x3a,0x4d,0x6f,0x76,0x65,0x52,0x6f,0x75,0x74,0x65,0x09,0x3a,0x0c,0x40,0x72,0x65,0x70,0x65,0x61,0x74,0x46,0x3a,0x0f,0x40,0x73,0x6b,0x69,0x70,0x70,0x61,0x62,0x6c,0x65,0x46,0x3a,0x0a,0x40,0x77,0x61,0x69,0x74,0x54,0x3a,0x0a,0x40,0x6c,0x69,0x73,0x74,0x5b,0x07,0x6f,0x3a,0x15,0x52,0x50,0x47,0x3a,0x3a,0x4d,0x6f,0x76,0x65,0x43,0x6f,0x6d,0x6d,0x61,0x6e,0x64,0x07,0x3a,0x0a,0x40,0x63,0x6f,0x64,0x65,0x69,0x16,0x3a,0x10,0x40,0x70,0x61,0x72,0x61,0x6d,0x65,0x74,0x65,0x72,0x73,0x5b,0x00,0x6f,0x3b,0x0a,0x07,0x3b,0x0b,0x69,0x00,0x3b,0x0c,0x5b,0x00))
   ShowMessageFace("",0,0,2,2)
   ShowMessage("\\n<衛兵Ｂ>Entry to the royal palace is under wartime restrictions right now. Tours are forbidden, and audiences with Her Majesty are not being granted.")
   If(1,1028,0,8,1)
    ShowMessageFace("sara_fc1",4,0,2,3)
    ShowMessage("\\n<Sara>I didn't want to do this, but the situation being as it is...")
    ShowMessageFace("sara_fc1",2,0,2,4)
    ShowMessage("\\n<Sara>I am Sara, Queen of Sabasa. I have traveled here under complete secrecy to speak with Her Majesty, the Queen.")
    ShowMessageFace("",0,0,2,5)
    ShowMessage("\\n<衛兵Ａ>Huh? Sara, the Queen of Sabasa?\nPardon me, but may I see your royal emblem?")
    ShowMessageFace("",0,0,2,6)
    ShowMessage("\\n<衛兵Ｂ>...this is definitely genuine!\nForgive me. Please, this way.")
    If(4,129,0)
     ShowMessageFace("brunhild_fc1",0,0,2,7)
     ShowMessage("\\n<Hild>Forcible entry no longer necessary...\nCombat mode disengaged.")
     0()
    EndIf()
    If(4,79,0)
     ShowMessageFace("nuruko_fc1",0,0,2,8)
     ShowMessage("\\n<Nuruko>Kyuu kyuu!")
     0()
    EndIf()
    ChangeVariable(1052,1052,0,0,1)
    0()
   Else()
    205(-1,bytes(0x04,0x08,0x6f,0x3a,0x13,0x52,0x50,0x47,0x3a,0x3a,0x4d,0x6f,0x76,0x65,0x52,0x6f,0x75,0x74,0x65,0x09,0x3a,0x0c,0x40,0x72,0x65,0x70,0x65,0x61,0x74,0x46,0x3a,0x0f,0x40,0x73,0x6b,0x69,0x70,0x70,0x61,0x62,0x6c,0x65,0x46,0x3a,0x0a,0x40,0x77,0x61,0x69,0x74,0x54,0x3a,0x0a,0x40,0x6c,0x69,0x73,0x74,0x5b,0x07,0x6f,0x3a,0x15,0x52,0x50,0x47,0x3a,0x3a,0x4d,0x6f,0x76,0x65,0x43,0x6f,0x6d,0x6d,0x61,0x6e,0x64,0x07,0x3a,0x0a,0x40,0x63,0x6f,0x64,0x65,0x69,0x06,0x3a,0x10,0x40,0x70,0x61,0x72,0x61,0x6d,0x65,0x74,0x65,0x72,0x73,0x5b,0x00,0x6f,0x3b,0x0a,0x07,0x3b,0x0b,0x69,0x00,0x3b,0x0c,0x5b,0x00))
    ShowMessageFace("ruka_fc1",0,0,2,9)
    ShowMessage("\\n<Luka>It doesn't look like we'll be able to get an audience with the queen any time soon...")
    If(0,4,0)
     ShowMessageFace("alice_fc5",0,0,2,10)
     ShowMessage("\\n<Alice>We can't get an audience if he just sees us as travelers. Perhaps we can borrow the services of a noble from another country...")
     0()
    EndIf()
    If(0,5,0)
     ShowMessageFace("iriasu_fc4",2,0,2,11)
     ShowMessage("\\n<Ilias>Turning me away at the gates is the pinnacle of rudeness. Let's bring a noble from another country and make an appeal to authority.")
     0()
    EndIf()
    ShowMessageFace("ruka_fc1",0,0,2,12)
    ShowMessage("\\n<Luka>That reminds me, we haven't dealt with the turmoil in Sabasa...")
    EndEventProcessing()
    0()
   EndIf()
   0()
  EndIf()
  281(0)
  250(bytes(0x04,0x08,0x6f,0x3a,0x0c,0x52,0x50,0x47,0x3a,0x3a,0x53,0x45,0x08,0x3a,0x0a,0x40,0x6e,0x61,0x6d,0x65,0x49,0x22,0x0b,0x45,0x61,0x72,0x74,0x68,0x34,0x06,0x3a,0x06,0x45,0x54,0x3a,0x0b,0x40,0x70,0x69,0x74,0x63,0x68,0x69,0x69,0x3a,0x0c,0x40,0x76,0x6f,0x6c,0x75,0x6d,0x65,0x69,0x55))
  205(0,bytes(0x04,0x08,0x6f,0x3a,0x13,0x52,0x50,0x47,0x3a,0x3a,0x4d,0x6f,0x76,0x65,0x52,0x6f,0x75,0x74,0x65,0x09,0x3a,0x0c,0x40,0x72,0x65,0x70,0x65,0x61,0x74,0x46,0x3a,0x0f,0x40,0x73,0x6b,0x69,0x70,0x70,0x61,0x62,0x6c,0x65,0x46,0x3a,0x0a,0x40,0x77,0x61,0x69,0x74,0x54,0x3a,0x0a,0x40,0x6c,0x69,0x73,0x74,0x5b,0x0c,0x6f,0x3a,0x15,0x52,0x50,0x47,0x3a,0x3a,0x4d,0x6f,0x76,0x65,0x43,0x6f,0x6d,0x6d,0x61,0x6e,0x64,0x07,0x3a,0x0a,0x40,0x63,0x6f,0x64,0x65,0x69,0x16,0x3a,0x10,0x40,0x70,0x61,0x72,0x61,0x6d,0x65,0x74,0x65,0x72,0x73,0x5b,0x00,0x6f,0x3b,0x0a,0x07,0x3b,0x0b,0x69,0x14,0x3b,0x0c,0x5b,0x06,0x69,0x08,0x6f,0x3b,0x0a,0x07,0x3b,0x0b,0x69,0x17,0x3b,0x0c,0x5b,0x00,0x6f,0x3b,0x0a,0x07,0x3b,0x0b,0x69,0x14,0x3b,0x0c,0x5b,0x06,0x69,0x08,0x6f,0x3b,0x0a,0x07,0x3b,0x0b,0x69,0x18,0x3b,0x0c,0x5b,0x00,0x6f,0x3b,0x0a,0x07,0x3b,0x0b,0x69,0x2a,0x3b,0x0c,0x5b,0x00,0x6f,0x3b,0x0a,0x07,0x3b,0x0b,0x69,0x00,0x3b,0x0c,0x5b,0x00))
  205(-1,bytes(0x04,0x08,0x6f,0x3a,0x13,0x52,0x50,0x47,0x3a,0x3a,0x4d,0x6f,0x76,0x65,0x52,0x6f,0x75,0x74,0x65,0x09,0x3a,0x0c,0x40,0x72,0x65,0x70,0x65,0x61,0x74,0x46,0x3a,0x0f,0x40,0x73,0x6b,0x69,0x70,0x70,0x61,0x62,0x6c,0x65,0x54,0x3a,0x0a,0x40,0x77,0x61,0x69,0x74,0x54,0x3a,0x0a,0x40,0x6c,0x69,0x73,0x74,0x5b,0x07,0x6f,0x3a,0x15,0x52,0x50,0x47,0x3a,0x3a,0x4d,0x6f,0x76,0x65,0x43,0x6f,0x6d,0x6d,0x61,0x6e,0x64,0x07,0x3a,0x0a,0x40,0x63,0x6f,0x64,0x65,0x69,0x09,0x3a,0x10,0x40,0x70,0x61,0x72,0x61,0x6d,0x65,0x74,0x65,0x72,0x73,0x5b,0x00,0x6f,0x3b,0x0a,0x07,0x3b,0x0b,0x69,0x00,0x3b,0x0c,0x5b,0x00))
  250(bytes(0x04,0x08,0x6f,0x3a,0x0c,0x52,0x50,0x47,0x3a,0x3a,0x53,0x45,0x08,0x3a,0x0a,0x40,0x6e,0x61,0x6d,0x65,0x49,0x22,0x09,0x4d,0x6f,0x76,0x65,0x06,0x3a,0x06,0x45,0x54,0x3a,0x0b,0x40,0x70,0x69,0x74,0x63,0x68,0x69,0x69,0x3a,0x0c,0x40,0x76,0x6f,0x6c,0x75,0x6d,0x65,0x69,0x55))
  TeleportPlayer(0,382,39,50,0,0)
  If(4,533,0)
   ShowMessageFace("grandnoa_fc1",3,0,2,13)
   ShowMessage("\\n<メダル女王>I just remembered I have urgent business to attend to. Be back soon...")
   355("move_stand_actor(533)")
   ShowMessageFace("",0,0,2,14)
   ShowMessage("The Queen of Grand Noah temporarily left the party!")
   0()
  EndIf()
  0()



EVENT   2
 PAGE   1
  0()



EVENT   3
 PAGE   1
  0()



EVENT   4
 PAGE   1
  0()



EVENT   5
 PAGE   1
  0()



EVENT   6
 PAGE   1
  0()



EVENT   7
 PAGE   1
  0()



EVENT   8
 PAGE   1
  0()



EVENT   9
 PAGE   1
  0()



EVENT   10
 PAGE   1
  0()



EVENT   11
 PAGE   1
  0()



EVENT   12
 PAGE   1
  0()



EVENT   13
 PAGE   1
  0()



EVENT   14
 PAGE   1
  0()



EVENT   15
 PAGE   1
  0()



EVENT   16
 PAGE   1
  0()



EVENT   17
 PAGE   1
  0()



EVENT   18
 PAGE   1
  250(bytes(0x04,0x08,0x6f,0x3a,0x0c,0x52,0x50,0x47,0x3a,0x3a,0x53,0x45,0x08,0x3a,0x0a,0x40,0x6e,0x61,0x6d,0x65,0x49,0x22,0x0a,0x4f,0x70,0x65,0x6e,0x31,0x06,0x3a,0x06,0x45,0x54,0x3a,0x0b,0x40,0x70,0x69,0x74,0x63,0x68,0x69,0x69,0x3a,0x0c,0x40,0x76,0x6f,0x6c,0x75,0x6d,0x65,0x69,0x55))
  205(0,bytes(0x04,0x08,0x6f,0x3a,0x13,0x52,0x50,0x47,0x3a,0x3a,0x4d,0x6f,0x76,0x65,0x52,0x6f,0x75,0x74,0x65,0x09,0x3a,0x0c,0x40,0x72,0x65,0x70,0x65,0x61,0x74,0x46,0x3a,0x0f,0x40,0x73,0x6b,0x69,0x70,0x70,0x61,0x62,0x6c,0x65,0x46,0x3a,0x0a,0x40,0x77,0x61,0x69,0x74,0x54,0x3a,0x0a,0x40,0x6c,0x69,0x73,0x74,0x5b,0x0c,0x6f,0x3a,0x15,0x52,0x50,0x47,0x3a,0x3a,0x4d,0x6f,0x76,0x65,0x43,0x6f,0x6d,0x6d,0x61,0x6e,0x64,0x07,0x3a,0x0a,0x40,0x63,0x6f,0x64,0x65,0x69,0x16,0x3a,0x10,0x40,0x70,0x61,0x72,0x61,0x6d,0x65,0x74,0x65,0x72,0x73,0x5b,0x00,0x6f,0x3b,0x0a,0x07,0x3b,0x0b,0x69,0x14,0x3b,0x0c,0x5b,0x06,0x69,0x08,0x6f,0x3b,0x0a,0x07,0x3b,0x0b,0x69,0x17,0x3b,0x0c,0x5b,0x00,0x6f,0x3b,0x0a,0x07,0x3b,0x0b,0x69,0x14,0x3b,0x0c,0x5b,0x06,0x69,0x08,0x6f,0x3b,0x0a,0x07,0x3b,0x0b,0x69,0x18,0x3b,0x0c,0x5b,0x00,0x6f,0x3b,0x0a,0x07,0x3b,0x0b,0x69,0x2a,0x3b,0x0c,0x5b,0x00,0x6f,0x3b,0x0a,0x07,0x3b,0x0b,0x69,0x00,0x3b,0x0c,0x5b,0x00))
  205(-1,bytes(0x04,0x08,0x6f,0x3a,0x13,0x52,0x50,0x47,0x3a,0x3a,0x4d,0x6f,0x76,0x65,0x52,0x6f,0x75,0x74,0x65,0x09,0x3a,0x0c,0x40,0x72,0x65,0x70,0x65,0x61,0x74,0x46,0x3a,0x0f,0x40,0x73,0x6b,0x69,0x70,0x70,0x61,0x62,0x6c,0x65,0x54,0x3a,0x0a,0x40,0x77,0x61,0x69,0x74,0x54,0x3a,0x0a,0x40,0x6c,0x69,0x73,0x74,0x5b,0x07,0x6f,0x3a,0x15,0x52,0x50,0x47,0x3a,0x3a,0x4d,0x6f,0x76,0x65,0x43,0x6f,0x6d,0x6d,0x61,0x6e,0x64,0x07,0x3a,0x0a,0x40,0x63,0x6f,0x64,0x65,0x69,0x11,0x3a,0x10,0x40,0x70,0x61,0x72,0x61,0x6d,0x65,0x74,0x65,0x72,0x73,0x5b,0x00,0x6f,0x3b,0x0a,0x07,0x3b,0x0b,0x69,0x00,0x3b,0x0c,0x5b,0x00))
  250(bytes(0x04,0x08,0x6f,0x3a,0x0c,0x52,0x50,0x47,0x3a,0x3a,0x53,0x45,0x08,0x3a,0x0a,0x40,0x6e,0x61,0x6d,0x65,0x49,0x22,0x09,0x4d,0x6f,0x76,0x65,0x06,0x3a,0x06,0x45,0x54,0x3a,0x0b,0x40,0x70,0x69,0x74,0x63,0x68,0x69,0x69,0x3a,0x0c,0x40,0x76,0x6f,0x6c,0x75,0x6d,0x65,0x69,0x55))
  TeleportPlayer(0,22,7,12,0,0)
  0()



EVENT   19
 PAGE   1
  // condition: variable 1054 >= 7
  If(2,"A",1)
   ChangeSelfSwitch("A",0)
   ShowMessageFace("mino_fc1",2,0,2,1)
   ShowMessage("\\n<ミノタウロス娘>Hey, it's Caesar!\nWhat's with all these minotauros running off and disappearing? It's kinda scary...")
   ShowMessageFace("kerberos_fc1",2,0,2,2)
   ShowMessage("\\n<シーザー>You're one of the ones that ran off!")
   ShowMessageFace("mino_fc1",0,0,2,3)
   ShowMessage("\\n<ミノタウロス娘>Never mind that, now I run the Minotauros Dairy!\nDrink Minotauros brand milk and grow up to be a big, strong warrior!")
   0()
  Else()
   ShowMessageFace("mino_fc1",0,0,2,4)
   ShowMessage("\\n<ミノタウロス娘>Welcome to the Minotauros Dairy!\nDrink Minotauros brand milk and grow up to be a big, strong warrior!")
   0()
  EndIf()
  ShowMessageFace("ruka_fc1",0,0,2,5)
  ShowMessage("\\n<ルカ>I don't even have to ask where the milk comes from, do I...")
  Shop(0,342,0,0,true)
  0()



EVENT   20
 PAGE   1
  250(bytes(0x04,0x08,0x6f,0x3a,0x0c,0x52,0x50,0x47,0x3a,0x3a,0x53,0x45,0x08,0x3a,0x0a,0x40,0x6e,0x61,0x6d,0x65,0x49,0x22,0x0a,0x4f,0x70,0x65,0x6e,0x31,0x06,0x3a,0x06,0x45,0x54,0x3a,0x0b,0x40,0x70,0x69,0x74,0x63,0x68,0x69,0x69,0x3a,0x0c,0x40,0x76,0x6f,0x6c,0x75,0x6d,0x65,0x69,0x55))
  205(0,bytes(0x04,0x08,0x6f,0x3a,0x13,0x52,0x50,0x47,0x3a,0x3a,0x4d,0x6f,0x76,0x65,0x52,0x6f,0x75,0x74,0x65,0x09,0x3a,0x0c,0x40,0x72,0x65,0x70,0x65,0x61,0x74,0x46,0x3a,0x0f,0x40,0x73,0x6b,0x69,0x70,0x70,0x61,0x62,0x6c,0x65,0x46,0x3a,0x0a,0x40,0x77,0x61,0x69,0x74,0x54,0x3a,0x0a,0x40,0x6c,0x69,0x73,0x74,0x5b,0x0c,0x6f,0x3a,0x15,0x52,0x50,0x47,0x3a,0x3a,0x4d,0x6f,0x76,0x65,0x43,0x6f,0x6d,0x6d,0x61,0x6e,0x64,0x07,0x3a,0x0a,0x40,0x63,0x6f,0x64,0x65,0x69,0x16,0x3a,0x10,0x40,0x70,0x61,0x72,0x61,0x6d,0x65,0x74,0x65,0x72,0x73,0x5b,0x00,0x6f,0x3b,0x0a,0x07,0x3b,0x0b,0x69,0x14,0x3b,0x0c,0x5b,0x06,0x69,0x08,0x6f,0x3b,0x0a,0x07,0x3b,0x0b,0x69,0x17,0x3b,0x0c,0x5b,0x00,0x6f,0x3b,0x0a,0x07,0x3b,0x0b,0x69,0x14,0x3b,0x0c,0x5b,0x06,0x69,0x08,0x6f,0x3b,0x0a,0x07,0x3b,0x0b,0x69,0x18,0x3b,0x0c,0x5b,0x00,0x6f,0x3b,0x0a,0x07,0x3b,0x0b,0x69,0x2a,0x3b,0x0c,0x5b,0x00,0x6f,0x3b,0x0a,0x07,0x3b,0x0b,0x69,0x00,0x3b,0x0c,0x5b,0x00))
  205(-1,bytes(0x04,0x08,0x6f,0x3a,0x13,0x52,0x50,0x47,0x3a,0x3a,0x4d,0x6f,0x76,0x65,0x52,0x6f,0x75,0x74,0x65,0x09,0x3a,0x0c,0x40,0x72,0x65,0x70,0x65,0x61,0x74,0x46,0x3a,0x0f,0x40,0x73,0x6b,0x69,0x70,0x70,0x61,0x62,0x6c,0x65,0x54,0x3a,0x0a,0x40,0x77,0x61,0x69,0x74,0x54,0x3a,0x0a,0x40,0x6c,0x69,0x73,0x74,0x5b,0x07,0x6f,0x3a,0x15,0x52,0x50,0x47,0x3a,0x3a,0x4d,0x6f,0x76,0x65,0x43,0x6f,0x6d,0x6d,0x61,0x6e,0x64,0x07,0x3a,0x0a,0x40,0x63,0x6f,0x64,0x65,0x69,0x11,0x3a,0x10,0x40,0x70,0x61,0x72,0x61,0x6d,0x65,0x74,0x65,0x72,0x73,0x5b,0x00,0x6f,0x3b,0x0a,0x07,0x3b,0x0b,0x69,0x00,0x3b,0x0c,0x5b,0x00))
  250(bytes(0x04,0x08,0x6f,0x3a,0x0c,0x52,0x50,0x47,0x3a,0x3a,0x53,0x45,0x08,0x3a,0x0a,0x40,0x6e,0x61,0x6d,0x65,0x49,0x22,0x09,0x4d,0x6f,0x76,0x65,0x06,0x3a,0x06,0x45,0x54,0x3a,0x0b,0x40,0x70,0x69,0x74,0x63,0x68,0x69,0x69,0x3a,0x0c,0x40,0x76,0x6f,0x6c,0x75,0x6d,0x65,0x69,0x55))
  TeleportPlayer(0,22,43,58,0,0)
  0()



EVENT   21
 PAGE   1
  250(bytes(0x04,0x08,0x6f,0x3a,0x0c,0x52,0x50,0x47,0x3a,0x3a,0x53,0x45,0x08,0x3a,0x0a,0x40,0x6e,0x61,0x6d,0x65,0x49,0x22,0x0a,0x4f,0x70,0x65,0x6e,0x31,0x06,0x3a,0x06,0x45,0x54,0x3a,0x0b,0x40,0x70,0x69,0x74,0x63,0x68,0x69,0x69,0x3a,0x0c,0x40,0x76,0x6f,0x6c,0x75,0x6d,0x65,0x69,0x55))
  205(0,bytes(0x04,0x08,0x6f,0x3a,0x13,0x52,0x50,0x47,0x3a,0x3a,0x4d,0x6f,0x76,0x65,0x52,0x6f,0x75,0x74,0x65,0x09,0x3a,0x0c,0x40,0x72,0x65,0x70,0x65,0x61,0x74,0x46,0x3a,0x0f,0x40,0x73,0x6b,0x69,0x70,0x70,0x61,0x62,0x6c,0x65,0x46,0x3a,0x0a,0x40,0x77,0x61,0x69,0x74,0x54,0x3a,0x0a,0x40,0x6c,0x69,0x73,0x74,0x5b,0x0c,0x6f,0x3a,0x15,0x52,0x50,0x47,0x3a,0x3a,0x4d,0x6f,0x76,0x65,0x43,0x6f,0x6d,0x6d,0x61,0x6e,0x64,0x07,0x3a,0x0a,0x40,0x63,0x6f,0x64,0x65,0x69,0x16,0x3a,0x10,0x40,0x70,0x61,0x72,0x61,0x6d,0x65,0x74,0x65,0x72,0x73,0x5b,0x00,0x6f,0x3b,0x0a,0x07,0x3b,0x0b,0x69,0x14,0x3b,0x0c,0x5b,0x06,0x69,0x08,0x6f,0x3b,0x0a,0x07,0x3b,0x0b,0x69,0x17,0x3b,0x0c,0x5b,0x00,0x6f,0x3b,0x0a,0x07,0x3b,0x0b,0x69,0x14,0x3b,0x0c,0x5b,0x06,0x69,0x08,0x6f,0x3b,0x0a,0x07,0x3b,0x0b,0x69,0x18,0x3b,0x0c,0x5b,0x00,0x6f,0x3b,0x0a,0x07,0x3b,0x0b,0x69,0x2a,0x3b,0x0c,0x5b,0x00,0x6f,0x3b,0x0a,0x07,0x3b,0x0b,0x69,0x00,0x3b,0x0c,0x5b,0x00))
  205(-1,bytes(0x04,0x08,0x6f,0x3a,0x13,0x52,0x50,0x47,0x3a,0x3a,0x4d,0x6f,0x76,0x65,0x52,0x6f,0x75,0x74,0x65,0x09,0x3a,0x0c,0x40,0x72,0x65,0x70,0x65,0x61,0x74,0x46,0x3a,0x0f,0x40,0x73,0x6b,0x69,0x70,0x70,0x61,0x62,0x6c,0x65,0x54,0x3a,0x0a,0x40,0x77,0x61,0x69,0x74,0x54,0x3a,0x0a,0x40,0x6c,0x69,0x73,0x74,0x5b,0x07,0x6f,0x3a,0x15,0x52,0x50,0x47,0x3a,0x3a,0x4d,0x6f,0x76,0x65,0x43,0x6f,0x6d,0x6d,0x61,0x6e,0x64,0x07,0x3a,0x0a,0x40,0x63,0x6f,0x64,0x65,0x69,0x11,0x3a,0x10,0x40,0x70,0x61,0x72,0x61,0x6d,0x65,0x74,0x65,0x72,0x73,0x5b,0x00,0x6f,0x3b,0x0a,0x07,0x3b,0x0b,0x69,0x00,0x3b,0x0c,0x5b,0x00))
  250(bytes(0x04,0x08,0x6f,0x3a,0x0c,0x52,0x50,0x47,0x3a,0x3a,0x53,0x45,0x08,0x3a,0x0a,0x40,0x6e,0x61,0x6d,0x65,0x49,0x22,0x09,0x4d,0x6f,0x76,0x65,0x06,0x3a,0x06,0x45,0x54,0x3a,0x0b,0x40,0x70,0x69,0x74,0x63,0x68,0x69,0x69,0x3a,0x0c,0x40,0x76,0x6f,0x6c,0x75,0x6d,0x65,0x69,0x55))
  TeleportPlayer(0,22,66,17,0,0)
  0()



EVENT   22
 PAGE   1
  250(bytes(0x04,0x08,0x6f,0x3a,0x0c,0x52,0x50,0x47,0x3a,0x3a,0x53,0x45,0x08,0x3a,0x0a,0x40,0x6e,0x61,0x6d,0x65,0x49,0x22,0x0a,0x4f,0x70,0x65,0x6e,0x31,0x06,0x3a,0x06,0x45,0x54,0x3a,0x0b,0x40,0x70,0x69,0x74,0x63,0x68,0x69,0x69,0x3a,0x0c,0x40,0x76,0x6f,0x6c,0x75,0x6d,0x65,0x69,0x55))
  205(0,bytes(0x04,0x08,0x6f,0x3a,0x13,0x52,0x50,0x47,0x3a,0x3a,0x4d,0x6f,0x76,0x65,0x52,0x6f,0x75,0x74,0x65,0x09,0x3a,0x0c,0x40,0x72,0x65,0x70,0x65,0x61,0x74,0x46,0x3a,0x0f,0x40,0x73,0x6b,0x69,0x70,0x70,0x61,0x62,0x6c,0x65,0x46,0x3a,0x0a,0x40,0x77,0x61,0x69,0x74,0x54,0x3a,0x0a,0x40,0x6c,0x69,0x73,0x74,0x5b,0x0c,0x6f,0x3a,0x15,0x52,0x50,0x47,0x3a,0x3a,0x4d,0x6f,0x76,0x65,0x43,0x6f,0x6d,0x6d,0x61,0x6e,0x64,0x07,0x3a,0x0a,0x40,0x63,0x6f,0x64,0x65,0x69,0x16,0x3a,0x10,0x40,0x70,0x61,0x72,0x61,0x6d,0x65,0x74,0x65,0x72,0x73,0x5b,0x00,0x6f,0x3b,0x0a,0x07,0x3b,0x0b,0x69,0x14,0x3b,0x0c,0x5b,0x06,0x69,0x08,0x6f,0x3b,0x0a,0x07,0x3b,0x0b,0x69,0x17,0x3b,0x0c,0x5b,0x00,0x6f,0x3b,0x0a,0x07,0x3b,0x0b,0x69,0x14,0x3b,0x0c,0x5b,0x06,0x69,0x08,0x6f,0x3b,0x0a,0x07,0x3b,0x0b,0x69,0x18,0x3b,0x0c,0x5b,0x00,0x6f,0x3b,0x0a,0x07,0x3b,0x0b,0x69,0x2a,0x3b,0x0c,0x5b,0x00,0x6f,0x3b,0x0a,0x07,0x3b,0x0b,0x69,0x00,0x3b,0x0c,0x5b,0x00))
  205(-1,bytes(0x04,0x08,0x6f,0x3a,0x13,0x52,0x50,0x47,0x3a,0x3a,0x4d,0x6f,0x76,0x65,0x52,0x6f,0x75,0x74,0x65,0x09,0x3a,0x0c,0x40,0x72,0x65,0x70,0x65,0x61,0x74,0x46,0x3a,0x0f,0x40,0x73,0x6b,0x69,0x70,0x70,0x61,0x62,0x6c,0x65,0x54,0x3a,0x0a,0x40,0x77,0x61,0x69,0x74,0x54,0x3a,0x0a,0x40,0x6c,0x69,0x73,0x74,0x5b,0x07,0x6f,0x3a,0x15,0x52,0x50,0x47,0x3a,0x3a,0x4d,0x6f,0x76,0x65,0x43,0x6f,0x6d,0x6d,0x61,0x6e,0x64,0x07,0x3a,0x0a,0x40,0x63,0x6f,0x64,0x65,0x69,0x11,0x3a,0x10,0x40,0x70,0x61,0x72,0x61,0x6d,0x65,0x74,0x65,0x72,0x73,0x5b,0x00,0x6f,0x3b,0x0a,0x07,0x3b,0x0b,0x69,0x00,0x3b,0x0c,0x5b,0x00))
  250(bytes(0x04,0x08,0x6f,0x3a,0x0c,0x52,0x50,0x47,0x3a,0x3a,0x53,0x45,0x08,0x3a,0x0a,0x40,0x6e,0x61,0x6d,0x65,0x49,0x22,0x09,0x4d,0x6f,0x76,0x65,0x06,0x3a,0x06,0x45,0x54,0x3a,0x0b,0x40,0x70,0x69,0x74,0x63,0x68,0x69,0x69,0x3a,0x0c,0x40,0x76,0x6f,0x6c,0x75,0x6d,0x65,0x69,0x55))
  TeleportPlayer(0,22,69,41,0,0)
  0()



EVENT   23
 PAGE   1
  250(bytes(0x04,0x08,0x6f,0x3a,0x0c,0x52,0x50,0x47,0x3a,0x3a,0x53,0x45,0x08,0x3a,0x0a,0x40,0x6e,0x61,0x6d,0x65,0x49,0x22,0x0a,0x4f,0x70,0x65,0x6e,0x31,0x06,0x3a,0x06,0x45,0x54,0x3a,0x0b,0x40,0x70,0x69,0x74,0x63,0x68,0x69,0x69,0x3a,0x0c,0x40,0x76,0x6f,0x6c,0x75,0x6d,0x65,0x69,0x55))
  205(0,bytes(0x04,0x08,0x6f,0x3a,0x13,0x52,0x50,0x47,0x3a,0x3a,0x4d,0x6f,0x76,0x65,0x52,0x6f,0x75,0x74,0x65,0x09,0x3a,0x0c,0x40,0x72,0x65,0x70,0x65,0x61,0x74,0x46,0x3a,0x0f,0x40,0x73,0x6b,0x69,0x70,0x70,0x61,0x62,0x6c,0x65,0x46,0x3a,0x0a,0x40,0x77,0x61,0x69,0x74,0x54,0x3a,0x0a,0x40,0x6c,0x69,0x73,0x74,0x5b,0x0c,0x6f,0x3a,0x15,0x52,0x50,0x47,0x3a,0x3a,0x4d,0x6f,0x76,0x65,0x43,0x6f,0x6d,0x6d,0x61,0x6e,0x64,0x07,0x3a,0x0a,0x40,0x63,0x6f,0x64,0x65,0x69,0x16,0x3a,0x10,0x40,0x70,0x61,0x72,0x61,0x6d,0x65,0x74,0x65,0x72,0x73,0x5b,0x00,0x6f,0x3b,0x0a,0x07,0x3b,0x0b,0x69,0x14,0x3b,0x0c,0x5b,0x06,0x69,0x08,0x6f,0x3b,0x0a,0x07,0x3b,0x0b,0x69,0x17,0x3b,0x0c,0x5b,0x00,0x6f,0x3b,0x0a,0x07,0x3b,0x0b,0x69,0x14,0x3b,0x0c,0x5b,0x06,0x69,0x08,0x6f,0x3b,0x0a,0x07,0x3b,0x0b,0x69,0x18,0x3b,0x0c,0x5b,0x00,0x6f,0x3b,0x0a,0x07,0x3b,0x0b,0x69,0x2a,0x3b,0x0c,0x5b,0x00,0x6f,0x3b,0x0a,0x07,0x3b,0x0b,0x69,0x00,0x3b,0x0c,0x5b,0x00))
  205(-1,bytes(0x04,0x08,0x6f,0x3a,0x13,0x52,0x50,0x47,0x3a,0x3a,0x4d,0x6f,0x76,0x65,0x52,0x6f,0x75,0x74,0x65,0x09,0x3a,0x0c,0x40,0x72,0x65,0x70,0x65,0x61,0x74,0x46,0x3a,0x0f,0x40,0x73,0x6b,0x69,0x70,0x70,0x61,0x62,0x6c,0x65,0x54,0x3a,0x0a,0x40,0x77,0x61,0x69,0x74,0x54,0x3a,0x0a,0x40,0x6c,0x69,0x73,0x74,0x5b,0x07,0x6f,0x3a,0x15,0x52,0x50,0x47,0x3a,0x3a,0x4d,0x6f,0x76,0x65,0x43,0x6f,0x6d,0x6d,0x61,0x6e,0x64,0x07,0x3a,0x0a,0x40,0x63,0x6f,0x64,0x65,0x69,0x11,0x3a,0x10,0x40,0x70,0x61,0x72,0x61,0x6d,0x65,0x74,0x65,0x72,0x73,0x5b,0x00,0x6f,0x3b,0x0a,0x07,0x3b,0x0b,0x69,0x00,0x3b,0x0c,0x5b,0x00))
  250(bytes(0x04,0x08,0x6f,0x3a,0x0c,0x52,0x50,0x47,0x3a,0x3a,0x53,0x45,0x08,0x3a,0x0a,0x40,0x6e,0x61,0x6d,0x65,0x49,0x22,0x09,0x4d,0x6f,0x76,0x65,0x06,0x3a,0x06,0x45,0x54,0x3a,0x0b,0x40,0x70,0x69,0x74,0x63,0x68,0x69,0x69,0x3a,0x0c,0x40,0x76,0x6f,0x6c,0x75,0x6d,0x65,0x69,0x55))
  TeleportPlayer(0,22,89,43,0,0)
  0()



EVENT   24
 PAGE   1
  250(bytes(0x04,0x08,0x6f,0x3a,0x0c,0x52,0x50,0x47,0x3a,0x3a,0x53,0x45,0x08,0x3a,0x0a,0x40,0x6e,0x61,0x6d,0x65,0x49,0x22,0x0a,0x4f,0x70,0x65,0x6e,0x31,0x06,0x3a,0x06,0x45,0x54,0x3a,0x0b,0x40,0x70,0x69,0x74,0x63,0x68,0x69,0x69,0x3a,0x0c,0x40,0x76,0x6f,0x6c,0x75,0x6d,0x65,0x69,0x55))
  205(0,bytes(0x04,0x08,0x6f,0x3a,0x13,0x52,0x50,0x47,0x3a,0x3a,0x4d,0x6f,0x76,0x65,0x52,0x6f,0x75,0x74,0x65,0x09,0x3a,0x0c,0x40,0x72,0x65,0x70,0x65,0x61,0x74,0x46,0x3a,0x0f,0x40,0x73,0x6b,0x69,0x70,0x70,0x61,0x62,0x6c,0x65,0x46,0x3a,0x0a,0x40,0x77,0x61,0x69,0x74,0x54,0x3a,0x0a,0x40,0x6c,0x69,0x73,0x74,0x5b,0x0c,0x6f,0x3a,0x15,0x52,0x50,0x47,0x3a,0x3a,0x4d,0x6f,0x76,0x65,0x43,0x6f,0x6d,0x6d,0x61,0x6e,0x64,0x07,0x3a,0x0a,0x40,0x63,0x6f,0x64,0x65,0x69,0x16,0x3a,0x10,0x40,0x70,0x61,0x72,0x61,0x6d,0x65,0x74,0x65,0x72,0x73,0x5b,0x00,0x6f,0x3b,0x0a,0x07,0x3b,0x0b,0x69,0x14,0x3b,0x0c,0x5b,0x06,0x69,0x08,0x6f,0x3b,0x0a,0x07,0x3b,0x0b,0x69,0x17,0x3b,0x0c,0x5b,0x00,0x6f,0x3b,0x0a,0x07,0x3b,0x0b,0x69,0x14,0x3b,0x0c,0x5b,0x06,0x69,0x08,0x6f,0x3b,0x0a,0x07,0x3b,0x0b,0x69,0x18,0x3b,0x0c,0x5b,0x00,0x6f,0x3b,0x0a,0x07,0x3b,0x0b,0x69,0x2a,0x3b,0x0c,0x5b,0x00,0x6f,0x3b,0x0a,0x07,0x3b,0x0b,0x69,0x00,0x3b,0x0c,0x5b,0x00))
  205(-1,bytes(0x04,0x08,0x6f,0x3a,0x13,0x52,0x50,0x47,0x3a,0x3a,0x4d,0x6f,0x76,0x65,0x52,0x6f,0x75,0x74,0x65,0x09,0x3a,0x0c,0x40,0x72,0x65,0x70,0x65,0x61,0x74,0x46,0x3a,0x0f,0x40,0x73,0x6b,0x69,0x70,0x70,0x61,0x62,0x6c,0x65,0x54,0x3a,0x0a,0x40,0x77,0x61,0x69,0x74,0x54,0x3a,0x0a,0x40,0x6c,0x69,0x73,0x74,0x5b,0x07,0x6f,0x3a,0x15,0x52,0x50,0x47,0x3a,0x3a,0x4d,0x6f,0x76,0x65,0x43,0x6f,0x6d,0x6d,0x61,0x6e,0x64,0x07,0x3a,0x0a,0x40,0x63,0x6f,0x64,0x65,0x69,0x11,0x3a,0x10,0x40,0x70,0x61,0x72,0x61,0x6d,0x65,0x74,0x65,0x72,0x73,0x5b,0x00,0x6f,0x3b,0x0a,0x07,0x3b,0x0b,0x69,0x00,0x3b,0x0c,0x5b,0x00))
  250(bytes(0x04,0x08,0x6f,0x3a,0x0c,0x52,0x50,0x47,0x3a,0x3a,0x53,0x45,0x08,0x3a,0x0a,0x40,0x6e,0x61,0x6d,0x65,0x49,0x22,0x09,0x4d,0x6f,0x76,0x65,0x06,0x3a,0x06,0x45,0x54,0x3a,0x0b,0x40,0x70,0x69,0x74,0x63,0x68,0x69,0x69,0x3a,0x0c,0x40,0x76,0x6f,0x6c,0x75,0x6d,0x65,0x69,0x55))
  TeleportPlayer(0,22,46,38,0,0)
  0()



EVENT   25
 PAGE   1
  250(bytes(0x04,0x08,0x6f,0x3a,0x0c,0x52,0x50,0x47,0x3a,0x3a,0x53,0x45,0x08,0x3a,0x0a,0x40,0x6e,0x61,0x6d,0x65,0x49,0x22,0x0a,0x4f,0x70,0x65,0x6e,0x31,0x06,0x3a,0x06,0x45,0x54,0x3a,0x0b,0x40,0x70,0x69,0x74,0x63,0x68,0x69,0x69,0x3a,0x0c,0x40,0x76,0x6f,0x6c,0x75,0x6d,0x65,0x69,0x55))
  205(0,bytes(0x04,0x08,0x6f,0x3a,0x13,0x52,0x50,0x47,0x3a,0x3a,0x4d,0x6f,0x76,0x65,0x52,0x6f,0x75,0x74,0x65,0x09,0x3a,0x0c,0x40,0x72,0x65,0x70,0x65,0x61,0x74,0x46,0x3a,0x0f,0x40,0x73,0x6b,0x69,0x70,0x70,0x61,0x62,0x6c,0x65,0x46,0x3a,0x0a,0x40,0x77,0x61,0x69,0x74,0x54,0x3a,0x0a,0x40,0x6c,0x69,0x73,0x74,0x5b,0x0c,0x6f,0x3a,0x15,0x52,0x50,0x47,0x3a,0x3a,0x4d,0x6f,0x76,0x65,0x43,0x6f,0x6d,0x6d,0x61,0x6e,0x64,0x07,0x3a,0x0a,0x40,0x63,0x6f,0x64,0x65,0x69,0x16,0x3a,0x10,0x40,0x70,0x61,0x72,0x61,0x6d,0x65,0x74,0x65,0x72,0x73,0x5b,0x00,0x6f,0x3b,0x0a,0x07,0x3b,0x0b,0x69,0x14,0x3b,0x0c,0x5b,0x06,0x69,0x08,0x6f,0x3b,0x0a,0x07,0x3b,0x0b,0x69,0x17,0x3b,0x0c,0x5b,0x00,0x6f,0x3b,0x0a,0x07,0x3b,0x0b,0x69,0x14,0x3b,0x0c,0x5b,0x06,0x69,0x08,0x6f,0x3b,0x0a,0x07,0x3b,0x0b,0x69,0x18,0x3b,0x0c,0x5b,0x00,0x6f,0x3b,0x0a,0x07,0x3b,0x0b,0x69,0x2a,0x3b,0x0c,0x5b,0x00,0x6f,0x3b,0x0a,0x07,0x3b,0x0b,0x69,0x00,0x3b,0x0c,0x5b,0x00))
  205(-1,bytes(0x04,0x08,0x6f,0x3a,0x13,0x52,0x50,0x47,0x3a,0x3a,0x4d,0x6f,0x76,0x65,0x52,0x6f,0x75,0x74,0x65,0x09,0x3a,0x0c,0x40,0x72,0x65,0x70,0x65,0x61,0x74,0x46,0x3a,0x0f,0x40,0x73,0x6b,0x69,0x70,0x70,0x61,0x62,0x6c,0x65,0x54,0x3a,0x0a,0x40,0x77,0x61,0x69,0x74,0x54,0x3a,0x0a,0x40,0x6c,0x69,0x73,0x74,0x5b,0x07,0x6f,0x3a,0x15,0x52,0x50,0x47,0x3a,0x3a,0x4d,0x6f,0x76,0x65,0x43,0x6f,0x6d,0x6d,0x61,0x6e,0x64,0x07,0x3a,0x0a,0x40,0x63,0x6f,0x64,0x65,0x69,0x11,0x3a,0x10,0x40,0x70,0x61,0x72,0x61,0x6d,0x65,0x74,0x65,0x72,0x73,0x5b,0x00,0x6f,0x3b,0x0a,0x07,0x3b,0x0b,0x69,0x00,0x3b,0x0c,0x5b,0x00))
  250(bytes(0x04,0x08,0x6f,0x3a,0x0c,0x52,0x50,0x47,0x3a,0x3a,0x53,0x45,0x08,0x3a,0x0a,0x40,0x6e,0x61,0x6d,0x65,0x49,0x22,0x09,0x4d,0x6f,0x76,0x65,0x06,0x3a,0x06,0x45,0x54,0x3a,0x0b,0x40,0x70,0x69,0x74,0x63,0x68,0x69,0x69,0x3a,0x0c,0x40,0x76,0x6f,0x6c,0x75,0x6d,0x65,0x69,0x55))
  TeleportPlayer(0,22,69,62,0,0)
  0()



EVENT   26
 PAGE   1
  ShowMessageFace("",0,0,2,1)
  ShowMessage("ルカは仲間を外に待たせ、一人で民家に入った……")
  216(1)
  250(bytes(0x04,0x08,0x6f,0x3a,0x0c,0x52,0x50,0x47,0x3a,0x3a,0x53,0x45,0x08,0x3a,0x0a,0x40,0x6e,0x61,0x6d,0x65,0x49,0x22,0x0a,0x4f,0x70,0x65,0x6e,0x31,0x06,0x3a,0x06,0x45,0x54,0x3a,0x0b,0x40,0x70,0x69,0x74,0x63,0x68,0x69,0x69,0x3a,0x0c,0x40,0x76,0x6f,0x6c,0x75,0x6d,0x65,0x69,0x55))
  205(0,bytes(0x04,0x08,0x6f,0x3a,0x13,0x52,0x50,0x47,0x3a,0x3a,0x4d,0x6f,0x76,0x65,0x52,0x6f,0x75,0x74,0x65,0x09,0x3a,0x0c,0x40,0x72,0x65,0x70,0x65,0x61,0x74,0x46,0x3a,0x0f,0x40,0x73,0x6b,0x69,0x70,0x70,0x61,0x62,0x6c,0x65,0x46,0x3a,0x0a,0x40,0x77,0x61,0x69,0x74,0x54,0x3a,0x0a,0x40,0x6c,0x69,0x73,0x74,0x5b,0x0c,0x6f,0x3a,0x15,0x52,0x50,0x47,0x3a,0x3a,0x4d,0x6f,0x76,0x65,0x43,0x6f,0x6d,0x6d,0x61,0x6e,0x64,0x07,0x3a,0x0a,0x40,0x63,0x6f,0x64,0x65,0x69,0x16,0x3a,0x10,0x40,0x70,0x61,0x72,0x61,0x6d,0x65,0x74,0x65,0x72,0x73,0x5b,0x00,0x6f,0x3b,0x0a,0x07,0x3b,0x0b,0x69,0x14,0x3b,0x0c,0x5b,0x06,0x69,0x08,0x6f,0x3b,0x0a,0x07,0x3b,0x0b,0x69,0x17,0x3b,0x0c,0x5b,0x00,0x6f,0x3b,0x0a,0x07,0x3b,0x0b,0x69,0x14,0x3b,0x0c,0x5b,0x06,0x69,0x08,0x6f,0x3b,0x0a,0x07,0x3b,0x0b,0x69,0x18,0x3b,0x0c,0x5b,0x00,0x6f,0x3b,0x0a,0x07,0x3b,0x0b,0x69,0x2a,0x3b,0x0c,0x5b,0x00,0x6f,0x3b,0x0a,0x07,0x3b,0x0b,0x69,0x00,0x3b,0x0c,0x5b,0x00))
  205(-1,bytes(0x04,0x08,0x6f,0x3a,0x13,0x52,0x50,0x47,0x3a,0x3a,0x4d,0x6f,0x76,0x65,0x52,0x6f,0x75,0x74,0x65,0x09,0x3a,0x0c,0x40,0x72,0x65,0x70,0x65,0x61,0x74,0x46,0x3a,0x0f,0x40,0x73,0x6b,0x69,0x70,0x70,0x61,0x62,0x6c,0x65,0x54,0x3a,0x0a,0x40,0x77,0x61,0x69,0x74,0x54,0x3a,0x0a,0x40,0x6c,0x69,0x73,0x74,0x5b,0x07,0x6f,0x3a,0x15,0x52,0x50,0x47,0x3a,0x3a,0x4d,0x6f,0x76,0x65,0x43,0x6f,0x6d,0x6d,0x61,0x6e,0x64,0x07,0x3a,0x0a,0x40,0x63,0x6f,0x64,0x65,0x69,0x11,0x3a,0x10,0x40,0x70,0x61,0x72,0x61,0x6d,0x65,0x74,0x65,0x72,0x73,0x5b,0x00,0x6f,0x3b,0x0a,0x07,0x3b,0x0b,0x69,0x00,0x3b,0x0c,0x5b,0x00))
  250(bytes(0x04,0x08,0x6f,0x3a,0x0c,0x52,0x50,0x47,0x3a,0x3a,0x53,0x45,0x08,0x3a,0x0a,0x40,0x6e,0x61,0x6d,0x65,0x49,0x22,0x09,0x4d,0x6f,0x76,0x65,0x06,0x3a,0x06,0x45,0x54,0x3a,0x0b,0x40,0x70,0x69,0x74,0x63,0x68,0x69,0x69,0x3a,0x0c,0x40,0x76,0x6f,0x6c,0x75,0x6d,0x65,0x69,0x55))
  TeleportPlayer(0,22,88,62,0,0)
  0()



EVENT   27
 PAGE   1
  250(bytes(0x04,0x08,0x6f,0x3a,0x0c,0x52,0x50,0x47,0x3a,0x3a,0x53,0x45,0x08,0x3a,0x0a,0x40,0x6e,0x61,0x6d,0x65,0x49,0x22,0x0a,0x4f,0x70,0x65,0x6e,0x31,0x06,0x3a,0x06,0x45,0x54,0x3a,0x0b,0x40,0x70,0x69,0x74,0x63,0x68,0x69,0x69,0x3a,0x0c,0x40,0x76,0x6f,0x6c,0x75,0x6d,0x65,0x69,0x55))
  205(0,bytes(0x04,0x08,0x6f,0x3a,0x13,0x52,0x50,0x47,0x3a,0x3a,0x4d,0x6f,0x76,0x65,0x52,0x6f,0x75,0x74,0x65,0x09,0x3a,0x0c,0x40,0x72,0x65,0x70,0x65,0x61,0x74,0x46,0x3a,0x0f,0x40,0x73,0x6b,0x69,0x70,0x70,0x61,0x62,0x6c,0x65,0x46,0x3a,0x0a,0x40,0x77,0x61,0x69,0x74,0x54,0x3a,0x0a,0x40,0x6c,0x69,0x73,0x74,0x5b,0x0c,0x6f,0x3a,0x15,0x52,0x50,0x47,0x3a,0x3a,0x4d,0x6f,0x76,0x65,0x43,0x6f,0x6d,0x6d,0x61,0x6e,0x64,0x07,0x3a,0x0a,0x40,0x63,0x6f,0x64,0x65,0x69,0x16,0x3a,0x10,0x40,0x70,0x61,0x72,0x61,0x6d,0x65,0x74,0x65,0x72,0x73,0x5b,0x00,0x6f,0x3b,0x0a,0x07,0x3b,0x0b,0x69,0x14,0x3b,0x0c,0x5b,0x06,0x69,0x08,0x6f,0x3b,0x0a,0x07,0x3b,0x0b,0x69,0x17,0x3b,0x0c,0x5b,0x00,0x6f,0x3b,0x0a,0x07,0x3b,0x0b,0x69,0x14,0x3b,0x0c,0x5b,0x06,0x69,0x08,0x6f,0x3b,0x0a,0x07,0x3b,0x0b,0x69,0x18,0x3b,0x0c,0x5b,0x00,0x6f,0x3b,0x0a,0x07,0x3b,0x0b,0x69,0x2a,0x3b,0x0c,0x5b,0x00,0x6f,0x3b,0x0a,0x07,0x3b,0x0b,0x69,0x00,0x3b,0x0c,0x5b,0x00))
  205(-1,bytes(0x04,0x08,0x6f,0x3a,0x13,0x52,0x50,0x47,0x3a,0x3a,0x4d,0x6f,0x76,0x65,0x52,0x6f,0x75,0x74,0x65,0x09,0x3a,0x0c,0x40,0x72,0x65,0x70,0x65,0x61,0x74,0x46,0x3a,0x0f,0x40,0x73,0x6b,0x69,0x70,0x70,0x61,0x62,0x6c,0x65,0x54,0x3a,0x0a,0x40,0x77,0x61,0x69,0x74,0x54,0x3a,0x0a,0x40,0x6c,0x69,0x73,0x74,0x5b,0x07,0x6f,0x3a,0x15,0x52,0x50,0x47,0x3a,0x3a,0x4d,0x6f,0x76,0x65,0x43,0x6f,0x6d,0x6d,0x61,0x6e,0x64,0x07,0x3a,0x0a,0x40,0x63,0x6f,0x64,0x65,0x69,0x11,0x3a,0x10,0x40,0x70,0x61,0x72,0x61,0x6d,0x65,0x74,0x65,0x72,0x73,0x5b,0x00,0x6f,0x3b,0x0a,0x07,0x3b,0x0b,0x69,0x00,0x3b,0x0c,0x5b,0x00))
  250(bytes(0x04,0x08,0x6f,0x3a,0x0c,0x52,0x50,0x47,0x3a,0x3a,0x53,0x45,0x08,0x3a,0x0a,0x40,0x6e,0x61,0x6d,0x65,0x49,0x22,0x09,0x4d,0x6f,0x76,0x65,0x06,0x3a,0x06,0x45,0x54,0x3a,0x0b,0x40,0x70,0x69,0x74,0x63,0x68,0x69,0x69,0x3a,0x0c,0x40,0x76,0x6f,0x6c,0x75,0x6d,0x65,0x69,0x55))
  TeleportPlayer(0,22,110,44,0,0)
  0()



EVENT   28
 PAGE   1
  If(1,1001,0,25,2)
   ShowMessageFace("",0,0,2,1)
   ShowMessage("\\n<男>エスタで全住民が消失した事件は知ってるだろう？")
   ShowMessage("聞いた話では、南の方の漁村でも同様の事件があったらしいな。")
   ShowMessageFace("",0,0,2,2)
   ShowMessage("\\n<男>グランゴルドが関わってるっていう噂もあるが……俺は信じないな。")
   ShowMessage("あんなの、人智を越えてるよ。")
   If(4,41,0)
    ShowMessageFace("stein_fc2",0,0,2,3)
    ShowMessage("\\n<プロメスティン>グランゴルドに関わりがあるというのは、流言飛語の類ですね。")
    ShowMessage("まず間違いなく、タルタロスが関わっているでしょう……")
    0()
   EndIf()
   EndEventProcessing()
   0()
  EndIf()
  If(1,1001,0,26,1)
   If(1,1001,0,28,2)
    ShowMessageFace("",0,0,2,4)
    ShowMessage("\\n<男>エスタやルビアナで消失事件、それに魔王からの宣戦布告……")
    ShowMessage("なんかもう、世の中真っ暗だな。")
    EndEventProcessing()
    0()
   EndIf()
   0()
  EndIf()
  If(1,1001,0,29,1)
   ShowMessageFace("",0,0,2,5)
   ShowMessage("\\n<男>もう少しでエルフに殺されるところだった。")
   ShowMessage("まさか、王都に魔王軍が踏み込んでくるなんて……")
   355("actor_label_jump")
   EndEventProcessing()
   DefineLabel("312")
   ShowMessageFace("amazoneself_fc1",2,0,2,6)
   ShowMessage("\\n<サン>我ながら、なにゆえあのような暴虐を……")
   ShowMessage("戦士の名が泣くな。")
   EndEventProcessing()
   DefineLabel("316")
   ShowMessageFace("queenelf_fc1",0,0,2,7)
   ShowMessage("\\n<フレイヤ>私達の愚行は、人々に恐怖を刻み込んでしまったようですね……")
   EndEventProcessing()
   0()
  EndIf()
  0()



EVENT   29
 PAGE   1
  250(bytes(0x04,0x08,0x6f,0x3a,0x0c,0x52,0x50,0x47,0x3a,0x3a,0x53,0x45,0x08,0x3a,0x0a,0x40,0x6e,0x61,0x6d,0x65,0x49,0x22,0x09,0x4d,0x6f,0x76,0x65,0x06,0x3a,0x06,0x45,0x54,0x3a,0x0b,0x40,0x70,0x69,0x74,0x63,0x68,0x69,0x69,0x3a,0x0c,0x40,0x76,0x6f,0x6c,0x75,0x6d,0x65,0x69,0x55))
  TeleportPlayer(0,2,329,186,2,0)
  0()



EVENT   30
 PAGE   1
  250(bytes(0x04,0x08,0x6f,0x3a,0x0c,0x52,0x50,0x47,0x3a,0x3a,0x53,0x45,0x08,0x3a,0x0a,0x40,0x6e,0x61,0x6d,0x65,0x49,0x22,0x09,0x4d,0x6f,0x76,0x65,0x06,0x3a,0x06,0x45,0x54,0x3a,0x0b,0x40,0x70,0x69,0x74,0x63,0x68,0x69,0x69,0x3a,0x0c,0x40,0x76,0x6f,0x6c,0x75,0x6d,0x65,0x69,0x55))
  TeleportPlayer(0,2,329,186,2,0)
  0()



EVENT   31
 PAGE   1
  281(0)
  250(bytes(0x04,0x08,0x6f,0x3a,0x0c,0x52,0x50,0x47,0x3a,0x3a,0x53,0x45,0x08,0x3a,0x0a,0x40,0x6e,0x61,0x6d,0x65,0x49,0x22,0x09,0x4d,0x6f,0x76,0x65,0x06,0x3a,0x06,0x45,0x54,0x3a,0x0b,0x40,0x70,0x69,0x74,0x63,0x68,0x69,0x69,0x3a,0x0c,0x40,0x76,0x6f,0x6c,0x75,0x6d,0x65,0x69,0x55))
  TeleportPlayer(0,472,19,28,8,0)
  0()



EVENT   32
 PAGE   1
  281(0)
  250(bytes(0x04,0x08,0x6f,0x3a,0x0c,0x52,0x50,0x47,0x3a,0x3a,0x53,0x45,0x08,0x3a,0x0a,0x40,0x6e,0x61,0x6d,0x65,0x49,0x22,0x09,0x4d,0x6f,0x76,0x65,0x06,0x3a,0x06,0x45,0x54,0x3a,0x0b,0x40,0x70,0x69,0x74,0x63,0x68,0x69,0x69,0x3a,0x0c,0x40,0x76,0x6f,0x6c,0x75,0x6d,0x65,0x69,0x55))
  TeleportPlayer(0,472,19,28,8,0)
  0()



EVENT   33
 PAGE   1
  281(0)
  250(bytes(0x04,0x08,0x6f,0x3a,0x0c,0x52,0x50,0x47,0x3a,0x3a,0x53,0x45,0x08,0x3a,0x0a,0x40,0x6e,0x61,0x6d,0x65,0x49,0x22,0x09,0x4d,0x6f,0x76,0x65,0x06,0x3a,0x06,0x45,0x54,0x3a,0x0b,0x40,0x70,0x69,0x74,0x63,0x68,0x69,0x69,0x3a,0x0c,0x40,0x76,0x6f,0x6c,0x75,0x6d,0x65,0x69,0x55))
  TeleportPlayer(0,472,19,28,8,0)
  0()



EVENT   34
 PAGE   1
  281(0)
  250(bytes(0x04,0x08,0x6f,0x3a,0x0c,0x52,0x50,0x47,0x3a,0x3a,0x53,0x45,0x08,0x3a,0x0a,0x40,0x6e,0x61,0x6d,0x65,0x49,0x22,0x09,0x4d,0x6f,0x76,0x65,0x06,0x3a,0x06,0x45,0x54,0x3a,0x0b,0x40,0x70,0x69,0x74,0x63,0x68,0x69,0x69,0x3a,0x0c,0x40,0x76,0x6f,0x6c,0x75,0x6d,0x65,0x69,0x55))
  TeleportPlayer(0,472,19,28,8,0)
  0()



EVENT   35
 PAGE   1
  281(0)
  250(bytes(0x04,0x08,0x6f,0x3a,0x0c,0x52,0x50,0x47,0x3a,0x3a,0x53,0x45,0x08,0x3a,0x0a,0x40,0x6e,0x61,0x6d,0x65,0x49,0x22,0x09,0x4d,0x6f,0x76,0x65,0x06,0x3a,0x06,0x45,0x54,0x3a,0x0b,0x40,0x70,0x69,0x74,0x63,0x68,0x69,0x69,0x3a,0x0c,0x40,0x76,0x6f,0x6c,0x75,0x6d,0x65,0x69,0x55))
  TeleportPlayer(0,472,19,28,8,0)
  0()



EVENT   36
 PAGE   1
  250(bytes(0x04,0x08,0x6f,0x3a,0x0c,0x52,0x50,0x47,0x3a,0x3a,0x53,0x45,0x08,0x3a,0x0a,0x40,0x6e,0x61,0x6d,0x65,0x49,0x22,0x09,0x4d,0x6f,0x76,0x65,0x06,0x3a,0x06,0x45,0x54,0x3a,0x0b,0x40,0x70,0x69,0x74,0x63,0x68,0x69,0x69,0x3a,0x0c,0x40,0x76,0x6f,0x6c,0x75,0x6d,0x65,0x69,0x55))
  TeleportPlayer(0,2,329,186,2,0)
  0()



EVENT   37
 PAGE   1
  250(bytes(0x04,0x08,0x6f,0x3a,0x0c,0x52,0x50,0x47,0x3a,0x3a,0x53,0x45,0x08,0x3a,0x0a,0x40,0x6e,0x61,0x6d,0x65,0x49,0x22,0x09,0x4d,0x6f,0x76,0x65,0x06,0x3a,0x06,0x45,0x54,0x3a,0x0b,0x40,0x70,0x69,0x74,0x63,0x68,0x69,0x69,0x3a,0x0c,0x40,0x76,0x6f,0x6c,0x75,0x6d,0x65,0x69,0x55))
  TeleportPlayer(0,2,329,186,2,0)
  0()



EVENT   38
 PAGE   1
  250(bytes(0x04,0x08,0x6f,0x3a,0x0c,0x52,0x50,0x47,0x3a,0x3a,0x53,0x45,0x08,0x3a,0x0a,0x40,0x6e,0x61,0x6d,0x65,0x49,0x22,0x09,0x4d,0x6f,0x76,0x65,0x06,0x3a,0x06,0x45,0x54,0x3a,0x0b,0x40,0x70,0x69,0x74,0x63,0x68,0x69,0x69,0x3a,0x0c,0x40,0x76,0x6f,0x6c,0x75,0x6d,0x65,0x69,0x55))
  TeleportPlayer(0,2,329,186,2,0)
  0()



EVENT   39
 PAGE   1
  250(bytes(0x04,0x08,0x6f,0x3a,0x0c,0x52,0x50,0x47,0x3a,0x3a,0x53,0x45,0x08,0x3a,0x0a,0x40,0x6e,0x61,0x6d,0x65,0x49,0x22,0x09,0x4d,0x6f,0x76,0x65,0x06,0x3a,0x06,0x45,0x54,0x3a,0x0b,0x40,0x70,0x69,0x74,0x63,0x68,0x69,0x69,0x3a,0x0c,0x40,0x76,0x6f,0x6c,0x75,0x6d,0x65,0x69,0x55))
  TeleportPlayer(0,2,329,186,2,0)
  0()



EVENT   40
 PAGE   1
  250(bytes(0x04,0x08,0x6f,0x3a,0x0c,0x52,0x50,0x47,0x3a,0x3a,0x53,0x45,0x08,0x3a,0x0a,0x40,0x6e,0x61,0x6d,0x65,0x49,0x22,0x09,0x4d,0x6f,0x76,0x65,0x06,0x3a,0x06,0x45,0x54,0x3a,0x0b,0x40,0x70,0x69,0x74,0x63,0x68,0x69,0x69,0x3a,0x0c,0x40,0x76,0x6f,0x6c,0x75,0x6d,0x65,0x69,0x55))
  TeleportPlayer(0,2,329,186,2,0)
  0()



EVENT   41
 PAGE   1
  250(bytes(0x04,0x08,0x6f,0x3a,0x0c,0x52,0x50,0x47,0x3a,0x3a,0x53,0x45,0x08,0x3a,0x0a,0x40,0x6e,0x61,0x6d,0x65,0x49,0x22,0x09,0x4d,0x6f,0x76,0x65,0x06,0x3a,0x06,0x45,0x54,0x3a,0x0b,0x40,0x70,0x69,0x74,0x63,0x68,0x69,0x69,0x3a,0x0c,0x40,0x76,0x6f,0x6c,0x75,0x6d,0x65,0x69,0x55))
  TeleportPlayer(0,2,329,186,2,0)
  0()



EVENT   42
 PAGE   1
  250(bytes(0x04,0x08,0x6f,0x3a,0x0c,0x52,0x50,0x47,0x3a,0x3a,0x53,0x45,0x08,0x3a,0x0a,0x40,0x6e,0x61,0x6d,0x65,0x49,0x22,0x09,0x4d,0x6f,0x76,0x65,0x06,0x3a,0x06,0x45,0x54,0x3a,0x0b,0x40,0x70,0x69,0x74,0x63,0x68,0x69,0x69,0x3a,0x0c,0x40,0x76,0x6f,0x6c,0x75,0x6d,0x65,0x69,0x55))
  TeleportPlayer(0,2,329,186,2,0)
  0()



EVENT   43
 PAGE   1
  ShowMessageFace("",0,0,2,1)
  ShowMessage("\\n<青年>うちの爺さんと婆さんが、エスタに住んでたんだ……")
  ShowMessage("そして、消失事件に巻き込まれて……")
  ShowMessageFace("",0,0,2,2)
  ShowMessage("\\n<青年>エスタは封鎖されて、今も立ち入り禁止のままだよ。")
  ShowMessage("いまだに、あの町に行く事さえできないんだ……")
  0()



EVENT   44
 PAGE   1
  250(bytes(0x04,0x08,0x6f,0x3a,0x0c,0x52,0x50,0x47,0x3a,0x3a,0x53,0x45,0x08,0x3a,0x0a,0x40,0x6e,0x61,0x6d,0x65,0x49,0x22,0x09,0x4d,0x6f,0x76,0x65,0x06,0x3a,0x06,0x45,0x54,0x3a,0x0b,0x40,0x70,0x69,0x74,0x63,0x68,0x69,0x69,0x3a,0x0c,0x40,0x76,0x6f,0x6c,0x75,0x6d,0x65,0x69,0x55))
  TeleportPlayer(0,2,329,186,2,0)
  0()



EVENT   45
 PAGE   1
  ShowMessageFace("",0,0,2,1)
  ShowMessage("\\n<パン売りのお姉さん>ノアパン、ノアパンはいかがですか～？")
  ShowMessage("とっても固くて、美味しいですよ～！")
  Shop(0,344,0,0,true)
  0()



EVENT   46
 PAGE   1
  ChangeSelfSwitch("A",0)
  If(1,1001,0,24,2)
   ChangeVariable(1001,1001,0,0,24)
   0()
  EndIf()
  205(-1,bytes(0x04,0x08,0x6f,0x3a,0x13,0x52,0x50,0x47,0x3a,0x3a,0x4d,0x6f,0x76,0x65,0x52,0x6f,0x75,0x74,0x65,0x09,0x3a,0x0c,0x40,0x72,0x65,0x70,0x65,0x61,0x74,0x46,0x3a,0x0f,0x40,0x73,0x6b,0x69,0x70,0x70,0x61,0x62,0x6c,0x65,0x46,0x3a,0x0a,0x40,0x77,0x61,0x69,0x74,0x54,0x3a,0x0a,0x40,0x6c,0x69,0x73,0x74,0x5b,0x07,0x6f,0x3a,0x15,0x52,0x50,0x47,0x3a,0x3a,0x4d,0x6f,0x76,0x65,0x43,0x6f,0x6d,0x6d,0x61,0x6e,0x64,0x07,0x3a,0x0a,0x40,0x63,0x6f,0x64,0x65,0x69,0x16,0x3a,0x10,0x40,0x70,0x61,0x72,0x61,0x6d,0x65,0x74,0x65,0x72,0x73,0x5b,0x00,0x6f,0x3b,0x0a,0x07,0x3b,0x0b,0x69,0x00,0x3b,0x0c,0x5b,0x00))
  ShowMessageFace("",0,0,2,1)
  ShowMessage("\\n<Guard>Travelers?\nDo you have a guild registration or a travel permit?")
  ShowMessageFace("ruka_fc1",0,0,2,2)
  ShowMessage("\\n<Luka>Umm, I'm a baptized hero officially sanctioned by the church. I'm from Iliasville, baptized on the first day of the fifth month of 1455.")
  ShowMessageFace("",0,0,2,3)
  ShowMessage("\\n<Guard>All right, let me check the baptism list...\nAh, here you are. Hero Luka.")
  ShowMessageFace("",0,0,2,4)
  ShowMessage("\\n<Guard>You're free to enter. However, due to the war, entry to the royal palace is prohibited.")
  If(0,4,0)
   ShowMessageFace("alice_fc5",2,0,2,5)
   ShowMessage("\\n<Alice>Hmm, I've got a question. Can we travel to the town of Esta, near Tartarus?")
   0()
  EndIf()
  If(0,5,0)
   ShowMessageFace("iriasu_fc4",0,0,2,6)
   ShowMessage("\\n<Ilias>Answer my question, guard. Can we travel to the town of Esta, near Tartarus?")
   0()
  EndIf()
  ShowMessageFace("",0,0,2,7)
  ShowMessage("\\n<Guard>Esta...!?\nThe whole town is strictly off limits ever since everyone there vanished.")
  ShowMessageFace("",0,0,2,8)
  ShowMessage("\\n<Guard>The only ones permitted to enter are members of the official investigation team commissioned by Her Majesty, the Queen. We appreciate your understanding and cooperation.")
  If(0,4,0)
   ShowMessageFace("alice_fc5",3,0,2,9)
   ShowMessage("\\n<Alice>I figured as such...")
   0()
  EndIf()
  If(0,5,0)
   ShowMessageFace("iriasu_fc4",2,0,2,10)
   ShowMessage("\\n<Ilias>Your almighty Goddess knew the answer already...")
   0()
  EndIf()
  If(4,79,0)
   ShowMessageFace("nuruko_fc1",2,0,2,11)
   ShowMessage("\\n<Nuruko>Kyu.")
   0()
  EndIf()
  ShowMessageFace("ruka_fc1",0,0,2,12)
  ShowMessage("\\n<Luka>We'd really like to check out Esta, though. Let's talk to the queen about getting permission.")
  If(0,4,0)
   ShowMessageFace("alice_fc5",0,0,2,13)
   ShowMessage("\\n<Alice>We aren't allowed into the palace, but maybe we can use our connections and make something happen.")
   0()
  EndIf()
  If(0,5,0)
   ShowMessageFace("iriasu_fc4",0,0,2,14)
   ShowMessage("\\n<Ilias>Entry to the palace is barred, but we should be able to remedy that. We can finally put our connections to use.")
   0()
  EndIf()
  If(1,1028,0,8,1)
   ShowMessageFace("sara_fc1",4,0,2,15)
   ShowMessage("\\n<Sara>Our connections?\n...You mean me?")
   0()
  Else()
   If(0,4,0)
    ShowMessageFace("alice_fc5",3,0,2,16)
    ShowMessage("\\n<Alice>That said, our connections are lacking... It would be useful to acquaint ourselves with some nobility from another country.")
    0()
   EndIf()
   If(0,5,0)
    ShowMessageFace("iriasu_fc4",2,0,2,17)
    ShowMessage("\\n<Ilias>Or we could if we actually had any. Perhaps there's somewhere our connections to nobility haven't run dry.")
    0()
   EndIf()
   If(0,1531,0)
    ShowMessageFace("saniria_fc2",0,0,2,18)
    ShowMessage("\\n<サン・イリア王>Forgive me, but I cannot reveal my identity. If they knew the Pope were here, that would restrict our permission to travel, not increase it.")
    0()
   EndIf()
   If(0,1533,0)
    ShowMessageFace("grandnoa_fc1",3,0,2,19)
    ShowMessage("\\n<メダル女王>As the Medal Queen, my origin is not well known... Sorry, but I am not useful to you in this case.")
    If(0,6,0)
     ShowMessageFace("sonia_fc2",2,0,2,20)
     ShowMessage("\\n<Sonya>When did she put that disguise on...")
     0()
    EndIf()
    0()
   EndIf()
   0()
  EndIf()
  0()
 PAGE   2
  // condition: self-switch A is ON
  0()



EVENT   47
 PAGE   1
  If(1,1001,0,25,2)
   ShowMessageFace("",0,0,2,1)
   ShowMessage("\\n<衛兵>どうぞ、お通り下さい。")
   EndEventProcessing()
   0()
  EndIf()
  If(1,1001,0,26,1)
   If(1,1001,0,28,2)
    ShowMessageFace("",0,0,2,2)
    ShowMessage("\\n<衛兵>おお、勇者ルカ様！")
    ShowMessage("どうぞお通り下さい！")
    EndEventProcessing()
    0()
   EndIf()
   0()
  EndIf()
  If(1,1001,0,29,1)
   ShowMessageFace("",0,0,2,3)
   ShowMessage("\\n<衛兵>おお、勇者ルカ様！")
   ShowMessage("なにとぞ我らに救いの手を！")
   EndEventProcessing()
   0()
  EndIf()
  0()



EVENT   48
 PAGE   1
  If(1,1001,0,25,2)
   ShowMessageFace("",0,0,2,1)
   ShowMessage("\\n<衛兵>どうぞ、お通り下さい。")
   EndEventProcessing()
   0()
  EndIf()
  If(1,1001,0,26,1)
   If(1,1001,0,28,2)
    ShowMessageFace("",0,0,2,2)
    ShowMessage("\\n<衛兵>おお、勇者ルカ様！")
    ShowMessage("どうぞお通り下さい！")
    EndEventProcessing()
    0()
   EndIf()
   0()
  EndIf()
  If(1,1001,0,29,1)
   ShowMessageFace("",0,0,2,3)
   ShowMessage("\\n<衛兵>おお、勇者ルカ様！")
   ShowMessage("お声をかけて下さり、光栄の至りです！")
   EndEventProcessing()
   0()
  EndIf()
  0()



EVENT   49
 PAGE   1
  ShowMessageFace("",0,0,2,1)
  ShowMessage("\\n<中年>エスタ消失事件は、タルタロスに関連があるはずだ。")
  ShowMessage("なにせ、町から見えるくらい間近に大穴があるんだぜ。")
  0()



EVENT   50
 PAGE   1
  If(1,1001,0,25,2)
   ShowMessageFace("",0,0,2,1)
   ShowMessage("\\n<老婆>エスタは呪われているんじゃ！")
   ShowMessage("これは、タルタロスの呪いじゃよ！")
   ShowMessageFace("",0,0,2,2)
   ShowMessage("\\n<老婆>きっと、我々が神を軽んじるようになったから……")
   ShowMessage("イリアス様が、我々に罰を与えたんじゃ！")
   355("actor_label_jump")
   EndEventProcessing()
   0()
  EndIf()
  If(1,1001,0,26,1)
   ShowMessageFace("",0,0,2,3)
   ShowMessage("\\n<老婆>この町は、もう終わりじゃ！")
   ShowMessage("魔王の配下に滅ぼされてしまうんじゃ！")
   ShowMessageFace("",0,0,2,4)
   ShowMessage("\\n<老婆>きっと、我々が神を軽んじるようになったから……")
   ShowMessage("イリアス様が、我々に罰を与えたんじゃ！")
   355("actor_label_jump")
   EndEventProcessing()
   0()
  EndIf()
  DefineLabel("26")
  ShowMessageFace("iriasu_fc4",2,0,2,5)
  ShowMessage("\\n<イリアス>なんでも私のせいにしないで下さい……")
  EndEventProcessing()
  0()



EVENT   51
 PAGE   1
  If(1,1001,0,25,2)
   If(1,1052,0,5,2)
    ShowMessageFace("",0,0,2,1)
    ShowMessage("\\n<戦士>大戦は、激しくなる一方だが……")
    ShowMessage("今年の武闘大会は、ちゃんと開かれるのだろうか？")
    EndEventProcessing()
    0()
   EndIf()
   If(1,1052,0,6,1)
    ShowMessageFace("",0,0,2,2)
    ShowMessage("\\n<戦士>おお、女王杯の優勝者ではないか！")
    ShowMessage("決勝戦はすごかったな、まさか名高いグランベリアが乱入するとは！")
    EndEventProcessing()
    0()
   EndIf()
   0()
  EndIf()
  If(1,1001,0,26,1)
   If(1,1001,0,28,2)
    ShowMessageFace("",0,0,2,3)
    ShowMessage("\\n<戦士>知る人ぞ知る事実……")
    ShowMessage("女王杯で優勝した勇者ルカが、今回の戦勝の立役者だという事だ。")
    ShowMessageFace("",0,0,2,4)
    ShowMessage("\\n<戦士>せっかくだし、私を弟子入りさせてくれないか……")
    ShowMessage("どうか……だめか……")
    EndEventProcessing()
    0()
   EndIf()
   0()
  EndIf()
  If(1,1001,0,29,1)
   ShowMessageFace("",0,0,2,5)
   ShowMessage("\\n<戦士>今回の戦いでは、あなたと肩を並べて戦えて光栄だよ！")
   ShowMessage("……えっ、どこにいるか分からなかったって？")
   ShowMessageFace("",0,0,2,6)
   ShowMessage("\\n<戦士>巨人に吹っ飛ばされて、水路に落ちて……")
   ShowMessage("ああうん、まあ気付かなかったかもしれないな。")
   EndEventProcessing()
   0()
  EndIf()
  0()



EVENT   52
 PAGE   1
  If(1,1001,0,25,2)
   ShowMessageFace("",0,0,2,1)
   ShowMessage("\\n<おばさん>この城から北にあるのが、メフィスト様の魔導学園さ。")
   ShowMessage("そこで、一流の魔術師を養成しているんだよ。")
   ShowMessageFace("",0,0,2,2)
   ShowMessage("\\n<おばさん>そこで生徒達が卒業して、戦場に出るようになれば……")
   ShowMessage("こんな戦争も、すぐ終わっちまうさ。")
   355("actor_label_jump")
   EndEventProcessing()
   0()
  EndIf()
  If(1,1001,0,26,1)
   ShowMessageFace("",0,0,2,3)
   ShowMessage("\\n<おばさん>この城から北にあるのが、メフィスト様の魔導学園さ。")
   ShowMessage("そこで、一流の魔術師を養成しているんだよ。")
   ShowMessageFace("",0,0,2,4)
   ShowMessage("\\n<おばさん>そこで生徒達が卒業して、戦場に出るようになれば……")
   ShowMessage("魔王だって、たちまち倒しちまうよ。")
   355("actor_label_jump")
   EndEventProcessing()
   0()
  EndIf()
  DefineLabel("231")
  ShowMessageFace("bugstaff_fc1",0,0,2,5)
  ShowMessage("\\n<バグスタッフ>えへへっ、任せてよね～♪")
  EndEventProcessing()
  DefineLabel("232")
  ShowMessageFace("magistans_fc1",0,0,2,6)
  ShowMessage("\\n<マギスタンズ>期待を裏切らない活躍をしなきゃね……！")
  EndEventProcessing()
  0()



EVENT   53
 PAGE   1
  If(1,1001,0,25,2)
   ShowMessageFace("",0,0,2,1)
   ShowMessage("\\n<老婆>魔導顧問メフィスト……")
   ShowMessage("素性の分からない妖魔が、そんな重職に就いていいのかねぇ？")
   ShowMessageFace("",0,0,2,2)
   ShowMessage("\\n<老婆>それに、メフィストは政治にまで口を出してるって話さ。")
   ShowMessage("あの賢い女王様が、どうしたんだろうねぇ……")
   EndEventProcessing()
   0()
  EndIf()
  If(1,1001,0,26,1)
   If(1,1001,0,28,2)
    ShowMessageFace("",0,0,2,3)
    ShowMessage("\\n<老婆>グランドノア勝利の立役者っていうけど……")
    ShowMessage("やっぱり、メフィストってのは信用できないねぇ。")
    355("actor_label_jump")
    EndEventProcessing()
    0()
   EndIf()
   0()
  EndIf()
  If(1,1001,0,29,1)
   ShowMessageFace("",0,0,2,4)
   ShowMessage("\\n<老婆>まったく、ひどい騒ぎだったよ……")
   ShowMessage("これも、メフィストが糸を引いていたんじゃないかねぇ。")
   355("actor_label_jump")
   EndEventProcessing()
   0()
  EndIf()
  DefineLabel("233")
  ShowMessageFace("mefist_fc1",0,0,2,5)
  ShowMessage("\\n<メフィスト>まだまだ信用されていないのですね……")
  ShowMessage("残念です。")
  If(0,6,0)
   ShowMessageFace("sonia_fc4",0,0,2,6)
   ShowMessage("\\n<ソニア>あんまり残念じゃなさそうに言う……")
   0()
  EndIf()
  EndEventProcessing()
  DefineLabel("391")
  ShowMessageFace("mefist_fc2",0,0,2,7)
  ShowMessage("\\n<メフィスト>まだまだ信用されていないのですね……")
  ShowMessage("残念です。")
  If(0,6,0)
   ShowMessageFace("sonia_fc4",0,0,2,8)
   ShowMessage("\\n<ソニア>あんまり残念じゃなさそうに言う……")
   0()
  EndIf()
  EndEventProcessing()
  0()



EVENT   54
 PAGE   1
  ShowMessageFace("",0,0,2,1)
  ShowMessage("Come to the martial games!")
  ShowMessage("Colosseum ← This way!")
  0()



EVENT   55
 PAGE   1
  If(1,1052,0,0,0)
   ShowMessageFace("",0,0,2,1)
   ShowMessage("\\n<衛兵>現在、戦時下につき王宮への立ち入りは制限されています。")
   ShowMessage("城内の見学や陛下への謁見は許可されていません。")
   EndEventProcessing()
   0()
  EndIf()
  If(1,1052,0,1,1)
   ShowMessageFace("",0,0,2,2)
   ShowMessage("\\n<衛兵>どうぞ、お通り下さい。")
   EndEventProcessing()
   0()
  EndIf()
  0()



EVENT   56
 PAGE   1
  If(1,1052,0,0,0)
   ShowMessageFace("",0,0,2,1)
   ShowMessage("\\n<衛兵>現在、戦時下につき王宮への立ち入りは制限されています。")
   ShowMessage("城内の見学や陛下への謁見は許可されていません。")
   EndEventProcessing()
   0()
  EndIf()
  If(1,1052,0,1,1)
   ShowMessageFace("",0,0,2,2)
   ShowMessage("\\n<衛兵>どうぞ、お通り下さい。")
   EndEventProcessing()
   0()
  EndIf()
  0()



EVENT   57
 PAGE   1
  // condition: variable 1052 >= 2
  ChangeSelfSwitch("A",0)
  ChangeSwitch(100,100,1)
  ShowMessageFace("ruka_fc1",0,0,2,1)
  ShowMessage("\\n<ルカ>We have to win the Queen's Cup...\nThat's such a strange thing to ask us to do.")
  If(4,203,0)
   ShowMessageFace("tatunoko_k_fc1",1,0,2,2)
   ShowMessage("\\n<たつこ>I'm so excited to represent the marines and show off!")
   0()
  EndIf()
  If(4,202,0)
   ShowMessageFace("bonny_fc1",1,0,2,3)
   ShowMessage("\\n<ボニー>So what! It's a great chance to increase the reputation of the Fishy Pirates!")
   0()
  EndIf()
  If(0,6,0)
   ShowMessageFace("sonia_fc1",3,0,2,4)
   ShowMessage("\\n<ソニア>My club will sing as it slices through the air and rewrites the history of the Colosseum!")
   ShowMessageFace("ruka_fc1",0,0,2,5)
   ShowMessage("\\n<ルカ>Why are you in such high spirits...?")
   0()
  EndIf()
  If(0,4,0)
   ShowMessageFace("alice_fc5",3,0,2,6)
   ShowMessage("\\n<アリス>You're actually in high spirits yourself...\nYou can't hide your excitement from me.")
   ShowMessageFace("alice_fc5",2,0,2,7)
   ShowMessage("\\n<アリス>Anyway, that Mephisto sure is suspicious.\nShe already knew who you were before anyone said your name.")
   0()
  EndIf()
  If(0,5,0)
   ShowMessageFace("iriasu_fc4",2,0,2,8)
   ShowMessage("\\n<イリアス>You're in high spirits yourself...\nI can tell.")
   ShowMessageFace("iriasu_fc4",7,0,2,9)
   ShowMessage("\\n<イリアス>Anyway, we must not let our guard down around that Yoma Mephisto. She already knew who you were before anyone said your name.")
   0()
  EndIf()
  ShowMessageFace("sara_fc1",4,0,2,10)
  ShowMessage("\\n<サラ>I agree. That's one shady-looking advisor.\nIt's also strange that someone as wise as the Queen of Grand Noah goes along with what she says.")
  ShowMessageFace("sara_fc1",4,0,2,11)
  ShowMessage("\\n<サラ>Speaking of which, the Queen didn't look like she had been brainwashed. She seemed perfectly in control of her faculties.")
  If(0,6,0)
   If(4,533,0)
    ShowMessageFace("sonia_fc2",2,0,2,12)
    ShowMessage("\\n<ソニア>...Um, wouldn't it be easier just to ask the Medal Queen who's in our party right now?")
    ShowMessageFace("grandnoa_fc1",3,0,2,13)
    ShowMessage("\\n<メダル女王>Now now, I'm just the mysterious Medal Queen... I wouldn't know what the Queen of Grand Noah is thinking.")
    ShowMessageFace("sonia_fc4",0,0,2,14)
    ShowMessage("\\n<ソニア>You surely have some idea...")
    0()
   EndIf()
   0()
  EndIf()
  If(0,4,0)
   ShowMessageFace("alice_fc5",0,0,2,15)
   ShowMessage("\\n<アリス>Well, let's win the Queen's Cup first.\nMany powerful monsters enter, so this won't be easy.")
   If(8,155)
    ShowMessageFace("alice_fc5",0,0,2,16)
    ShowMessage("\\n<アリス>Since we have the Dragon Scale Fossil, our equipment shouldn't be an issue. Come on, let's go sign up at the Colosseum reception!")
    0()
   Else()
    ShowMessageFace("alice_fc5",0,0,2,17)
    ShowMessage("\\n<アリス>We can gather fossilized dragon scales in the mines to the southeast. If we get some of those, we should be able to make items out of dragon scale.")
    ShowMessageFace("alice_fc5",0,0,2,18)
    ShowMessage("\\n<アリス>I think we could use better equipment before signing up for the tournament, but I'll leave that up to you.")
    ShowMessageFace("",0,0,2,19)
    ShowMessage("Valuable ore in the mines to the southeast? I'd feel more confident entering the tournament if we crafted gear with that first.")
    0()
   EndIf()
   0()
  EndIf()
  If(0,5,0)
   ShowMessageFace("iriasu_fc4",0,0,2,20)
   ShowMessage("\\n<イリアス>Well, we can deal with that after we win the tournament. Many powerful monsters enter, so that may be rather difficult.")
   If(8,155)
    ShowMessageFace("iriasu_fc4",0,0,2,21)
    ShowMessage("\\n<イリアス>Since we have the Dragon Scale Fossil, our equipment shouldn't be an issue. Come on, let's get our registration taken care of at the Colosseum reception!")
    0()
   Else()
    ShowMessageFace("iriasu_fc4",0,0,2,22)
    ShowMessage("\\n<イリアス>If I recall correctly, we can gather fossilized dragon scales in the mines to the southeast. With those, we can harden our items and equipment with dragon scale.")
    ShowMessageFace("iriasu_fc4",0,0,2,23)
    ShowMessage("\\n<イリアス>Well, there are many ways we could spend our time before entering the tournament, but I'll leave that up to you.")
    ShowMessageFace("",0,0,2,24)
    ShowMessage("Valuable ore in the mines to the southeast? I'd feel more confident entering the tournament if we crafted gear with that first.")
    0()
   EndIf()
   0()
  EndIf()
  If(4,202,0)
   ShowMessageFace("bonny_fc1",1,0,2,25)
   ShowMessage("\\n<ボニー>Okay, let's go!")
   If(4,53,0)
    ShowMessageFace("slime_fc1",0,0,2,26)
    ShowMessage("\\n<ライム>Aye aye, cap'n!")
    0()
   EndIf()
   0()
  EndIf()
  EndEventProcessing()
  0()
 PAGE   2
  // condition: self-switch A is ON
  0()



EVENT   58
 PAGE   1
  ShowMessageFace("",0,0,2,1)
  ShowMessage("\\n<Priest>Welcome to the church that looks like it could slide off into the water at any moment.\nHow can I help you?")
  ShowChoices(strings("Pray","Nothing"),2)
  IfPlayerPicksChoice(0,null)
   ChangeVariable(1002,1002,0,0,24)
   ShowMessageFace("",0,0,2,2)
   ShowMessage("\\n<Priest>Well then, let us pray to Ilias. ...there, you should feel a bond drawing you to this place.")
   ShowMessageFace("",0,0,2,3)
   ShowMessage("\\n<Priest>If something were to happen to you on your journey, the bond should lead you back here. May Ilias watch over you...")
   0()
  IfPlayerPicksChoice(1,null)
   ShowMessageFace("",0,0,2,4)
   ShowMessage("\\n<Priest>May Ilias watch over you...")
   0()
  404()
  0()



EVENT   59
 PAGE   1
  If(1,1001,0,25,2)
   ShowMessageFace("",0,0,2,1)
   ShowMessage("\\n<青年>メフィスト様は、グランドノアに現れた救世主さ！")
   ShowMessage("グランゴルドの暴虐を打ち砕き、勝利に導いてくれるんだ！")
   EndEventProcessing()
   0()
  EndIf()
  If(1,1001,0,26,1)
   ShowMessageFace("",0,0,2,2)
   ShowMessage("\\n<青年>魔王なんて、大した事はないよ。")
   ShowMessage("きっとメフィスト様の策と勇者ルカ様の力でたちまち勝利さ！")
   355("actor_label_jump")
   EndEventProcessing()
   DefineLabel("233")
   ShowMessageFace("mefist_fc1",0,0,2,3)
   ShowMessage("\\n<メフィスト>私の評価も、以前は二分していましたが……")
   ShowMessage("最近はめっきり好意的な声が多く聞こえるようになりましたね。")
   EndEventProcessing()
   DefineLabel("391")
   ShowMessageFace("mefist_fc2",0,0,2,4)
   ShowMessage("\\n<メフィスト>私の評価も、以前は二分していましたが……")
   ShowMessage("最近はめっきり好意的な声が多く聞こえるようになりましたね。")
   EndEventProcessing()
   0()
  EndIf()
  0()



EVENT   60
 PAGE   1
  If(1,1001,0,25,2)
   If(1,1052,0,5,2)
    ShowMessageFace("",0,0,2,1)
    ShowMessage("\\n<ガタイのいい男>あんたも、コロシアムに出場しにきたクチだな。")
    ShowMessage("年は若いが、相当に腕が立つと見たぜ。")
    ShowMessageFace("",0,0,2,2)
    ShowMessage("\\n<ガタイのいい男>コロシアムは、ここから北に見える中央十字路を西だ。")
    ShowMessage("まあ立て札が立ってるから、迷わないとは思うがな。")
    EndEventProcessing()
    0()
   EndIf()
   If(1,1052,0,6,1)
    ShowMessageFace("",0,0,2,3)
    ShowMessage("\\n<ガタイのいい男>おお、勇者ルカじゃねぇか！")
    ShowMessage("まさか優勝しちまうなんて、すげぇな！")
    EndEventProcessing()
    0()
   EndIf()
   0()
  EndIf()
  If(1,1001,0,26,1)
   If(1,1001,0,28,2)
    ShowMessageFace("",0,0,2,4)
    ShowMessage("\\n<ガタイのいい男>おいおい、すっかり救国の英雄じゃねぇか！")
    ShowMessage("大会前にあんたを見かけた時から、やる奴だとは思ってたが……")
    EndEventProcessing()
    0()
   EndIf()
   0()
  EndIf()
  If(1,1001,0,29,1)
   ShowMessageFace("",0,0,2,5)
   ShowMessage("\\n<ガタイのいい男>今回もすごかったな、あんたの活躍！")
   ShowMessage("まさに、我が国が生んだ希代の英雄だぜ！")
   ShowMessageFace("ruka_fc1",0,0,2,6)
   ShowMessage("\\n<ルカ>僕は、この国の生まれじゃないんだけど……")
   ShowMessageFace("",0,0,2,7)
   ShowMessage("\\n<ガタイのいい男>コロシアムで名を上げたじゃないか！")
   ShowMessage("まあ、うちの国でデビューしたようなものだって！")
   EndEventProcessing()
   0()
  EndIf()
  0()



EVENT   61
 PAGE   1
  If(1,1001,0,25,2)
   ShowMessageFace("",0,0,2,1)
   ShowMessage("\\n<おじさん>グランゴルド王は、人外の兵を率いてるそうだ。")
   ShowMessage("アリ娘やら、魔導人形やら……おお、怖い怖い……")
   355("actor_label_jump")
   EndEventProcessing()
   DefineLabel("142")
   ShowMessageFace("bander_fc1",0,0,2,2)
   ShowMessage("\\n<バナッチ>同胞と戦う事になるのかもしれんな……")
   EndEventProcessing()
   DefineLabel("184")
   ShowMessageFace("junkdoll_fc2",0,0,2,3)
   ShowMessage("\\n<フランチェスカ>そんな人形、みんなジャンクにしてやるわ！")
   EndEventProcessing()
   0()
  EndIf()
  If(1,1001,0,26,1)
   If(1,1001,0,28,2)
    ShowMessageFace("",0,0,2,4)
    ShowMessage("\\n<おじさん>グランゴルドが片付いたと思ったら、次は魔王か……")
    ShowMessage("おお、怖い怖い……")
    EndEventProcessing()
    0()
   EndIf()
   0()
  EndIf()
  If(1,1001,0,29,1)
   ShowMessageFace("",0,0,2,5)
   ShowMessage("\\n<おじさん>グランドノア軍の四人に一人が魔物だなんて、どうなってるんだ？")
   ShowMessage("そいつらが全員、魔王に寝返ったらどうするんだよ……")
   EndEventProcessing()
   0()
  EndIf()
  0()



EVENT   62
 PAGE   1
  If(1,1052,0,5,2)
   ShowMessageFace("",0,0,2,1)
   ShowMessage("\\n<衛兵>戦時につき、警備を強化しています。")
   ShowMessage("また女王杯も近く、人の往来も多くなる時期ですので……")
   ShowMessageFace("",0,0,2,2)
   ShowMessage("\\n<衛兵>女王杯とは、コロシアムで行われる四年に一回の武術大会。")
   ShowMessage("世界中から猛者が集まり、腕を競うのですよ。")
   If(0,6,0)
    ShowMessageFace("sonia_fc2",2,0,2,3)
    ShowMessage("\\n<ソニア>戦争のさなかなのに、武術大会なんてやってて大丈夫なのかな……？")
    0()
   Else()
    ShowMessageFace("ruka_fc1",0,0,2,4)
    ShowMessage("\\n<ルカ>戦争中なのに、武術大会をやるなんて……大丈夫かな？")
    0()
   EndIf()
   If(0,4,0)
    ShowMessageFace("alice_fc5",2,0,2,5)
    ShowMessage("\\n<アリス>戦時だからこそ、戦意高揚の助けになると踏んだのだろうな。")
    ShowMessage("大会にかこつけ、体よく志願兵を募る事も考えているのではないか？")
    0()
   EndIf()
   If(0,5,0)
    ShowMessageFace("iriasu_fc4",0,0,2,6)
    ShowMessage("\\n<イリアス>戦時だからこそ、戦意の鼓舞にもってこいなのですよ。")
    ShowMessage("また、猛者を軍にスカウトできるという利点もありますしね。")
    0()
   EndIf()
   If(4,202,0)
    ShowMessageFace("bonny_fc1",1,0,2,7)
    ShowMessage("\\n<ボニー>コロシアムか！　あたしも興味があるぞ！")
    0()
   EndIf()
   If(4,171,0)
    ShowMessageFace("lizardboss_fc1",3,0,2,8)
    ShowMessage("\\n<ミランダ>あたしは、武道大会なんかに興味はないね……")
    ShowMessage("そんなのに胸が躍ったのは、昔の話さ。")
    0()
   EndIf()
   EndEventProcessing()
   0()
  EndIf()
  If(1,1001,0,25,2)
   ShowMessageFace("",0,0,2,9)
   ShowMessage("\\n<衛兵>戦時につき、警備を強化しています。")
   ShowMessage("女王杯における募兵も好調で、新兵に猛者が集まったようですよ。")
   EndEventProcessing()
   0()
  EndIf()
  If(1,1001,0,26,1)
   If(1,1001,0,28,2)
    ShowMessageFace("",0,0,2,10)
    ShowMessage("\\n<衛兵>戦時につき、警備を強化しています。")
    ShowMessage("今は動きがないですが、いつ魔王軍が我が国に攻め込んでくるか……")
    EndEventProcessing()
    0()
   EndIf()
   0()
  EndIf()
  If(1,1001,0,29,1)
   ShowMessageFace("",0,0,2,11)
   ShowMessage("\\n<衛兵>お陰様で、町を守れるだけの兵員は残っています。")
   ShowMessage("今後、一歩たりとも敵を町には入れませんよ。")
   EndEventProcessing()
   0()
  EndIf()
  0()



EVENT   63
 PAGE   1
  ShowMessageFace("",0,0,2,1)
  ShowMessage("←：コロシアム、この先")
  0()



EVENT   64
 PAGE   1
  If(1,1001,0,25,2)
   ShowMessageFace("",0,0,2,1)
   ShowMessage("\\n<老人>この町、子供の姿をほとんど見ないと思わんかね？")
   ShowMessage("子供の居る家庭のほとんどは、田舎に疎開してしまったよ。")
   ShowMessageFace("",0,0,2,2)
   ShowMessage("\\n<老人>グランゴルド軍が押し寄せてきたら、ここもリマ村のようになる……")
   ShowMessage("それを恐れ、子を持つ親はみんな都会から離れたのだよ。")
   EndEventProcessing()
   0()
  EndIf()
  If(1,1001,0,26,1)
   If(1,1001,0,28,2)
    ShowMessageFace("",0,0,2,3)
    ShowMessage("\\n<老人>この町、子供の姿をほとんど見ないと思わんかね？")
    ShowMessage("子供の居る家庭のほとんどは、田舎に疎開してしまったよ。")
    ShowMessageFace("",0,0,2,4)
    ShowMessage("\\n<老人>魔王軍は、人間の軍隊よりいっそう凶悪だ……")
    ShowMessage("グランゴルド軍より、なお悪い。")
    EndEventProcessing()
    0()
   EndIf()
   0()
  EndIf()
  If(1,1001,0,29,1)
   ShowMessageFace("",0,0,2,5)
   ShowMessage("\\n<老人>この町、子供の姿をほとんど見ないと思わんかね？")
   ShowMessage("子供の居る家庭のほとんどは、田舎に疎開してしまったよ。")
   ShowMessageFace("",0,0,2,6)
   ShowMessage("\\n<老人>妖精の女王は、淫らな格好だったからな。")
   ShowMessage("あんなのが子供の目に触れんで良かったよ……")
   355("actor_label_jump")
   EndEventProcessing()
   DefineLabel("97")
   ShowMessageFace("fairy_fc1",0,0,2,7)
   ShowMessage("\\n<フェル>あたしなんて、すっぱだかなのにね……")
   EndEventProcessing()
   DefineLabel("315")
   ShowMessageFace("queenfairy_fc1",2,0,2,8)
   ShowMessage("\\n<エアリー>子供には目の毒だったでしょうか……？")
   ShowMessage("町に入る時は、衣服を身につけた方が良いですね……")
   EndEventProcessing()
   0()
  EndIf()
  0()



EVENT   65
 PAGE   1
  ShowMessageFace("",0,0,2,1)
  ShowMessage("\\n<Youth>Welcome to Grand Noah! Got a place in mind?")
  355("unlimited_choices(11, [\"Inn\",")
  655("\"Equipment Shop\",\"Accessory Shop\",")
  655("\"Item Shop\",\"Blacksmith\",")
  655("\"Church\",\"Restaurant\",\"Pub\",")
  655("\"Grand Noah Palace\",\"Grand Noah Colosseum\",")
  655("\"Nowhere\"])")
  If(1,11,0,0,0)
   TeleportPlayer(0,21,32,46,2,0)
   EndEventProcessing()
   0()
  EndIf()
  If(1,11,0,1,0)
   TeleportPlayer(0,21,45,25,2,0)
   EndEventProcessing()
   0()
  EndIf()
  If(1,11,0,2,0)
   TeleportPlayer(0,21,31,24,2,0)
   EndEventProcessing()
   0()
  EndIf()
  If(1,11,0,3,0)
   TeleportPlayer(0,21,27,25,2,0)
   EndEventProcessing()
   0()
  EndIf()
  If(1,11,0,4,0)
   TeleportPlayer(0,21,51,25,2,0)
   EndEventProcessing()
   0()
  EndIf()
  If(1,11,0,5,0)
   TeleportPlayer(0,21,18,27,2,0)
   EndEventProcessing()
   0()
  EndIf()
  If(1,11,0,6,0)
   TeleportPlayer(0,21,62,25,2,0)
   EndEventProcessing()
   0()
  EndIf()
  If(1,11,0,7,0)
   TeleportPlayer(0,21,15,9,2,0)
   EndEventProcessing()
   0()
  EndIf()
  If(1,11,0,8,0)
   TeleportPlayer(0,21,38,5,2,0)
   EndEventProcessing()
   0()
  EndIf()
  If(1,11,0,9,0)
   TeleportPlayer(0,472,20,13,2,0)
   EndEventProcessing()
   0()
  EndIf()
  If(1,11,0,10,0)
   EndEventProcessing()
   0()
  EndIf()
  0()



EVENT   66
 PAGE   1
  // condition: switch 1540 is ON
  241(bytes(0x04,0x08,0x6f,0x3a,0x0d,0x52,0x50,0x47,0x3a,0x3a,0x42,0x47,0x4d,0x08,0x3a,0x0a,0x40,0x6e,0x61,0x6d,0x65,0x49,0x22,0x0a,0x61,0x6d,0x69,0x72,0x61,0x06,0x3a,0x06,0x45,0x54,0x3a,0x0c,0x40,0x76,0x6f,0x6c,0x75,0x6d,0x65,0x69,0x69,0x3a,0x0b,0x40,0x70,0x69,0x74,0x63,0x68,0x69,0x69))
  If(2,"A",1)
   ChangeSelfSwitch("A",0)
   RunCommonEvent(322)
   0()
  Else()
   ShowMessageFace("amira_fc1",0,0,2,1)
   ShowMessage("\n<Amira>You've found me here. Keep searching for me.")
   0()
  EndIf()
  241(bytes(0x04,0x08,0x6f,0x3a,0x0d,0x52,0x50,0x47,0x3a,0x3a,0x42,0x47,0x4d,0x08,0x3a,0x0a,0x40,0x6e,0x61,0x6d,0x65,0x49,0x22,0x0a,0x63,0x69,0x74,0x79,0x31,0x06,0x3a,0x06,0x45,0x54,0x3a,0x0c,0x40,0x76,0x6f,0x6c,0x75,0x6d,0x65,0x69,0x69,0x3a,0x0b,0x40,0x70,0x69,0x74,0x63,0x68,0x69,0x69))
  EndEventProcessing()
  0()
 PAGE   2
  // condition: party contains actor #540
  0()



EVENT   67
 PAGE   1
  ShowMessageFace("",0,0,2,1)
  ShowMessage("\\n<戦士>ここの親父の腕は、超一流なんだが……")
  ShowMessage("コロシアム狂いってのが、玉に瑕だな。")
  355("actor_label_jump")
  EndEventProcessing()
  DefineLabel("316")
  ShowMessageFace("queenelf_fc1",0,0,2,2)
  ShowMessage("\\n<フレイヤ>コロシアムは心を狂わせるのですね……")
  EndEventProcessing()
  0()



EVENT   68
 PAGE   1
  ShowMessageFace("",0,0,2,1)
  ShowMessage("\\n<男>無念……")
  0()



EVENT   69
 PAGE   1
  ShowMessageFace("",0,0,2,1)
  ShowMessage("\\n<戦士>コロシアムではなく、ここで果てるなんて……")
  0()



EVENT   70
 PAGE   1
  ShowMessageFace("",0,0,2,1)
  ShowMessage("\\n<ごろつき>俺の精を吸ったこの花々は、たくましく育つだろう……")
  0()



EVENT   71
 PAGE   1
  If(1,1001,0,25,2)
   ShowMessageFace("",0,0,2,1)
   ShowMessage("\\n<若い女性>兵士に志願するなんて、やめて！")
   ShowMessage("なんで戦争なんかに行きたがるの？")
   ShowMessageFace("",0,0,2,2)
   ShowMessage("\\n<若い男性>ナタリー、君のいるこの町を守るためなんだ。")
   ShowMessage("ここがリマ村のようになったら、僕は……")
   EndEventProcessing()
   0()
  EndIf()
  If(1,1001,0,26,1)
   If(1,1001,0,28,2)
    ShowMessageFace("",0,0,2,3)
    ShowMessage("\\n<若い女性>兵士に志願するなんて、やめて！")
    ShowMessage("なんで魔王となんて戦うの……？")
    ShowMessageFace("",0,0,2,4)
    ShowMessage("\\n<若い男性>ナタリー、君のいるこの町を守るためなんだ。")
    ShowMessage("でも今日は膝が痛いから、明日志願するよ……")
    ShowMessageFace("",0,0,2,5)
    ShowMessage("\\n<若い女性>そう言い続けて、もう数ヶ月経つけど……")
    EndEventProcessing()
    0()
   EndIf()
   0()
  EndIf()
  If(1,1001,0,29,1)
   ShowMessageFace("",0,0,2,6)
   ShowMessage("\\n<若い女性>あなたには戦争に行ってほしくないし、町に残る事に全く文句はないの。")
   ShowMessage("でも、その情けない言い訳を毎日並べるのはやめて……")
   ShowMessageFace("",0,0,2,7)
   ShowMessage("\\n<若い男性>ナタリー、君のいるこの町を守るためなんだ。")
   ShowMessage("でも今日は首を寝違えたから、明日志願するよ……")
   ShowMessageFace("",0,0,2,8)
   ShowMessage("\\n<若い女性>いっそ、私が志願しようかしら……")
   EndEventProcessing()
   0()
  EndIf()
  0()



EVENT   72
 PAGE   1
  If(1,1001,0,25,2)
   ShowMessageFace("",0,0,2,1)
   ShowMessage("\\n<若い女性>兵士に志願するなんて、やめて！")
   ShowMessage("なんで戦争なんかに行きたがるの？")
   ShowMessageFace("",0,0,2,2)
   ShowMessage("\\n<若い男性>ナタリー、君のいるこの町を守るためなんだ。")
   ShowMessage("ここがリマ村のようになったら、僕は……")
   EndEventProcessing()
   0()
  EndIf()
  If(1,1001,0,26,1)
   If(1,1001,0,28,2)
    ShowMessageFace("",0,0,2,3)
    ShowMessage("\\n<若い女性>兵士に志願するなんて、やめて！")
    ShowMessage("なんで魔王となんて戦うの……？")
    ShowMessageFace("",0,0,2,4)
    ShowMessage("\\n<若い男性>ナタリー、君のいるこの町を守るためなんだ。")
    ShowMessage("でも今日は膝が痛いから、明日志願するよ……")
    ShowMessageFace("",0,0,2,5)
    ShowMessage("\\n<若い女性>そう言い続けて、もう数ヶ月経つけど……")
    EndEventProcessing()
    0()
   EndIf()
   0()
  EndIf()
  If(1,1001,0,29,1)
   ShowMessageFace("",0,0,2,6)
   ShowMessage("\\n<若い女性>あなたには戦争に行ってほしくないし、町に残る事に全く文句はないの。")
   ShowMessage("でも、その情けない言い訳を毎日並べるのはやめて……")
   ShowMessageFace("",0,0,2,7)
   ShowMessage("\\n<若い男性>ナタリー、君のいるこの町を守るためなんだ。")
   ShowMessage("でも今日は首を寝違えたから、明日志願するよ……")
   ShowMessageFace("",0,0,2,8)
   ShowMessage("\\n<若い女性>いっそ、私が志願しようかしら……")
   EndEventProcessing()
   0()
  EndIf()
  0()



EVENT   73
 PAGE   1
  If(1,1001,0,25,2)
   ShowMessageFace("",0,0,2,1)
   ShowMessage("\\n<おばさんＡ>この家の息子さん、非国民じゃないかしら。")
   ShowMessage("国がこんな状況なのに、軍にも志願しないなんて……")
   ShowMessageFace("",0,0,2,2)
   ShowMessage("\\n<おばさんＢ>もしかしたら、グランゴルドのスパイかもしれないわよ。")
   ShowMessage("イヤねぇ、憲兵さんに教えてあげた方がいいかしら……")
   EndEventProcessing()
   0()
  EndIf()
  If(1,1001,0,26,1)
   If(1,1001,0,28,2)
    ShowMessageFace("",0,0,2,3)
    ShowMessage("\\n<おばさんＡ>魔王が宣戦布告だなんて、イヤよねぇ……")
    ShowMessage("せっかく、グランゴルドに勝ったっていうのに。")
    ShowMessageFace("",0,0,2,4)
    ShowMessage("\\n<おばさんＢ>この町だって、魔物だらけじゃないのさ。")
    ShowMessage("そのうち、どれだけ魔王に寝返るか分かったもんじゃないよ。")
    EndEventProcessing()
    0()
   EndIf()
   0()
  EndIf()
  If(1,1001,0,29,1)
   ShowMessageFace("",0,0,2,5)
   ShowMessage("\\n<おばさんＡ>町で魔物を見かけたら、ただちに憲兵さんに言わないと。")
   ShowMessage("怪しい奴は、そこら辺にいっぱいいるよ。")
   ShowMessageFace("",0,0,2,6)
   ShowMessage("\\n<おばさんＢ>こんな私達でも、お国のために戦わなきゃね……")
   ShowMessage("ほら、あのミミズ娘もきっと魔王のスパイだよ。")
   EndEventProcessing()
   0()
  EndIf()
  0()



EVENT   74
 PAGE   1
  If(1,1001,0,25,2)
   ShowMessageFace("",0,0,2,1)
   ShowMessage("\\n<おばさんＡ>この家の息子さん、非国民じゃないかしら。")
   ShowMessage("国がこんな状況なのに、軍にも志願しないなんて……")
   ShowMessageFace("",0,0,2,2)
   ShowMessage("\\n<おばさんＢ>もしかしたら、グランゴルドのスパイかもしれないわよ。")
   ShowMessage("イヤねぇ、憲兵さんに教えてあげた方がいいかしら……")
   EndEventProcessing()
   0()
  EndIf()
  If(1,1001,0,26,1)
   If(1,1001,0,28,2)
    ShowMessageFace("",0,0,2,3)
    ShowMessage("\\n<おばさんＡ>魔王が宣戦布告だなんて、イヤよねぇ……")
    ShowMessage("せっかく、グランゴルドに勝ったっていうのに。")
    ShowMessageFace("",0,0,2,4)
    ShowMessage("\\n<おばさんＢ>この町だって、魔物だらけじゃないのさ。")
    ShowMessage("そのうち、どれだけ魔王に寝返るか分かったもんじゃないよ。")
    EndEventProcessing()
    0()
   EndIf()
   0()
  EndIf()
  If(1,1001,0,29,1)
   ShowMessageFace("",0,0,2,5)
   ShowMessage("\\n<おばさんＡ>町で魔物を見かけたら、ただちに憲兵さんに言わないと。")
   ShowMessage("怪しい奴は、そこら辺にいっぱいいるよ。")
   ShowMessageFace("",0,0,2,6)
   ShowMessage("\\n<おばさんＢ>こんな私達でも、お国のために戦わなきゃね……")
   ShowMessage("ほら、あのミミズ娘もきっと魔王のスパイだよ。")
   EndEventProcessing()
   0()
  EndIf()
  0()



EVENT   75
 PAGE   1
  If(1,1001,0,25,2)
   If(1,1052,0,5,2)
    ShowMessageFace("",0,0,2,1)
    ShowMessage("\\n<知識人>女王陛下に謁見しようと思ったのですが……")
    ShowMessage("現在、王宮への立ち入りは禁止されているとか。")
    ShowMessageFace("",0,0,2,2)
    ShowMessage("\\n<知識人>せっかくですし、コロシアムでも観戦してから帰りますか。")
    ShowMessage("所詮は野蛮な遊びですが、話のタネにはなるでしょう。")
    EndEventProcessing()
    0()
   EndIf()
   If(1,1052,0,6,1)
    ShowMessageFace("",0,0,2,3)
    ShowMessage("\\n<知識人>いやぁ、コロシアムというのは素晴らしいものですな……")
    ShowMessage("女王杯を見て以来、すっかり虜になってしまいましたよ。")
    EndEventProcessing()
    0()
   EndIf()
   0()
  EndIf()
  If(1,1001,0,26,1)
   If(1,1001,0,28,2)
    ShowMessageFace("",0,0,2,4)
    ShowMessage("\\n<知識人>魔王が、コロシアムを破壊してしまったら……")
    ShowMessage("そう思うと、不安になって仕方ありません。")
    EndEventProcessing()
    0()
   EndIf()
   0()
  EndIf()
  If(1,1001,0,29,1)
   ShowMessageFace("",0,0,2,5)
   ShowMessage("\\n<知識人>先の戦いでは、私もコロシアムを守るため戦いました。")
   ShowMessage("バリケードで封鎖し、矢をガンガン打ち込みましたよ。")
   ShowMessageFace("",0,0,2,6)
   ShowMessage("\\n<知識人>正直、とても血が燃え盛りました……")
   ShowMessage("あの時の興奮、また味わいたい……")
   355("actor_label_jump")
   EndEventProcessing()
   DefineLabel("220")
   ShowMessageFace("samuraielf_fc1",0,0,2,7)
   ShowMessage("\\n<月花>己の闘争心を自覚したか……ならば戦え。")
   EndEventProcessing()
   0()
  EndIf()
  0()



EVENT   76
 PAGE   1
  If(1,1001,0,25,2)
   ShowMessageFace("",0,0,2,1)
   ShowMessage("\\n<兵士>明日から前線だから、景気付けにパ～っと飲んだけど……")
   ShowMessageFace("",0,0,2,2)
   ShowMessage("\\n<兵士>ううっ……二日酔いで前線に行く事になりそうだ……")
   EndEventProcessing()
   0()
  EndIf()
  If(1,1001,0,26,1)
   If(1,1001,0,28,2)
    ShowMessageFace("",0,0,2,3)
    ShowMessage("\\n<兵士>戦争終結で、前線送りはなくなった。")
    ShowMessage("めでたく首都配備って事で、祝い酒だぜ！")
    ShowMessageFace("",0,0,2,4)
    ShowMessage("\\n<兵士>……その結果、二日酔いだよ……うううっ。")
    EndEventProcessing()
    0()
   EndIf()
   0()
  EndIf()
  If(1,1001,0,29,1)
   ShowMessageFace("",0,0,2,5)
   ShowMessage("\\n<兵士>酔った状態で戦ったら、なんと普段より強かった。")
   ShowMessage("俺、酔拳の使い手なのかもしれないな……")
   ShowMessageFace("",0,0,2,6)
   ShowMessage("\\n<兵士>……などと思ったら、左腕がベッキリと折れていた。")
   ShowMessage("単に痛みが麻痺してただけみたいだ。")
   355("actor_label_jump")
   EndEventProcessing()
   DefineLabel("166")
   ShowMessageFace("narcubus_fc1",2,0,2,7)
   ShowMessage("\\n<ナビス>気を付けて下さいよぉ……")
   EndEventProcessing()
   0()
  EndIf()
  0()



EVENT   77
 PAGE   1
  ShowMessageFace("tatunoko_k_fc1",0,0,2,1)
  ShowMessage("\\n<たつのこ海兵>約定にのっとり、派遣されたのです！")
  ShowMessage("城下町を見回っているのです！")
  355("actor_label_jump")
  EndEventProcessing()
  DefineLabel("203")
  ShowMessageFace("tatunoko_k_fc1",0,0,2,2)
  ShowMessage("\\n<たつこ>お疲れ様なのです！")
  ShowMessage("お互いがんばるのです！")
  EndEventProcessing()
  DefineLabel("204")
  ShowMessageFace("umiusi_k_fc1",0,0,2,3)
  ShowMessage("\\n<ステイシー>いい子ですね、たつのこちゃん。")
  EndEventProcessing()
  DefineLabel("201")
  ShowMessageFace("ashel_fc1",0,0,2,4)
  ShowMessage("\\n<アシェル>こんな所にも、海兵がうろついてるのか……")
  EndEventProcessing()
  DefineLabel("202")
  ShowMessageFace("bonny_fc1",0,0,2,5)
  ShowMessage("\\n<ボニー>むっ、海兵がいるのか……")
  ShowMessage("どこにでも湧き出てくる連中なのだな。")
  EndEventProcessing()
  0()



EVENT   78
 PAGE   1
  If(1,1001,0,25,2)
   If(1,1052,0,5,2)
    ShowMessageFace("",0,0,2,1)
    ShowMessage("\\n<あらくれ>俺は予想屋だぜ。")
    ShowMessage("次の女王杯の優勝者は……第一連隊長のアーサーに間違いないな！")
    EndEventProcessing()
    0()
   EndIf()
   If(1,1052,0,6,1)
    ShowMessageFace("",0,0,2,2)
    ShowMessage("\\n<あらくれ>女王杯の予想は、見事に外したぜ……")
    ShowMessage("まさか初出場の選手が優勝を持ってくなんて、予測不可能だろう。")
    EndEventProcessing()
    0()
   EndIf()
   0()
  EndIf()
  If(1,1001,0,26,1)
   If(1,1001,0,28,2)
    ShowMessageFace("",0,0,2,3)
    ShowMessage("\\n<あらくれ>女王杯の予想を外して以来、さっぱり当たらなくなっちまった……")
    ShowMessage("今じゃサイコロ振った方がまだ当たるレベルだぜ。")
    EndEventProcessing()
    0()
   EndIf()
   0()
  EndIf()
  If(1,1001,0,29,1)
   ShowMessageFace("",0,0,2,4)
   ShowMessage("\\n<あらくれ>おいおい、町でも安全じゃない世の中だな……")
   ShowMessage("どっか田舎にでも隠れ住むか。")
   EndEventProcessing()
   0()
  EndIf()
  0()



EVENT   79
 PAGE   1
  If(1,1001,0,25,2)
   ShowMessageFace("",0,0,2,1)
   ShowMessage("\\n<青年>なんかカワイイのがいる……")
   ShowMessage("変態に襲われないよう、守ってあげないと……")
   355("actor_label_jump")
   EndEventProcessing()
   DefineLabel("103")
   ShowMessageFace("kamuro_fc1",2,0,2,2)
   ShowMessage("\\n<かむろ>あなたも、そうとう不審な気がするのですが……")
   EndEventProcessing()
   DefineLabel("156")
   ShowMessageFace("d_fighter_fc1",0,0,2,3)
   ShowMessage("\\n<レジーナ>そっちの方が、変態っぽいわね……")
   ShowMessageFace("",0,0,2,4)
   ShowMessage("\\n<青年>わぁっ、露出狂だ！　変態だ！")
   ShowMessageFace("d_fighter_fc1",3,0,2,5)
   ShowMessage("\\n<レジーナ>変態はあんたでしょ！")
   EndEventProcessing()
   0()
  EndIf()
  If(1,1001,0,26,1)
   ShowMessageFace("",0,0,2,6)
   ShowMessage("\\n<青年>なんかカワイイのがいる……")
   ShowMessage("魔王軍に襲われないよう、守ってあげないと……")
   EndEventProcessing()
   0()
  EndIf()
  0()



EVENT   80
 PAGE   1
  If(1,1001,0,25,2)
   If(1,1052,0,5,2)
    ShowMessageFace("",0,0,2,1)
    ShowMessage("\\n<マーメイド>女王杯、楽しみよね～！")
    ShowMessage("屈強な男達が、妖女に嫐られる姿が見られるなんて最高♪")
    ShowMessageFace("",0,0,2,2)
    ShowMessage("\\n<ハーピー>イケメンの選手がいたら、顔と名前を覚えておくの。")
    ShowMessage("後で誘って、たっぷり搾っちゃうのが最高……♪")
    ShowMessageFace("",0,0,2,3)
    ShowMessage("\\n<マーメイド>私は、顔は別にブサイクでもいいかな～？")
    ShowMessage("重要なのは筋肉よ、筋肉！")
    ShowMessageFace("",0,0,2,4)
    ShowMessage("\\n<ハーピー>私は、ゼッタイ顔だよね。")
    ShowMessage("イケメンなら、ヘナチョコでも全然OKだよっ♪")
    EndEventProcessing()
    0()
   EndIf()
   If(1,1052,0,6,1)
    ShowMessageFace("",0,0,2,5)
    ShowMessage("\\n<マーメイド>女王杯、すごかったよね～！")
    ShowMessage("今度、私達も出てみない？")
    ShowMessageFace("",0,0,2,6)
    ShowMessage("\\n<ハーピー>力を合わせて、イケメンを嫐りたいよね～♪")
    EndEventProcessing()
    0()
   EndIf()
   0()
  EndIf()
  If(1,1001,0,26,1)
   If(1,1001,0,28,2)
    ShowMessageFace("",0,0,2,7)
    ShowMessage("\\n<マーメイド>魔王様が宣戦布告なんて……あなた、どうするの？")
    ShowMessageFace("",0,0,2,8)
    ShowMessage("\\n<ハーピー>えっと、分からない……")
    ShowMessage("この町を滅ぼされたら、私も困るよ……")
    EndEventProcessing()
    0()
   EndIf()
   0()
  EndIf()
  If(1,1001,0,29,1)
   ShowMessageFace("",0,0,2,9)
   ShowMessage("\\n<マーメイド>力を合わせてエルフを撃破！")
   ShowMessageFace("",0,0,2,10)
   ShowMessage("\\n<ハーピー>私達、黄金のコンビよね♪")
   355("actor_label_jump")
   EndEventProcessing()
   DefineLabel("84")
   ShowMessageFace("hapy_bc_fc1",0,0,2,11)
   ShowMessage("\\n<ピナ＆ピィ>あたし達は、黄金の姉妹だよっ♪")
   EndEventProcessing()
   DefineLabel("137")
   ShowMessageFace("braunys_fc1",6,0,2,12)
   ShowMessage("\\n<ラブ＆ラム>あたし達も、仲良しコンビ～♪")
   EndEventProcessing()
   DefineLabel("138")
   ShowMessageFace("tfairy_fc1",0,0,2,13)
   ShowMessage("\\n<ミル＆リル>あたし達も、黄金のツインズ～♪")
   EndEventProcessing()
   DefineLabel("236")
   ShowMessageFace("plantwin_fc1",0,0,2,14)
   ShowMessage("\\n<ルーティ>あたし達だって、黄金のコンビだぜ！")
   EndEventProcessing()
   DefineLabel("306")
   ShowMessageFace("twinkel_fc2",0,0,2,15)
   ShowMessage("\\n<ツィンケル>黄金のコンビ、ねぇ……")
   ShowMessageFace("twinkel_fc3",0,0,2,16)
   ShowMessage("\\n<ツィンケル>私達には無縁ですね……")
   EndEventProcessing()
   DefineLabel("341")
   ShowMessageFace("lilith_fc1",0,0,2,17)
   ShowMessage("\\n<リリス＆リリム>私達のコンビネーションには及ばないわ……")
   EndEventProcessing()
   0()
  EndIf()
  0()



EVENT   81
 PAGE   1
  If(1,1001,0,25,2)
   If(1,1052,0,5,2)
    ShowMessageFace("",0,0,2,1)
    ShowMessage("\\n<マーメイド>女王杯、楽しみよね～！")
    ShowMessage("屈強な男達が、妖女に嫐られる姿が見られるなんて最高♪")
    ShowMessageFace("",0,0,2,2)
    ShowMessage("\\n<ハーピー>イケメンの選手がいたら、顔と名前を覚えておくの。")
    ShowMessage("後で誘って、たっぷり搾っちゃうのが最高……♪")
    ShowMessageFace("",0,0,2,3)
    ShowMessage("\\n<マーメイド>私は、顔は別にブサイクでもいいかな～？")
    ShowMessage("重要なのは筋肉よ、筋肉！")
    ShowMessageFace("",0,0,2,4)
    ShowMessage("\\n<ハーピー>私は、ゼッタイ顔だよね。")
    ShowMessage("イケメンなら、ヘナチョコでも全然OKだよっ♪")
    EndEventProcessing()
    0()
   EndIf()
   If(1,1052,0,6,1)
    ShowMessageFace("",0,0,2,5)
    ShowMessage("\\n<マーメイド>女王杯、すごかったよね～！")
    ShowMessage("今度、私達も出てみない？")
    ShowMessageFace("",0,0,2,6)
    ShowMessage("\\n<ハーピー>力を合わせて、イケメンを嫐りたいよね～♪")
    EndEventProcessing()
    0()
   EndIf()
   0()
  EndIf()
  If(1,1001,0,26,1)
   If(1,1001,0,28,2)
    ShowMessageFace("",0,0,2,7)
    ShowMessage("\\n<マーメイド>魔王様が宣戦布告なんて……あなた、どうするの？")
    ShowMessageFace("",0,0,2,8)
    ShowMessage("\\n<ハーピー>えっと、分からない……")
    ShowMessage("この町を滅ぼされたら、私も困るよ……")
    EndEventProcessing()
    0()
   EndIf()
   0()
  EndIf()
  If(1,1001,0,29,1)
   ShowMessageFace("",0,0,2,9)
   ShowMessage("\\n<マーメイド>力を合わせてエルフを撃破！")
   ShowMessageFace("",0,0,2,10)
   ShowMessage("\\n<ハーピー>私達、黄金のコンビよね♪")
   355("actor_label_jump")
   EndEventProcessing()
   DefineLabel("84")
   ShowMessageFace("hapy_bc_fc1",0,0,2,11)
   ShowMessage("\\n<ピナ＆ピィ>あたし達は、黄金の姉妹だよっ♪")
   EndEventProcessing()
   DefineLabel("137")
   ShowMessageFace("braunys_fc1",6,0,2,12)
   ShowMessage("\\n<ラブ＆ラム>あたし達も、仲良しコンビ～♪")
   EndEventProcessing()
   DefineLabel("138")
   ShowMessageFace("tfairy_fc1",0,0,2,13)
   ShowMessage("\\n<ミル＆リル>あたし達も、黄金のツインズ～♪")
   EndEventProcessing()
   DefineLabel("236")
   ShowMessageFace("plantwin_fc1",0,0,2,14)
   ShowMessage("\\n<ルーティ>あたし達だって、黄金のコンビだぜ！")
   EndEventProcessing()
   DefineLabel("306")
   ShowMessageFace("twinkel_fc2",0,0,2,15)
   ShowMessage("\\n<ツィンケル>黄金のコンビ、ねぇ……")
   ShowMessageFace("twinkel_fc3",0,0,2,16)
   ShowMessage("\\n<ツィンケル>私達には無縁ですね……")
   EndEventProcessing()
   DefineLabel("341")
   ShowMessageFace("lilith_fc1",0,0,2,17)
   ShowMessage("\\n<リリス＆リリム>私達のコンビネーションには及ばないわ……")
   EndEventProcessing()
   0()
  EndIf()
  0()



EVENT   82
 PAGE   1
  If(1,1001,0,25,2)
   If(1,1052,0,5,2)
    ShowMessageFace("centa_fc1",2,0,2,1)
    ShowMessage("\\n<ケンタウロス娘>大会当日が近付くにつれ、昂ぶってきたぞ！")
    EndEventProcessing()
    0()
   EndIf()
   If(1,1052,0,6,1)
    ShowMessageFace("centa_fc1",0,0,2,2)
    ShowMessage("\\n<ケンタウロス娘>女王杯では敗北を喫したが……")
    ShowMessage("デュラハン相手に全力で戦った、悔いはない。")
    EndEventProcessing()
    0()
   EndIf()
   0()
  EndIf()
  If(1,1001,0,26,1)
   If(1,1001,0,28,2)
    ShowMessageFace("centa_fc1",0,0,2,3)
    ShowMessage("\\n<ケンタウロス娘>魔王様は、いったい何を考えておられるのか……")
    ShowMessage("神話の時代でもあるまいに、なぜ人間と戦うのだ？")
    EndEventProcessing()
    0()
   EndIf()
   0()
  EndIf()
  If(1,1001,0,29,1)
   ShowMessageFace("centa_fc1",0,0,2,4)
   ShowMessage("\\n<ケンタウロス娘>ひどい騒動だったな……")
   ShowMessage("妖精にまとわりつかれて、難儀したぞ。")
   EndEventProcessing()
   0()
  EndIf()
  0()



EVENT   83
 PAGE   1
  ShowMessageFace("",0,0,2,1)
  ShowMessage("\\n<青年>うわー！　ケンタウロスが暴走してるぞ！")
  0()



EVENT   84
 PAGE   1
  If(1,1001,0,25,2)
   ShowMessageFace("mimizu_fc1",0,0,2,1)
   ShowMessage("\\n<ミミズ娘>この男は、肥やしにならなさそうね……")
   EndEventProcessing()
   0()
  EndIf()
  If(1,1001,0,26,1)
   If(1,1001,0,28,2)
    ShowMessageFace("mimizu_fc1",0,0,2,2)
    ShowMessage("\\n<ミミズ娘>魔王様が、宣戦布告しただなんて……")
    ShowMessage("私も、ここで遊んでる場合じゃないのかもね。")
    EndEventProcessing()
    0()
   EndIf()
   0()
  EndIf()
  If(1,1001,0,29,1)
   ShowMessageFace("mimizu_fc1",2,0,2,3)
   ShowMessage("\\n<ミミズ娘>最近、町でも後ろ指を指される事が多くなったわ。")
   ShowMessageFace("mimizu_fc1",2,0,2,4)
   ShowMessage("\\n<ミミズ娘>グランドノアじゃ、軍にも魔物が多いからマシだけど……")
   ShowMessage("他の町は、もっと風当たりがきついんでしょうね。")
   355("actor_label_jump")
   EndEventProcessing()
   DefineLabel("212")
   DefineLabel("213")
   ShowMessageFace("durahan_fc1",2,0,2,5)
   ShowMessage("\\n<アーサー>軍の中でさえ、魔物排斥の声は聞かれるようになった。")
   ShowMessage("これまで、国のために尽くしてきたのにな……")
   ShowMessageFace("kerberos_fc1",0,0,2,6)
   ShowMessage("\\n<シーザー>親衛隊から魔物を排除しようって計画も聞いたぞ。")
   ShowMessage("女王様が頑として受け付けないみたいだが。")
   EndEventProcessing()
   0()
  EndIf()
  0()



EVENT   85
 PAGE   1
  If(1,1001,0,25,2)
   If(1,1052,0,5,2)
    ShowMessageFace("",0,0,2,1)
    ShowMessage("\\n<若い女性>武闘大会で浮かれている場合なのでしょうか……")
    ShowMessage("戦争が激しさを増しているというのに……")
    EndEventProcessing()
    0()
   EndIf()
   If(1,1052,0,6,1)
    ShowMessageFace("",0,0,2,2)
    ShowMessage("\\n<若い女性>戦争は激しさを増す一方です。")
    ShowMessage("平和な日は、いつになったら来るのでしょうか……")
    EndEventProcessing()
    0()
   EndIf()
   0()
  EndIf()
  If(1,1001,0,26,1)
   If(1,1001,0,28,2)
    ShowMessageFace("",0,0,2,3)
    ShowMessage("\\n<若い女性>今度は、魔王との戦争なんて……")
    ShowMessage("平和がつくづく恋しいですね。")
    EndEventProcessing()
    0()
   EndIf()
   0()
  EndIf()
  If(1,1001,0,29,1)
   ShowMessageFace("",0,0,2,4)
   ShowMessage("\\n<若い女性>エルフも妖精も、平和を愛する種族ではなかったのですか……")
   ShowMessage("それが、この町を蹂躙するなんて……")
   355("actor_label_jump")
   EndEventProcessing()
   DefineLabel("315")
   ShowMessageFace("queenfairy_fc1",2,0,2,5)
   ShowMessage("\\n<エアリー>返す言葉もありません……")
   ShowMessage("己の過ちは受け入れ、償いを果たします。")
   EndEventProcessing()
   DefineLabel("316")
   ShowMessageFace("queenelf_fc1",0,0,2,6)
   ShowMessage("\\n<フレイヤ>耳が痛いです……")
   ShowMessage("平和を導く事で、償うより他にないですね。")
   EndEventProcessing()
   0()
  EndIf()
  0()



EVENT   86
 PAGE   1
  If(1,1001,0,25,2)
   ShowMessageFace("",0,0,2,1)
   ShowMessage("\\n<衛兵>彼女、ほしい。")
   EndEventProcessing()
   0()
  EndIf()
  If(1,1001,0,26,1)
   If(1,1001,0,28,2)
    ShowMessageFace("",0,0,2,2)
    ShowMessage("\\n<衛兵>あいつら、いつもいるな……")
    EndEventProcessing()
    0()
   EndIf()
   0()
  EndIf()
  If(1,1001,0,29,1)
   ShowMessageFace("",0,0,2,3)
   ShowMessage("\\n<衛兵>くくく……もめろ、もめろ……")
   EndEventProcessing()
   0()
  EndIf()
  0()



EVENT   87
 PAGE   1
  ShowMessageFace("nekomata_fc1",2,0,2,1)
  ShowMessage("\\n<ねこまた>にゃ～♪")
  355("actor_label_jump")
  EndEventProcessing()
  DefineLabel("70")
  ShowMessageFace("nezumi_fc1",2,0,2,2)
  ShowMessage("\\n<ラティ>ニャー！！")
  EndEventProcessing()
  DefineLabel("222")
  ShowMessageFace("nekomata_fc1",2,0,2,3)
  ShowMessage("\\n<たま>にゃっ♪")
  EndEventProcessing()
  0()



EVENT   88
 PAGE   1
  If(1,1001,0,25,2)
   If(1,1052,0,5,2)
    ShowMessageFace("",0,0,2,1)
    ShowMessage("\\n<衛兵>普段はコロシアムなど興味なかった者まで、今回は大騒ぎです。")
    ShowMessage("戦争の不安を、少しでも振り払いたいのでしょうね……")
    EndEventProcessing()
    0()
   EndIf()
   If(1,1052,0,6,1)
    ShowMessageFace("",0,0,2,2)
    ShowMessage("\\n<衛兵>女王杯以来、町は活気を取り戻しています。")
    ShowMessage("戦争中に不謹慎とも思いましたが、戦意高揚の効果は確実でしたね。")
    EndEventProcessing()
    0()
   EndIf()
   0()
  EndIf()
  If(1,1001,0,26,1)
   If(1,1001,0,28,2)
    ShowMessageFace("",0,0,2,3)
    ShowMessage("\\n<衛兵>魔王の宣戦布告以来、町は不安に包まれています。")
    ShowMessage("敵の動きがないのも、なんとも不気味ですね……")
    EndEventProcessing()
    0()
   EndIf()
   0()
  EndIf()
  If(1,1001,0,29,1)
   ShowMessageFace("",0,0,2,4)
   ShowMessage("\\n<衛兵>危なくエルフに犯されそうになりました……")
   ShowMessage("いや、ちょっと挿っちゃったかも。")
   355("actor_label_jump")
   EndEventProcessing()
   DefineLabel("95")
   ShowMessageFace("delh_a_fc1",1,0,2,5)
   ShowMessage("\\n<ロナ>そのまま、溺れてみない？")
   EndEventProcessing()
   DefineLabel("96")
   ShowMessageFace("delh_b_fc1",0,0,2,6)
   ShowMessage("\\n<マリオン>そのまま堕ちてみませんか……？")
   EndEventProcessing()
   DefineLabel("136")
   ShowMessageFace("elf_fc1",0,0,2,7)
   ShowMessage("\\n<クローディア>それは……アウトね。")
   EndEventProcessing()
   0()
  EndIf()
  0()



EVENT   89
 PAGE   1
  If(1,1001,0,25,2)
   If(1,1052,0,5,2)
    ShowMessageFace("",0,0,2,1)
    ShowMessage("\\n<衛兵>大会当日は、休みを取って観戦しようと思っていたのですが……")
    ShowMessage("みな考える事は同じらしく、結局は当日も職務です。")
    EndEventProcessing()
    0()
   EndIf()
   If(1,1052,0,6,1)
    ShowMessageFace("",0,0,2,2)
    ShowMessage("\\n<衛兵>大会当日も仕事で、観戦できませんでした。")
    ShowMessage("なにやら乱入騒ぎもあり、大荒れだったとか……")
    EndEventProcessing()
    0()
   EndIf()
   0()
  EndIf()
  If(1,1001,0,26,1)
   If(1,1001,0,28,2)
    ShowMessageFace("",0,0,2,3)
    ShowMessage("\\n<衛兵>今後、警備を厳にしなければ……")
    EndEventProcessing()
    0()
   EndIf()
   0()
  EndIf()
  If(1,1001,0,29,1)
   ShowMessageFace("",0,0,2,4)
   ShowMessage("\\n<衛兵>エルフとの激戦で、病院は満杯です。")
   ShowMessage("このまま魔王軍の侵攻が続けば、我々は……")
   EndEventProcessing()
   0()
  EndIf()
  0()



EVENT   90
 PAGE   1
  If(1,1001,0,25,2)
   If(1,1052,0,5,2)
    ShowMessageFace("",0,0,2,1)
    ShowMessage("\\n<衛兵>ああ、大会に出場したい……")
    ShowMessage("そして、妖魔のお姉さんに弄ばれたい……")
    ShowMessageFace("",0,0,2,2)
    ShowMessage("\\n<衛兵>しかし大会当日、休暇は取れませんでした。")
    ShowMessage("衆人環視の中で弄ばれるという希望も、無惨に破壊されたのです。")
    EndEventProcessing()
    0()
   EndIf()
   If(1,1052,0,6,1)
    ShowMessageFace("",0,0,2,3)
    ShowMessage("\\n<衛兵>女王杯、出たかったなぁ……")
    ShowMessage("エルフあたりに挑んで、犯されたかったなぁ……")
    EndEventProcessing()
    0()
   EndIf()
   0()
  EndIf()
  If(1,1001,0,26,1)
   If(1,1001,0,28,2)
    ShowMessageFace("",0,0,2,4)
    ShowMessage("\\n<衛兵>女王杯、出たかったなぁ……")
    ShowMessage("エルフあたりに挑んで、犯されたかったなぁ……")
    EndEventProcessing()
    0()
   EndIf()
   0()
  EndIf()
  If(1,1001,0,29,1)
   ShowMessageFace("",0,0,2,5)
   ShowMessage("\\n<衛兵>エルフに犯されて、童貞を奪われてしまった……")
   ShowMessage("ああ、すごかった……")
   EndEventProcessing()
   0()
  EndIf()
  0()



EVENT   91
 PAGE   1
  If(1,1001,0,25,2)
   ShowMessageFace("alraune_fc1",0,0,2,1)
   ShowMessage("\\n<アルラウネ>お花、元気がないです……")
   If(4,208,0)
    ShowMessageFace("alraune_fc1",0,0,2,2)
    ShowMessage("\\n<フローラ>心配ですね……この子達、疲れてるのかな？")
    0()
   EndIf()
   If(4,59,0)
    ShowMessageFace("mdg_fc1",0,0,2,3)
    ShowMessage("\\n<ラゴラ>あたしが、気合い入れてあげようか？")
    0()
   EndIf()
   EndEventProcessing()
   0()
  EndIf()
  If(1,1001,0,26,1)
   If(1,1001,0,28,2)
    ShowMessageFace("alraune_fc1",0,0,2,4)
    ShowMessage("\\n<アルラウネ>お花、ちょっと元気になってきました……")
    If(4,208,0)
     ShowMessageFace("alraune_fc1",0,0,2,5)
     ShowMessage("\\n<フローラ>がんばれ～！")
     0()
    EndIf()
    EndEventProcessing()
    0()
   EndIf()
   0()
  EndIf()
  If(1,1001,0,29,1)
   ShowMessageFace("alraune_fc1",2,0,2,6)
   ShowMessage("\\n<アルラウネ>お花、とっても元気です……")
   If(4,208,0)
    ShowMessageFace("alraune_fc1",2,0,2,7)
    ShowMessage("\\n<フローラ>よかったです……♪")
    0()
   EndIf()
   EndEventProcessing()
   0()
  EndIf()
  0()



EVENT   92
 PAGE   1
  If(1,1001,0,25,2)
   ShowMessageFace("kezyorou_fc1",0,0,2,1)
   ShowMessage("\\n<毛倡妓>あたしは、ここから東のヤマタイ村から来たんだよ。")
   ShowMessage("ここまで来る時、途中でトンネルを見なかったかい？")
   ShowMessageFace("kezyorou_fc1",0,0,2,2)
   ShowMessage("\\n<毛倡妓>それにしても、都会ってのはいいねぇ。")
   ShowMessage("娯楽がいっぱいで、まるで夢の都のようさ。")
   EndEventProcessing()
   0()
  EndIf()
  If(1,1001,0,26,1)
   If(1,1001,0,28,2)
    ShowMessageFace("kezyorou_fc1",2,0,2,3)
    ShowMessage("\\n<毛倡妓>魔王様は、いったい何を考えてるんだい？")
    ShowMessage("あたし等みたいな妖怪には、大迷惑さ。")
    EndEventProcessing()
    0()
   EndIf()
   0()
  EndIf()
  If(1,1001,0,29,1)
   ShowMessageFace("kezyorou_fc1",0,0,2,4)
   ShowMessage("\\n<毛倡妓>今度の戦いじゃ、人間の味方をさせてもらったよ。")
   ShowMessage("この堀に、エルフどもを何人も叩き込んでやったさ。")
   EndEventProcessing()
   0()
  EndIf()
  0()



EVENT   93
 PAGE   1
  If(1,1001,0,25,2)
   ShowMessageFace("",0,0,2,1)
   ShowMessage("\\n<エルフ>最近、ノア地方のあちこちで妖怪を見掛けるわ。")
   ShowMessage("トンネルが出来て以来、ヤマタイの外にも進出しているようね。")
   ShowMessageFace("",0,0,2,2)
   ShowMessage("\\n<エルフ>でも、大きなトラブルは特にないみたい。")
   ShowMessage("妖怪って、ヤマタイじゃ昔から人間と平和共存してきたから……")
   EndEventProcessing()
   0()
  EndIf()
  If(1,1001,0,26,1)
   If(1,1001,0,28,2)
    ShowMessageFace("",0,0,2,3)
    ShowMessage("\\n<エルフ>魔王様が宣戦布告……")
    ShowMessage("それに、クィーンエルフが妙な動きを見せているみたいなの。")
    ShowMessageFace("",0,0,2,4)
    ShowMessage("\\n<エルフ>なんだか、嫌な予感がするわ……")
    EndEventProcessing()
    0()
   EndIf()
   0()
  EndIf()
  If(1,1001,0,29,1)
   ShowMessageFace("",0,0,2,5)
   ShowMessage("\\n<エルフ>一応言っておくけど、私はグランドノアに元から住んでたエルフよ。")
   ShowMessage("今回の件で、この町じゃとっても生き辛くなったけどね……")
   355("actor_label_jump")
   EndEventProcessing()
   DefineLabel("316")
   ShowMessageFace("queenelf_fc1",2,0,2,6)
   ShowMessage("\\n<フレイヤ>私は、同胞にまで多大な苦難を与えてしまったのですね……")
   EndEventProcessing()
   0()
  EndIf()
  0()



EVENT   94
 PAGE   1
  If(1,1001,0,25,2)
   ShowMessageFace("",0,0,2,1)
   ShowMessage("\\n<憲兵>我が国の大衆は、今ひとつ愛国心に欠けている。")
   ShowMessage("戦勝を危ぶむ声が、町中にさえ聞こえてくるのだ。")
   ShowMessageFace("",0,0,2,2)
   ShowMessage("\\n<憲兵>大衆の心根を、徹底的に叩き直さねばならん。")
   ShowMessage("国民の心を一丸にし、侵略者どもを打ち破るのだ！")
   EndEventProcessing()
   0()
  EndIf()
  If(1,1001,0,26,1)
   If(1,1001,0,28,2)
    ShowMessageFace("",0,0,2,3)
    ShowMessage("\\n<憲兵>魔王が宣戦布告した以上、魔物は全て潜在的脅威。")
    ShowMessage("ただちに、我が軍から遠ざけるべきであろう。")
    EndEventProcessing()
    0()
   EndIf()
   0()
  EndIf()
  If(1,1001,0,29,1)
   ShowMessageFace("",0,0,2,4)
   ShowMessage("\\n<憲兵>あ、どうも……")
   ShowMessage("この通り、真面目にやっております。")
   EndEventProcessing()
   0()
  EndIf()
  0()



EVENT   95
 PAGE   1
  If(1,1001,0,25,2)
   ShowMessageFace("",0,0,2,1)
   ShowMessage("\\n<青年>前線から離れた場所にいる奴ほど、鼻息も荒いものさ。")
   ShowMessage("自分は安全な場所にいる、そんな後ろめたさの裏返しかもしれないな。")
   EndEventProcessing()
   0()
  EndIf()
  If(1,1001,0,26,1)
   If(1,1001,0,28,2)
    ShowMessageFace("",0,0,2,2)
    ShowMessage("\\n<青年>前線から離れた場所にいる奴ほど、鼻息も荒いものさ。")
    ShowMessage("自分は安全な場所にいる、そんな後ろめたさの裏返しかもしれないな。")
    EndEventProcessing()
    0()
   EndIf()
   0()
  EndIf()
  If(1,1001,0,29,1)
   ShowMessageFace("",0,0,2,3)
   ShowMessage("\\n<青年>憲兵隊、エルフ達の襲撃で大失態をやらかしたのさ。")
   ShowMessage("今じゃ、組織再編の危機ってわけだよ。")
   EndEventProcessing()
   0()
  EndIf()
  0()



EVENT   96
 PAGE   1
  If(1,1001,0,25,2)
   If(1,1052,0,5,2)
    ShowMessageFace("",0,0,2,1)
    ShowMessage("\\n<町娘>明日は、楽しみにしていた試合があるの。")
    ShowMessage("朝からコロシアムに行って、席をキープしないとね。")
    ShowMessageFace("ruka_fc1",0,0,2,2)
    ShowMessage("\\n<ルカ>戦いに興味があるんですか？")
    ShowMessageFace("",0,0,2,3)
    ShowMessage("\\n<町娘>いいえ、戦いそのものは別に……")
    ShowMessage("でも……うふふふふっ。")
    ShowMessageFace("",0,0,2,4)
    ShowMessage("\\n<町娘>あなたも可愛いし、コロシアムに出てみればどう？")
    ShowMessage("私、絶対に見に行くから。")
    0()
   EndIf()
   If(1,1052,0,6,1)
    ShowMessageFace("",0,0,2,5)
    ShowMessage("\\n<町娘>あなた達、あのキュバに勝っちゃうなんて……")
    ShowMessage("乱入者もあってゴチャゴチャだったけど、本当にすごいのね。")
    ShowMessageFace("",0,0,2,6)
    ShowMessage("\\n<町娘>……残念だわ、あなたみたいな可愛い子が弄ばれるのを見たかったのに……")
    0()
   EndIf()
   EndEventProcessing()
   0()
  EndIf()
  If(1,1001,0,26,1)
   If(1,1001,0,28,2)
    ShowMessageFace("",0,0,2,7)
    ShowMessage("\\n<町娘>とんでもない事になったわね……")
    ShowMessage("でも、私のコロシアム通いはやめないわよ。")
    EndEventProcessing()
    0()
   EndIf()
   0()
  EndIf()
  If(1,1001,0,29,1)
   ShowMessageFace("",0,0,2,8)
   ShowMessage("\\n<町娘>エルフの襲撃で、弄ばれる男達をいっぱい見ちゃった……")
   ShowMessage("ああ、ゾクゾクする……")
   355("actor_label_jump")
   EndEventProcessing()
   DefineLabel("316")
   ShowMessageFace("queenelf_fc1",2,0,2,9)
   ShowMessage("\\n<フレイヤ>変わった人間もいるのですね……")
   EndEventProcessing()
   0()
  EndIf()
  0()



EVENT   97
 PAGE   1
  250(bytes(0x04,0x08,0x6f,0x3a,0x0c,0x52,0x50,0x47,0x3a,0x3a,0x53,0x45,0x08,0x3a,0x0a,0x40,0x6e,0x61,0x6d,0x65,0x49,0x22,0x0a,0x49,0x74,0x65,0x6d,0x31,0x06,0x3a,0x06,0x45,0x54,0x3a,0x0b,0x40,0x70,0x69,0x74,0x63,0x68,0x69,0x69,0x3a,0x0c,0x40,0x76,0x6f,0x6c,0x75,0x6d,0x65,0x69,0x55))
  ChangeSelfSwitch("A",0)
  ChangeInventory_Item(209,0,0,1)
  0()
 PAGE   2
  // condition: self-switch A is ON
  0()



EVENT   98
 PAGE   1
  ShowMessageFace("",0,0,2,1)
  ShowMessage("\\n<海賊>グロリア海賊団には注意しなきゃな……")
  ShowMessage("あいつらは、海賊狩りを専門にしている連中だ。")
  ShowMessageFace("",0,0,2,2)
  ShowMessage("\\n<海賊>グロリア海賊団は、団長から下っ端までみんな人間の女らしい。")
  ShowMessage("おまけに、バトルファックも得意だって話だぜ。")
  If(0,2149,0)
   ShowMessageFace("bonny_fc1",0,0,2,3)
   ShowMessage("\\n<ボニー>グロリア海賊団とは、我々も何度か交戦している。")
   ShowMessage("なかなか厄介な相手だぞ！")
   ShowMessageFace("ashel_fc1",0,0,2,4)
   ShowMessage("\\n<アシェル>向こうも、おさかな海賊団をライバル視しているようだ。")
   ShowMessage("いつか決着をつけなきゃならないね……")
   0()
  EndIf()
  If(0,2148,0)
   ShowMessageFace("tatunoko_k_fc1",2,0,2,5)
   ShowMessage("\\n<たつこ>グロリア海賊団も、海軍における要注意対象なのです。")
   ShowMessage("しかし海賊狩りが生業なので、なかなか摘発が難しいんですよね……")
   ShowMessageFace("umiusi_k_fc1",0,0,2,6)
   ShowMessage("\\n<ステイシー>襲われた海賊も、被害届なんて出さないし……")
   ShowMessage("暴力行為の現行犯で捕まえるより他にないのが実情です。")
   0()
  EndIf()
  0()



EVENT   99
 PAGE   1
  // condition: switch 1102 is ON
  // condition: switch 1103 is ON
  241(bytes(0x04,0x08,0x6f,0x3a,0x0d,0x52,0x50,0x47,0x3a,0x3a,0x42,0x47,0x4d,0x08,0x3a,0x0a,0x40,0x6e,0x61,0x6d,0x65,0x49,0x22,0x13,0x73,0x63,0x65,0x6e,0x65,0x5f,0x6f,0x64,0x61,0x79,0x61,0x6b,0x61,0x31,0x06,0x3a,0x06,0x45,0x54,0x3a,0x0c,0x40,0x76,0x6f,0x6c,0x75,0x6d,0x65,0x69,0x69,0x3a,0x0b,0x40,0x70,0x69,0x74,0x63,0x68,0x69,0x69))
  ShowMessageFace("kamuro_fc1",0,0,2,1)
  ShowMessage("\\n<Kamuro>Kitsu-nee, how come flowers are so pretty?")
  ShowMessageFace("youko_fc1",0,0,2,2)
  ShowMessage("\\n<Kitsu>Well, you see...\nIt's because the flowers that weren't pretty went extinct.")
  ShowMessageFace("kamuro_fc1",0,0,2,3)
  ShowMessage("\\n<Kamuro>You're so smart, Kitsu-nee! You know everything!")
  If(0,1041,0)
   ShowMessageFace("stein_fc2",0,0,2,4)
   ShowMessage("\\n<Promestein>(More or less correct...)")
   0()
  EndIf()
  241(bytes(0x04,0x08,0x6f,0x3a,0x0d,0x52,0x50,0x47,0x3a,0x3a,0x42,0x47,0x4d,0x08,0x3a,0x0a,0x40,0x6e,0x61,0x6d,0x65,0x49,0x22,0x0a,0x63,0x69,0x74,0x79,0x31,0x06,0x3a,0x06,0x45,0x54,0x3a,0x0c,0x40,0x76,0x6f,0x6c,0x75,0x6d,0x65,0x69,0x69,0x3a,0x0b,0x40,0x70,0x69,0x74,0x63,0x68,0x69,0x69))
  0()
 PAGE   2
  // condition: party contains actor #102
  0()
 PAGE   3
  // condition: party contains actor #103
  0()



EVENT   100
 PAGE   1
  If(1,1001,0,28,2)
   ShowMessageFace("",0,0,2,1)
   ShowMessage("\\n<釣り好きハーピー>私の釣り仲間の男の人が、行方不明になってしまったの。")
   ShowMessage("「禁忌の泉」に行くと言ってたから、止めたんだけど……")
   ShowMessageFace("ruka_fc1",0,0,2,2)
   ShowMessage("\\n<ルカ>禁忌の泉……？")
   ShowMessageFace("",0,0,2,3)
   ShowMessage("\\n<釣り好きハーピー>あなたも、禁忌の泉に近付いちゃいけないわよ。")
   ShowMessage("あそこに踏み入ると、水精の罰が当たるって話だから。")
   If(1,1001,0,24,2)
    If(0,4,0)
     ShowMessageFace("alice_fc5",0,0,2,4)
     ShowMessage("\\n<アリス>ウンディーネの泉の事だな……")
     ShowMessage("この城の西に存在する小さな泉に、水の精霊がいるのだ。")
     ShowMessageFace("alice_fc5",0,0,2,5)
     ShowMessage("\\n<アリス>だが、ウンディーネに会いに行くのは後にしておきたい。")
     ShowMessage("この地域の用事が全て済んでから、あらためて泉に行くとしよう。")
     0()
    EndIf()
    If(0,5,0)
     ShowMessageFace("iriasu_fc4",0,0,2,6)
     ShowMessage("\\n<イリアス>ウンディーネの泉の事ですね……")
     ShowMessage("この城の西にある小さな泉に、汚らわしき水精が棲んでいるのですよ。")
     ShowMessageFace("iriasu_fc4",0,0,2,7)
     ShowMessage("\\n<イリアス>ですが、ウンディーネに会いに行くのは後に回しましょう。")
     ShowMessage("先に、この地域の用事を全て済ませてしまうのです。")
     0()
    EndIf()
    0()
   EndIf()
   EndEventProcessing()
   0()
  EndIf()
  If(1,1001,0,29,1)
   ShowMessageFace("",0,0,2,8)
   ShowMessage("\\n<釣り好きハーピー>妖精相手に、釣り竿振り回して戦ったわよ。")
   ShowMessage("おかげで、高級釣り竿がポッキリ……")
   355("actor_label_jump")
   EndEventProcessing()
   DefineLabel("311")
   ShowMessageFace("trickfairy_fc1",2,0,2,9)
   ShowMessage("\\n<シシリー>ごめんね……")
   ShowMessage("今度、一緒に釣りしようね。")
   EndEventProcessing()
   DefineLabel("315")
   ShowMessageFace("queenfairy_fc1",2,0,2,10)
   ShowMessage("\\n<エアリー>申し訳ありません……弁償しましょうか？")
   ShowMessageFace("",0,0,2,11)
   ShowMessage("\\n<釣り好きハーピー>いや、そこまででもないけど……")
   EndEventProcessing()
   0()
  EndIf()
  0()



EVENT   101
 PAGE   1
  If(1,1001,0,25,2)
   ShowMessageFace("taran_fc1",0,0,2,1)
   ShowMessage("\\n<クモ娘の裁縫屋>私は裁縫屋だけど、何か縫ってほしいものはあるかしら？")
   ShowMessageFace("ruka_fc1",0,0,2,2)
   ShowMessage("\\n<ルカ>いえ、別にないです……")
   ShowMessageFace("taran_fc1",0,0,2,3)
   ShowMessage("\\n<クモ娘の裁縫屋>それは残念ね……全然もうかってないのよ。")
   ShowMessage("だって、私……")
   ShowMessageFace("taran_fc1",0,0,2,4)
   ShowMessage("\\n<クモ娘の裁縫屋>……クモ娘じゃなくて、実はタランチュラ娘なの。")
   ShowMessage("正直、裁縫は苦手なのよ……")
   ShowMessageFace("ruka_fc1",0,0,2,5)
   ShowMessage("\\n<ルカ>（なら、なんで裁縫屋を……？）")
   ShowMessageFace("taran_fc1",0,0,2,6)
   ShowMessage("\\n<クモ娘の裁縫屋>そろそろ見切りをつけて、故郷の村に戻ろうかしら……")
   ShowMessageFace("ruka_fc1",0,0,2,7)
   ShowMessage("\\n<ルカ>それじゃあ、この町の生まれじゃないんですか？")
   ShowMessageFace("taran_fc1",0,0,2,8)
   ShowMessage("\\n<クモ娘の裁縫屋>ここから西の森林地帯に、プランセクト村っていうところがあるの。")
   ShowMessage("様々な魔物が暮らす、魔物だけの村――そこが私の故郷なのよ。")
   ShowMessageFace("taran_fc1",0,0,2,9)
   ShowMessage("\\n<クモ娘の裁縫屋>でも、今はちょっとゴタゴタしててね……")
   ShowMessage("危なっかしいから、この町まで逃げてきたのよ。")
   If(1,1056,0,0,0)
    If(0,4,0)
     ShowMessageFace("alice_fc5",0,0,2,10)
     ShowMessage("\\n<アリス>プランセクト村の内乱は、アリス17世が収めたという事だが……")
     ShowMessage("まさか、また内乱が再発でもしたのか？")
     0()
    EndIf()
    If(0,5,0)
     ShowMessageFace("iriasu_fc4",2,0,2,11)
     ShowMessage("\\n<イリアス>プランセクト村の内乱は、アリス17世が収めたという噂ですが……")
     ShowMessage("まさか、また内乱が再発したのでしょうか？")
     0()
    EndIf()
    0()
   EndIf()
   EndEventProcessing()
   0()
  EndIf()
  If(1,1001,0,26,1)
   If(1,1001,0,28,2)
    ShowMessageFace("taran_fc1",0,0,2,12)
    ShowMessage("\\n<クモ娘の裁縫屋>さっき、憲兵に難癖をつけられたわ。")
    ShowMessage("頭に来たし、殴ってやろうとも思ったけど……")
    ShowMessageFace("taran_fc1",0,0,2,13)
    ShowMessage("\\n<クモ娘の裁縫屋>そんな事したら、他の魔物達の迷惑になるじゃない。")
    ShowMessage("もちろん、必死でこらえたわよ。")
    EndEventProcessing()
    0()
   EndIf()
   0()
  EndIf()
  If(1,1001,0,29,1)
   ShowMessageFace("taran_fc1",0,0,2,14)
   ShowMessage("\\n<クモ娘の裁縫屋>エルフの連中、ちょっと糸で巻いたらすぐアヘっちゃって……")
   ShowMessage("快楽に弱すぎよね。")
   355("actor_label_jump")
   EndEventProcessing()
   DefineLabel("136")
   ShowMessageFace("elf_fc1",2,0,2,15)
   ShowMessage("\\n<クローディア>エルフは淫乱じゃないわ……")
   ShowMessage("ところで、粘糸で巻かれるのってそんなにイイの？")
   EndEventProcessing()
   0()
  EndIf()
  0()



EVENT   102
 PAGE   1
  // condition: switch 1102 is ON
  // condition: switch 1103 is ON
  241(bytes(0x04,0x08,0x6f,0x3a,0x0d,0x52,0x50,0x47,0x3a,0x3a,0x42,0x47,0x4d,0x08,0x3a,0x0a,0x40,0x6e,0x61,0x6d,0x65,0x49,0x22,0x13,0x73,0x63,0x65,0x6e,0x65,0x5f,0x6f,0x64,0x61,0x79,0x61,0x6b,0x61,0x31,0x06,0x3a,0x06,0x45,0x54,0x3a,0x0c,0x40,0x76,0x6f,0x6c,0x75,0x6d,0x65,0x69,0x69,0x3a,0x0b,0x40,0x70,0x69,0x74,0x63,0x68,0x69,0x69))
  ShowMessageFace("kamuro_fc1",0,0,2,1)
  ShowMessage("\\n<Kamuro>Kitsu-nee, how come flowers are so pretty?")
  ShowMessageFace("youko_fc1",0,0,2,2)
  ShowMessage("\\n<Kitsu>Well, you see...\nIt's because the flowers that weren't pretty went extinct.")
  ShowMessageFace("kamuro_fc1",0,0,2,3)
  ShowMessage("\\n<Kamuro>You're so smart, Kitsu-nee! You know everything!")
  If(0,1041,0)
   ShowMessageFace("stein_fc2",0,0,2,4)
   ShowMessage("\\n<Promestein>(More or less correct...)")
   0()
  EndIf()
  241(bytes(0x04,0x08,0x6f,0x3a,0x0d,0x52,0x50,0x47,0x3a,0x3a,0x42,0x47,0x4d,0x08,0x3a,0x0a,0x40,0x6e,0x61,0x6d,0x65,0x49,0x22,0x0a,0x63,0x69,0x74,0x79,0x31,0x06,0x3a,0x06,0x45,0x54,0x3a,0x0c,0x40,0x76,0x6f,0x6c,0x75,0x6d,0x65,0x69,0x69,0x3a,0x0b,0x40,0x70,0x69,0x74,0x63,0x68,0x69,0x69))
  0()
 PAGE   2
  // condition: party contains actor #102
  0()
 PAGE   3
  // condition: party contains actor #103
  0()

EVENT   104
 PAGE   1
  250(bytes(0x04,0x08,0x6f,0x3a,0x0c,0x52,0x50,0x47,0x3a,0x3a,0x53,0x45,0x08,0x3a,0x0a,0x40,0x6e,0x61,0x6d,0x65,0x49,0x22,0x0a,0x49,0x74,0x65,0x6d,0x31,0x06,0x3a,0x06,0x45,0x54,0x3a,0x0b,0x40,0x70,0x69,0x74,0x63,0x68,0x69,0x69,0x3a,0x0c,0x40,0x76,0x6f,0x6c,0x75,0x6d,0x65,0x69,0x55))
  ChangeSelfSwitch("A",0)
  ChangeInventory_Item(52,0,0,1)
  0()
 PAGE   2
  // condition: self-switch A is ON
  0()



EVENT   105
 PAGE   1
  250(bytes(0x04,0x08,0x6f,0x3a,0x0c,0x52,0x50,0x47,0x3a,0x3a,0x53,0x45,0x08,0x3a,0x0a,0x40,0x6e,0x61,0x6d,0x65,0x49,0x22,0x0a,0x49,0x74,0x65,0x6d,0x31,0x06,0x3a,0x06,0x45,0x54,0x3a,0x0b,0x40,0x70,0x69,0x74,0x63,0x68,0x69,0x69,0x3a,0x0c,0x40,0x76,0x6f,0x6c,0x75,0x6d,0x65,0x69,0x55))
  ChangeSelfSwitch("A",0)
  ChangeInventory_Item(205,0,0,1)
  0()
 PAGE   2
  // condition: self-switch A is ON
  0()



EVENT   106
 PAGE   1
  250(bytes(0x04,0x08,0x6f,0x3a,0x0c,0x52,0x50,0x47,0x3a,0x3a,0x53,0x45,0x08,0x3a,0x0a,0x40,0x6e,0x61,0x6d,0x65,0x49,0x22,0x0a,0x49,0x74,0x65,0x6d,0x31,0x06,0x3a,0x06,0x45,0x54,0x3a,0x0b,0x40,0x70,0x69,0x74,0x63,0x68,0x69,0x69,0x3a,0x0c,0x40,0x76,0x6f,0x6c,0x75,0x6d,0x65,0x69,0x55))
  ChangeSelfSwitch("A",0)
  ChangeInventory_Item(60,0,0,1)
  0()
 PAGE   2
  // condition: self-switch A is ON
  0()



EVENT   107
 PAGE   1
  250(bytes(0x04,0x08,0x6f,0x3a,0x0c,0x52,0x50,0x47,0x3a,0x3a,0x53,0x45,0x08,0x3a,0x0a,0x40,0x6e,0x61,0x6d,0x65,0x49,0x22,0x0a,0x49,0x74,0x65,0x6d,0x31,0x06,0x3a,0x06,0x45,0x54,0x3a,0x0b,0x40,0x70,0x69,0x74,0x63,0x68,0x69,0x69,0x3a,0x0c,0x40,0x76,0x6f,0x6c,0x75,0x6d,0x65,0x69,0x55))
  ChangeSelfSwitch("A",0)
  ChangeInventory_Item(56,0,0,1)
  0()
 PAGE   2
  // condition: self-switch A is ON
  0()



EVENT   108
 PAGE   1
  250(bytes(0x04,0x08,0x6f,0x3a,0x0c,0x52,0x50,0x47,0x3a,0x3a,0x53,0x45,0x08,0x3a,0x0a,0x40,0x6e,0x61,0x6d,0x65,0x49,0x22,0x0a,0x49,0x74,0x65,0x6d,0x31,0x06,0x3a,0x06,0x45,0x54,0x3a,0x0b,0x40,0x70,0x69,0x74,0x63,0x68,0x69,0x69,0x3a,0x0c,0x40,0x76,0x6f,0x6c,0x75,0x6d,0x65,0x69,0x55))
  ChangeSelfSwitch("A",0)
  ChangeInventory_Item(211,0,0,1)
  0()
 PAGE   2
  // condition: self-switch A is ON
  0()



EVENT   109
 PAGE   1
  250(bytes(0x04,0x08,0x6f,0x3a,0x0c,0x52,0x50,0x47,0x3a,0x3a,0x53,0x45,0x08,0x3a,0x0a,0x40,0x6e,0x61,0x6d,0x65,0x49,0x22,0x0a,0x49,0x74,0x65,0x6d,0x31,0x06,0x3a,0x06,0x45,0x54,0x3a,0x0b,0x40,0x70,0x69,0x74,0x63,0x68,0x69,0x69,0x3a,0x0c,0x40,0x76,0x6f,0x6c,0x75,0x6d,0x65,0x69,0x55))
  ChangeSelfSwitch("A",0)
  ChangeInventory_Item(207,0,0,1)
  0()
 PAGE   2
  // condition: self-switch A is ON
  0()



EVENT   110
 PAGE   1
  ShowMessageFace("",0,0,2,1)
  ShowMessage("\\n<旅の戦士>巨大な魔物は、当然ながらとても強力だが……")
  ShowMessage("聞いた話では、状態異常「ミニマム」がとても通じやすいらしい。")
  ShowMessageFace("",0,0,2,2)
  ShowMessage("\\n<旅の戦士>小さくしてしまえば非力になるから、簡単に倒すことができるぞ。")
  ShowMessage("敵をミニマムにする代表技と言えば……妖精の踊りあたりが思い付くな。")
  355("actor_label_jump")
  EndEventProcessing()
  DefineLabel("12")
  ShowMessageFace("sylph_fc1",2,0,2,3)
  ShowMessage("\\n<シルフ>あたしに任せてー♪")
  EndEventProcessing()
  DefineLabel("97")
  ShowMessageFace("fairy_fc1",0,0,2,4)
  ShowMessage("\\n<フェル>踊りは得意だよー♪")
  EndEventProcessing()
  DefineLabel("138")
  ShowMessageFace("tfairy_fc1",0,0,2,5)
  ShowMessage("\\n<ミル＆リル>あたし達の出番だね♪")
  EndEventProcessing()
  0()


