﻿
DisplayName "レド山"



EVENT   1
 PAGE   1
  0()



EVENT   2
 PAGE   1
  0()



EVENT   3
 PAGE   1
  0()



EVENT   4
 PAGE   1
  0()



EVENT   5
 PAGE   1
  0()



EVENT   6
 PAGE   1
  0()



EVENT   7
 PAGE   1
  0()



EVENT   8
 PAGE   1
  0()



EVENT   9
 PAGE   1
  250(bytes(0x04,0x08,0x6f,0x3a,0x0c,0x52,0x50,0x47,0x3a,0x3a,0x53,0x45,0x08,0x3a,0x0a,0x40,0x6e,0x61,0x6d,0x65,0x49,0x22,0x09,0x4d,0x6f,0x76,0x65,0x06,0x3a,0x06,0x45,0x54,0x3a,0x0b,0x40,0x70,0x69,0x74,0x63,0x68,0x69,0x69,0x3a,0x0c,0x40,0x76,0x6f,0x6c,0x75,0x6d,0x65,0x69,0x55))
  TeleportPlayer(0,2,303,215,0,0)
  0()



EVENT   10
 PAGE   1
  250(bytes(0x04,0x08,0x6f,0x3a,0x0c,0x52,0x50,0x47,0x3a,0x3a,0x53,0x45,0x08,0x3a,0x0a,0x40,0x6e,0x61,0x6d,0x65,0x49,0x22,0x09,0x4d,0x6f,0x76,0x65,0x06,0x3a,0x06,0x45,0x54,0x3a,0x0b,0x40,0x70,0x69,0x74,0x63,0x68,0x69,0x69,0x3a,0x0c,0x40,0x76,0x6f,0x6c,0x75,0x6d,0x65,0x69,0x55))
  TeleportPlayer(0,2,303,215,0,0)
  0()



EVENT   11
 PAGE   1
  250(bytes(0x04,0x08,0x6f,0x3a,0x0c,0x52,0x50,0x47,0x3a,0x3a,0x53,0x45,0x08,0x3a,0x0a,0x40,0x6e,0x61,0x6d,0x65,0x49,0x22,0x09,0x4d,0x6f,0x76,0x65,0x06,0x3a,0x06,0x45,0x54,0x3a,0x0b,0x40,0x70,0x69,0x74,0x63,0x68,0x69,0x69,0x3a,0x0c,0x40,0x76,0x6f,0x6c,0x75,0x6d,0x65,0x69,0x55))
  TeleportPlayer(0,2,303,215,0,0)
  0()



EVENT   12
 PAGE   1
  250(bytes(0x04,0x08,0x6f,0x3a,0x0c,0x52,0x50,0x47,0x3a,0x3a,0x53,0x45,0x08,0x3a,0x0a,0x40,0x6e,0x61,0x6d,0x65,0x49,0x22,0x09,0x4d,0x6f,0x76,0x65,0x06,0x3a,0x06,0x45,0x54,0x3a,0x0b,0x40,0x70,0x69,0x74,0x63,0x68,0x69,0x69,0x3a,0x0c,0x40,0x76,0x6f,0x6c,0x75,0x6d,0x65,0x69,0x55))
  TeleportPlayer(0,2,303,215,0,0)
  0()



EVENT   13
 PAGE   1
  250(bytes(0x04,0x08,0x6f,0x3a,0x0c,0x52,0x50,0x47,0x3a,0x3a,0x53,0x45,0x08,0x3a,0x0a,0x40,0x6e,0x61,0x6d,0x65,0x49,0x22,0x0a,0x43,0x68,0x65,0x73,0x74,0x06,0x3a,0x06,0x45,0x54,0x3a,0x0b,0x40,0x70,0x69,0x74,0x63,0x68,0x69,0x69,0x3a,0x0c,0x40,0x76,0x6f,0x6c,0x75,0x6d,0x65,0x69,0x55))
  205(0,bytes(0x04,0x08,0x6f,0x3a,0x13,0x52,0x50,0x47,0x3a,0x3a,0x4d,0x6f,0x76,0x65,0x52,0x6f,0x75,0x74,0x65,0x09,0x3a,0x0c,0x40,0x72,0x65,0x70,0x65,0x61,0x74,0x46,0x3a,0x0f,0x40,0x73,0x6b,0x69,0x70,0x70,0x61,0x62,0x6c,0x65,0x46,0x3a,0x0a,0x40,0x77,0x61,0x69,0x74,0x54,0x3a,0x0a,0x40,0x6c,0x69,0x73,0x74,0x5b,0x0b,0x6f,0x3a,0x15,0x52,0x50,0x47,0x3a,0x3a,0x4d,0x6f,0x76,0x65,0x43,0x6f,0x6d,0x6d,0x61,0x6e,0x64,0x07,0x3a,0x0a,0x40,0x63,0x6f,0x64,0x65,0x69,0x29,0x3a,0x10,0x40,0x70,0x61,0x72,0x61,0x6d,0x65,0x74,0x65,0x72,0x73,0x5b,0x00,0x6f,0x3b,0x0a,0x07,0x3b,0x0b,0x69,0x16,0x3b,0x0c,0x5b,0x00,0x6f,0x3b,0x0a,0x07,0x3b,0x0b,0x69,0x14,0x3b,0x0c,0x5b,0x06,0x69,0x08,0x6f,0x3b,0x0a,0x07,0x3b,0x0b,0x69,0x17,0x3b,0x0c,0x5b,0x00,0x6f,0x3b,0x0a,0x07,0x3b,0x0b,0x69,0x14,0x3b,0x0c,0x5b,0x06,0x69,0x08,0x6f,0x3b,0x0a,0x07,0x3b,0x0b,0x69,0x00,0x3b,0x0c,0x5b,0x00))
  ChangeSelfSwitch("A",0)
  ChangeInventory_Item(217,0,0,1)
  0()
 PAGE   2
  // condition: self-switch A is ON
  0()



EVENT   14
 PAGE   1
  250(bytes(0x04,0x08,0x6f,0x3a,0x0c,0x52,0x50,0x47,0x3a,0x3a,0x53,0x45,0x08,0x3a,0x0a,0x40,0x6e,0x61,0x6d,0x65,0x49,0x22,0x0a,0x43,0x68,0x65,0x73,0x74,0x06,0x3a,0x06,0x45,0x54,0x3a,0x0b,0x40,0x70,0x69,0x74,0x63,0x68,0x69,0x69,0x3a,0x0c,0x40,0x76,0x6f,0x6c,0x75,0x6d,0x65,0x69,0x55))
  205(0,bytes(0x04,0x08,0x6f,0x3a,0x13,0x52,0x50,0x47,0x3a,0x3a,0x4d,0x6f,0x76,0x65,0x52,0x6f,0x75,0x74,0x65,0x09,0x3a,0x0c,0x40,0x72,0x65,0x70,0x65,0x61,0x74,0x46,0x3a,0x0f,0x40,0x73,0x6b,0x69,0x70,0x70,0x61,0x62,0x6c,0x65,0x46,0x3a,0x0a,0x40,0x77,0x61,0x69,0x74,0x54,0x3a,0x0a,0x40,0x6c,0x69,0x73,0x74,0x5b,0x0b,0x6f,0x3a,0x15,0x52,0x50,0x47,0x3a,0x3a,0x4d,0x6f,0x76,0x65,0x43,0x6f,0x6d,0x6d,0x61,0x6e,0x64,0x07,0x3a,0x0a,0x40,0x63,0x6f,0x64,0x65,0x69,0x29,0x3a,0x10,0x40,0x70,0x61,0x72,0x61,0x6d,0x65,0x74,0x65,0x72,0x73,0x5b,0x00,0x6f,0x3b,0x0a,0x07,0x3b,0x0b,0x69,0x16,0x3b,0x0c,0x5b,0x00,0x6f,0x3b,0x0a,0x07,0x3b,0x0b,0x69,0x14,0x3b,0x0c,0x5b,0x06,0x69,0x08,0x6f,0x3b,0x0a,0x07,0x3b,0x0b,0x69,0x17,0x3b,0x0c,0x5b,0x00,0x6f,0x3b,0x0a,0x07,0x3b,0x0b,0x69,0x14,0x3b,0x0c,0x5b,0x06,0x69,0x08,0x6f,0x3b,0x0a,0x07,0x3b,0x0b,0x69,0x00,0x3b,0x0c,0x5b,0x00))
  ChangeSelfSwitch("A",0)
  ChangeInventory_Item(32,0,0,1)
  0()
 PAGE   2
  // condition: self-switch A is ON
  0()



EVENT   15
 PAGE   1
  If(12,"unlock_level < 2")
   ShowMessageFace("",0,0,2,1)
   ShowMessage("The chest is locked.")
   EndEventProcessing()
   0()
  EndIf()
  250(bytes(0x04,0x08,0x6f,0x3a,0x0c,0x52,0x50,0x47,0x3a,0x3a,0x53,0x45,0x08,0x3a,0x0a,0x40,0x6e,0x61,0x6d,0x65,0x49,0x22,0x0a,0x43,0x68,0x65,0x73,0x74,0x06,0x3a,0x06,0x45,0x54,0x3a,0x0b,0x40,0x70,0x69,0x74,0x63,0x68,0x69,0x69,0x3a,0x0c,0x40,0x76,0x6f,0x6c,0x75,0x6d,0x65,0x69,0x55))
  205(0,bytes(0x04,0x08,0x6f,0x3a,0x13,0x52,0x50,0x47,0x3a,0x3a,0x4d,0x6f,0x76,0x65,0x52,0x6f,0x75,0x74,0x65,0x09,0x3a,0x0c,0x40,0x72,0x65,0x70,0x65,0x61,0x74,0x46,0x3a,0x0f,0x40,0x73,0x6b,0x69,0x70,0x70,0x61,0x62,0x6c,0x65,0x46,0x3a,0x0a,0x40,0x77,0x61,0x69,0x74,0x54,0x3a,0x0a,0x40,0x6c,0x69,0x73,0x74,0x5b,0x0b,0x6f,0x3a,0x15,0x52,0x50,0x47,0x3a,0x3a,0x4d,0x6f,0x76,0x65,0x43,0x6f,0x6d,0x6d,0x61,0x6e,0x64,0x07,0x3a,0x0a,0x40,0x63,0x6f,0x64,0x65,0x69,0x29,0x3a,0x10,0x40,0x70,0x61,0x72,0x61,0x6d,0x65,0x74,0x65,0x72,0x73,0x5b,0x00,0x6f,0x3b,0x0a,0x07,0x3b,0x0b,0x69,0x16,0x3b,0x0c,0x5b,0x00,0x6f,0x3b,0x0a,0x07,0x3b,0x0b,0x69,0x14,0x3b,0x0c,0x5b,0x06,0x69,0x08,0x6f,0x3b,0x0a,0x07,0x3b,0x0b,0x69,0x17,0x3b,0x0c,0x5b,0x00,0x6f,0x3b,0x0a,0x07,0x3b,0x0b,0x69,0x14,0x3b,0x0c,0x5b,0x06,0x69,0x08,0x6f,0x3b,0x0a,0x07,0x3b,0x0b,0x69,0x00,0x3b,0x0c,0x5b,0x00))
  ChangeSelfSwitch("A",0)
  ChangeInventoryArmor(1168,0,0,1)
  0()
 PAGE   2
  // condition: self-switch A is ON
  0()



EVENT   16
 PAGE   1
  250(bytes(0x04,0x08,0x6f,0x3a,0x0c,0x52,0x50,0x47,0x3a,0x3a,0x53,0x45,0x08,0x3a,0x0a,0x40,0x6e,0x61,0x6d,0x65,0x49,0x22,0x0a,0x43,0x68,0x65,0x73,0x74,0x06,0x3a,0x06,0x45,0x54,0x3a,0x0b,0x40,0x70,0x69,0x74,0x63,0x68,0x69,0x69,0x3a,0x0c,0x40,0x76,0x6f,0x6c,0x75,0x6d,0x65,0x69,0x55))
  205(0,bytes(0x04,0x08,0x6f,0x3a,0x13,0x52,0x50,0x47,0x3a,0x3a,0x4d,0x6f,0x76,0x65,0x52,0x6f,0x75,0x74,0x65,0x09,0x3a,0x0c,0x40,0x72,0x65,0x70,0x65,0x61,0x74,0x46,0x3a,0x0f,0x40,0x73,0x6b,0x69,0x70,0x70,0x61,0x62,0x6c,0x65,0x46,0x3a,0x0a,0x40,0x77,0x61,0x69,0x74,0x54,0x3a,0x0a,0x40,0x6c,0x69,0x73,0x74,0x5b,0x0b,0x6f,0x3a,0x15,0x52,0x50,0x47,0x3a,0x3a,0x4d,0x6f,0x76,0x65,0x43,0x6f,0x6d,0x6d,0x61,0x6e,0x64,0x07,0x3a,0x0a,0x40,0x63,0x6f,0x64,0x65,0x69,0x29,0x3a,0x10,0x40,0x70,0x61,0x72,0x61,0x6d,0x65,0x74,0x65,0x72,0x73,0x5b,0x00,0x6f,0x3b,0x0a,0x07,0x3b,0x0b,0x69,0x16,0x3b,0x0c,0x5b,0x00,0x6f,0x3b,0x0a,0x07,0x3b,0x0b,0x69,0x14,0x3b,0x0c,0x5b,0x06,0x69,0x08,0x6f,0x3b,0x0a,0x07,0x3b,0x0b,0x69,0x17,0x3b,0x0c,0x5b,0x00,0x6f,0x3b,0x0a,0x07,0x3b,0x0b,0x69,0x14,0x3b,0x0c,0x5b,0x06,0x69,0x08,0x6f,0x3b,0x0a,0x07,0x3b,0x0b,0x69,0x00,0x3b,0x0c,0x5b,0x00))
  ChangeSelfSwitch("A",0)
  ChangeInventory_Item(27,0,0,1)
  0()
 PAGE   2
  // condition: self-switch A is ON
  0()



EVENT   17
 PAGE   1
  250(bytes(0x04,0x08,0x6f,0x3a,0x0c,0x52,0x50,0x47,0x3a,0x3a,0x53,0x45,0x08,0x3a,0x0a,0x40,0x6e,0x61,0x6d,0x65,0x49,0x22,0x0a,0x43,0x68,0x65,0x73,0x74,0x06,0x3a,0x06,0x45,0x54,0x3a,0x0b,0x40,0x70,0x69,0x74,0x63,0x68,0x69,0x69,0x3a,0x0c,0x40,0x76,0x6f,0x6c,0x75,0x6d,0x65,0x69,0x55))
  205(0,bytes(0x04,0x08,0x6f,0x3a,0x13,0x52,0x50,0x47,0x3a,0x3a,0x4d,0x6f,0x76,0x65,0x52,0x6f,0x75,0x74,0x65,0x09,0x3a,0x0c,0x40,0x72,0x65,0x70,0x65,0x61,0x74,0x46,0x3a,0x0f,0x40,0x73,0x6b,0x69,0x70,0x70,0x61,0x62,0x6c,0x65,0x46,0x3a,0x0a,0x40,0x77,0x61,0x69,0x74,0x54,0x3a,0x0a,0x40,0x6c,0x69,0x73,0x74,0x5b,0x0b,0x6f,0x3a,0x15,0x52,0x50,0x47,0x3a,0x3a,0x4d,0x6f,0x76,0x65,0x43,0x6f,0x6d,0x6d,0x61,0x6e,0x64,0x07,0x3a,0x0a,0x40,0x63,0x6f,0x64,0x65,0x69,0x29,0x3a,0x10,0x40,0x70,0x61,0x72,0x61,0x6d,0x65,0x74,0x65,0x72,0x73,0x5b,0x00,0x6f,0x3b,0x0a,0x07,0x3b,0x0b,0x69,0x16,0x3b,0x0c,0x5b,0x00,0x6f,0x3b,0x0a,0x07,0x3b,0x0b,0x69,0x14,0x3b,0x0c,0x5b,0x06,0x69,0x08,0x6f,0x3b,0x0a,0x07,0x3b,0x0b,0x69,0x17,0x3b,0x0c,0x5b,0x00,0x6f,0x3b,0x0a,0x07,0x3b,0x0b,0x69,0x14,0x3b,0x0c,0x5b,0x06,0x69,0x08,0x6f,0x3b,0x0a,0x07,0x3b,0x0b,0x69,0x00,0x3b,0x0c,0x5b,0x00))
  ChangeSelfSwitch("A",0)
  ChangeInventory_Item(76,0,0,1)
  0()
 PAGE   2
  // condition: self-switch A is ON
  0()



EVENT   18
 PAGE   1
  If(12,"unlock_level < 1")
   ShowMessageFace("",0,0,2,1)
   ShowMessage("The chest is locked.")
   EndEventProcessing()
   0()
  EndIf()
  250(bytes(0x04,0x08,0x6f,0x3a,0x0c,0x52,0x50,0x47,0x3a,0x3a,0x53,0x45,0x08,0x3a,0x0a,0x40,0x6e,0x61,0x6d,0x65,0x49,0x22,0x0a,0x43,0x68,0x65,0x73,0x74,0x06,0x3a,0x06,0x45,0x54,0x3a,0x0b,0x40,0x70,0x69,0x74,0x63,0x68,0x69,0x69,0x3a,0x0c,0x40,0x76,0x6f,0x6c,0x75,0x6d,0x65,0x69,0x55))
  205(0,bytes(0x04,0x08,0x6f,0x3a,0x13,0x52,0x50,0x47,0x3a,0x3a,0x4d,0x6f,0x76,0x65,0x52,0x6f,0x75,0x74,0x65,0x09,0x3a,0x0c,0x40,0x72,0x65,0x70,0x65,0x61,0x74,0x46,0x3a,0x0f,0x40,0x73,0x6b,0x69,0x70,0x70,0x61,0x62,0x6c,0x65,0x46,0x3a,0x0a,0x40,0x77,0x61,0x69,0x74,0x54,0x3a,0x0a,0x40,0x6c,0x69,0x73,0x74,0x5b,0x0b,0x6f,0x3a,0x15,0x52,0x50,0x47,0x3a,0x3a,0x4d,0x6f,0x76,0x65,0x43,0x6f,0x6d,0x6d,0x61,0x6e,0x64,0x07,0x3a,0x0a,0x40,0x63,0x6f,0x64,0x65,0x69,0x29,0x3a,0x10,0x40,0x70,0x61,0x72,0x61,0x6d,0x65,0x74,0x65,0x72,0x73,0x5b,0x00,0x6f,0x3b,0x0a,0x07,0x3b,0x0b,0x69,0x16,0x3b,0x0c,0x5b,0x00,0x6f,0x3b,0x0a,0x07,0x3b,0x0b,0x69,0x14,0x3b,0x0c,0x5b,0x06,0x69,0x08,0x6f,0x3b,0x0a,0x07,0x3b,0x0b,0x69,0x17,0x3b,0x0c,0x5b,0x00,0x6f,0x3b,0x0a,0x07,0x3b,0x0b,0x69,0x14,0x3b,0x0c,0x5b,0x06,0x69,0x08,0x6f,0x3b,0x0a,0x07,0x3b,0x0b,0x69,0x00,0x3b,0x0c,0x5b,0x00))
  ChangeSelfSwitch("A",0)
  ChangeInventoryWeapon(924,0,0,1)
  0()
 PAGE   2
  // condition: self-switch A is ON
  0()



EVENT   19
 PAGE   1
  250(bytes(0x04,0x08,0x6f,0x3a,0x0c,0x52,0x50,0x47,0x3a,0x3a,0x53,0x45,0x08,0x3a,0x0a,0x40,0x6e,0x61,0x6d,0x65,0x49,0x22,0x0a,0x43,0x68,0x65,0x73,0x74,0x06,0x3a,0x06,0x45,0x54,0x3a,0x0b,0x40,0x70,0x69,0x74,0x63,0x68,0x69,0x69,0x3a,0x0c,0x40,0x76,0x6f,0x6c,0x75,0x6d,0x65,0x69,0x55))
  205(0,bytes(0x04,0x08,0x6f,0x3a,0x13,0x52,0x50,0x47,0x3a,0x3a,0x4d,0x6f,0x76,0x65,0x52,0x6f,0x75,0x74,0x65,0x09,0x3a,0x0c,0x40,0x72,0x65,0x70,0x65,0x61,0x74,0x46,0x3a,0x0f,0x40,0x73,0x6b,0x69,0x70,0x70,0x61,0x62,0x6c,0x65,0x46,0x3a,0x0a,0x40,0x77,0x61,0x69,0x74,0x54,0x3a,0x0a,0x40,0x6c,0x69,0x73,0x74,0x5b,0x0b,0x6f,0x3a,0x15,0x52,0x50,0x47,0x3a,0x3a,0x4d,0x6f,0x76,0x65,0x43,0x6f,0x6d,0x6d,0x61,0x6e,0x64,0x07,0x3a,0x0a,0x40,0x63,0x6f,0x64,0x65,0x69,0x29,0x3a,0x10,0x40,0x70,0x61,0x72,0x61,0x6d,0x65,0x74,0x65,0x72,0x73,0x5b,0x00,0x6f,0x3b,0x0a,0x07,0x3b,0x0b,0x69,0x16,0x3b,0x0c,0x5b,0x00,0x6f,0x3b,0x0a,0x07,0x3b,0x0b,0x69,0x14,0x3b,0x0c,0x5b,0x06,0x69,0x08,0x6f,0x3b,0x0a,0x07,0x3b,0x0b,0x69,0x17,0x3b,0x0c,0x5b,0x00,0x6f,0x3b,0x0a,0x07,0x3b,0x0b,0x69,0x14,0x3b,0x0c,0x5b,0x06,0x69,0x08,0x6f,0x3b,0x0a,0x07,0x3b,0x0b,0x69,0x00,0x3b,0x0c,0x5b,0x00))
  ChangeSelfSwitch("A",0)
  ChangeInventory_Item(3,0,0,1)
  0()
 PAGE   2
  // condition: self-switch A is ON
  0()



EVENT   20
 PAGE   1
  250(bytes(0x04,0x08,0x6f,0x3a,0x0c,0x52,0x50,0x47,0x3a,0x3a,0x53,0x45,0x08,0x3a,0x0a,0x40,0x6e,0x61,0x6d,0x65,0x49,0x22,0x0a,0x43,0x68,0x65,0x73,0x74,0x06,0x3a,0x06,0x45,0x54,0x3a,0x0b,0x40,0x70,0x69,0x74,0x63,0x68,0x69,0x69,0x3a,0x0c,0x40,0x76,0x6f,0x6c,0x75,0x6d,0x65,0x69,0x55))
  205(0,bytes(0x04,0x08,0x6f,0x3a,0x13,0x52,0x50,0x47,0x3a,0x3a,0x4d,0x6f,0x76,0x65,0x52,0x6f,0x75,0x74,0x65,0x09,0x3a,0x0c,0x40,0x72,0x65,0x70,0x65,0x61,0x74,0x46,0x3a,0x0f,0x40,0x73,0x6b,0x69,0x70,0x70,0x61,0x62,0x6c,0x65,0x46,0x3a,0x0a,0x40,0x77,0x61,0x69,0x74,0x54,0x3a,0x0a,0x40,0x6c,0x69,0x73,0x74,0x5b,0x0b,0x6f,0x3a,0x15,0x52,0x50,0x47,0x3a,0x3a,0x4d,0x6f,0x76,0x65,0x43,0x6f,0x6d,0x6d,0x61,0x6e,0x64,0x07,0x3a,0x0a,0x40,0x63,0x6f,0x64,0x65,0x69,0x29,0x3a,0x10,0x40,0x70,0x61,0x72,0x61,0x6d,0x65,0x74,0x65,0x72,0x73,0x5b,0x00,0x6f,0x3b,0x0a,0x07,0x3b,0x0b,0x69,0x16,0x3b,0x0c,0x5b,0x00,0x6f,0x3b,0x0a,0x07,0x3b,0x0b,0x69,0x14,0x3b,0x0c,0x5b,0x06,0x69,0x08,0x6f,0x3b,0x0a,0x07,0x3b,0x0b,0x69,0x17,0x3b,0x0c,0x5b,0x00,0x6f,0x3b,0x0a,0x07,0x3b,0x0b,0x69,0x14,0x3b,0x0c,0x5b,0x06,0x69,0x08,0x6f,0x3b,0x0a,0x07,0x3b,0x0b,0x69,0x00,0x3b,0x0c,0x5b,0x00))
  ChangeSelfSwitch("A",0)
  ChangeInventoryWeapon(526,0,0,1)
  0()
 PAGE   2
  // condition: self-switch A is ON
  0()



EVENT   21
 PAGE   1
  250(bytes(0x04,0x08,0x6f,0x3a,0x0c,0x52,0x50,0x47,0x3a,0x3a,0x53,0x45,0x08,0x3a,0x0a,0x40,0x6e,0x61,0x6d,0x65,0x49,0x22,0x0a,0x43,0x68,0x65,0x73,0x74,0x06,0x3a,0x06,0x45,0x54,0x3a,0x0b,0x40,0x70,0x69,0x74,0x63,0x68,0x69,0x69,0x3a,0x0c,0x40,0x76,0x6f,0x6c,0x75,0x6d,0x65,0x69,0x55))
  205(0,bytes(0x04,0x08,0x6f,0x3a,0x13,0x52,0x50,0x47,0x3a,0x3a,0x4d,0x6f,0x76,0x65,0x52,0x6f,0x75,0x74,0x65,0x09,0x3a,0x0c,0x40,0x72,0x65,0x70,0x65,0x61,0x74,0x46,0x3a,0x0f,0x40,0x73,0x6b,0x69,0x70,0x70,0x61,0x62,0x6c,0x65,0x46,0x3a,0x0a,0x40,0x77,0x61,0x69,0x74,0x54,0x3a,0x0a,0x40,0x6c,0x69,0x73,0x74,0x5b,0x0b,0x6f,0x3a,0x15,0x52,0x50,0x47,0x3a,0x3a,0x4d,0x6f,0x76,0x65,0x43,0x6f,0x6d,0x6d,0x61,0x6e,0x64,0x07,0x3a,0x0a,0x40,0x63,0x6f,0x64,0x65,0x69,0x29,0x3a,0x10,0x40,0x70,0x61,0x72,0x61,0x6d,0x65,0x74,0x65,0x72,0x73,0x5b,0x00,0x6f,0x3b,0x0a,0x07,0x3b,0x0b,0x69,0x16,0x3b,0x0c,0x5b,0x00,0x6f,0x3b,0x0a,0x07,0x3b,0x0b,0x69,0x14,0x3b,0x0c,0x5b,0x06,0x69,0x08,0x6f,0x3b,0x0a,0x07,0x3b,0x0b,0x69,0x17,0x3b,0x0c,0x5b,0x00,0x6f,0x3b,0x0a,0x07,0x3b,0x0b,0x69,0x14,0x3b,0x0c,0x5b,0x06,0x69,0x08,0x6f,0x3b,0x0a,0x07,0x3b,0x0b,0x69,0x00,0x3b,0x0c,0x5b,0x00))
  ChangeSelfSwitch("A",0)
  ChangeInventory_Item(214,0,0,1)
  0()
 PAGE   2
  // condition: self-switch A is ON
  0()



EVENT   22
 PAGE   1
  ShowMessageFace("suzumebati_fc1",0,0,2,1)
  ShowMessage("【スズメバチ娘】")
  ShowMessage("コレ以上、進マセナイ……")
  0()
 PAGE   2
  // condition: variable 1056 >= 2
  0()



EVENT   23
 PAGE   1
  0()
 PAGE   2
  // condition: variable 1056 >= 2
  0()



EVENT   24
 PAGE   1
  0()
 PAGE   2
  // condition: variable 1056 >= 2
  0()



EVENT   25
 PAGE   1
  ShowMessageFace("a_alm_fc1",0,0,2,1)
  ShowMessage("【アルラ・アルム】")
  ShowMessage("意地でも押し通ります……")
  RunCommonEvent(335)
  0()
 PAGE   2
  // condition: variable 1056 >= 2
  0()



EVENT   26
 PAGE   1
  ShowMessageFace("a_looty_fc1",0,0,2,1)
  ShowMessage("【アルラ・ルーティ】")
  ShowMessage("……なんだ、お前達？")
  ShowMessage("関係ない奴は、引っ込んでろよ。")
  RunCommonEvent(335)
  0()
 PAGE   2
  // condition: variable 1056 >= 2
  0()



EVENT   27
 PAGE   1
  ShowMessageFace("a_prison_fc1",2,0,2,1)
  ShowMessage("【アルラ・プリズン】")
  ShowMessage("さすが、守りは堅いわね……！")
  RunCommonEvent(335)
  0()
 PAGE   2
  // condition: variable 1056 >= 2
  0()



EVENT   28
 PAGE   1
  0()
 PAGE   2
  // condition: variable 1056 >= 2
  0()



EVENT   29
 PAGE   1
  0()
 PAGE   2
  // condition: variable 1056 >= 2
  0()



EVENT   30
 PAGE   1
  0()
 PAGE   2
  // condition: variable 1056 >= 2
  0()



EVENT   31
 PAGE   1
  0()
 PAGE   2
  // condition: variable 1056 >= 2
  0()



EVENT   32
 PAGE   1
  0()
 PAGE   2
  // condition: variable 1056 >= 2
  0()



EVENT   33
 PAGE   1
  0()
 PAGE   2
  // condition: variable 1056 >= 2
  0()



EVENT   34
 PAGE   1
  If(1,1056,0,2,0)
   PictureDisplay(5,"80_queenbee_st01",0,0,0,0,100,100,0,0)
   PictureMove(5,null,0,0,0,0,100,100,255,0,30,true)
   ShowMessageFace("queenbee_fc1",0,0,2,1)
   ShowMessage("【クィーンビー】")
   ShowMessage("妾は、昆虫族の主であるクィーンビー。")
   ShowMessage("お前達は、ここに何をしに来たのだ……？")
   ShowChoices(strings("お前を倒しに来た","昆虫族を助けに来た","話を聞きに来た"),0)
   IfPlayerPicksChoice(0,null)
    DefineLabel("戦い")
    ShowMessageFace("",0,0,2,2)
    ShowMessage("ここで戦いを挑むと、昆虫族との和解は不可能になるだろう……")
    ShowMessage("本当にそれでいいだろうか？")
    ShowChoices(strings("それでも戦う","考え直す"),2)
    IfPlayerPicksChoice(0,null)
     241(bytes(0x04,0x08,0x6f,0x3a,0x0d,0x52,0x50,0x47,0x3a,0x3a,0x42,0x47,0x4d,0x08,0x3a,0x0a,0x40,0x6e,0x61,0x6d,0x65,0x49,0x22,0x0a,0x62,0x6f,0x73,0x73,0x30,0x06,0x3a,0x06,0x45,0x54,0x3a,0x0c,0x40,0x76,0x6f,0x6c,0x75,0x6d,0x65,0x69,0x69,0x3a,0x0b,0x40,0x70,0x69,0x74,0x63,0x68,0x69,0x69))
     ShowMessageFace("ruka_fc1",0,0,2,3)
     ShowMessage("【ルカ】")
     ShowMessage("植物族のために、お前を倒しに来た！")
     If(4,163,0)
      ShowMessageFace("lily_fc1",3,0,2,4)
      ShowMessage("【リリィ】")
      ShowMessage("さあ、覚悟するのね……！")
      0()
     EndIf()
     ShowMessageFace("queenbee_fc1",0,0,2,5)
     ShowMessage("【クィーンビー】")
     ShowMessage("ほう……プリエステスめ、人間の勇者にまで助力を頼んだか。")
     ShowMessage("自身の手駒のみでは、頼りなかったと見える。")
     If(4,245,0)
      ShowMessageFace("queenbee_fc1",0,0,2,6)
      ShowMessage("【蜜璃亜】")
      ShowMessage("つまらぬ争いはやめよ。")
      ShowMessage("しょせんは他者に煽られたもの、本意ではなかろう……？")
      ShowMessageFace("queenbee_fc1",2,0,2,7)
      ShowMessage("【クィーンビー】")
      ShowMessage("これは、植物族の精神操作か……？")
      ShowMessage("このようなもの、妾には通じんぞ！")
      0()
     EndIf()
     ShowMessageFace("queenbee_fc1",0,0,2,8)
     ShowMessage("【クィーンビー】")
     ShowMessage("それでは見せてやろう、蜂の女王たる妾の力を！")
     ShowMessage("さあ、蜜にまみれて果てるがいい！")
     If(4,125,0)
      ShowMessageFace("grizzly_fc1",0,0,2,9)
      ShowMessage("【アイシャ】")
      ShowMessage("クマー！　蜜はもらったぞー！")
      0()
     EndIf()
     PictureClear(5)
     SetBattleBGM(bytes(0x04,0x08,0x6f,0x3a,0x0d,0x52,0x50,0x47,0x3a,0x3a,0x42,0x47,0x4d,0x08,0x3a,0x0a,0x40,0x6e,0x61,0x6d,0x65,0x49,0x22,0x0a,0x62,0x6f,0x73,0x73,0x31,0x06,0x3a,0x06,0x45,0x54,0x3a,0x0c,0x40,0x76,0x6f,0x6c,0x75,0x6d,0x65,0x69,0x69,0x3a,0x0b,0x40,0x70,0x69,0x74,0x63,0x68,0x69,0x69))
     ChangeSwitch(22,22,0)
     Battle(0,669,false,false)
     ChangeSwitch(22,22,1)
     SetBattleBGM(bytes(0x04,0x08,0x6f,0x3a,0x0d,0x52,0x50,0x47,0x3a,0x3a,0x42,0x47,0x4d,0x08,0x3a,0x0a,0x40,0x6e,0x61,0x6d,0x65,0x49,0x22,0x0b,0x62,0x61,0x74,0x74,0x6c,0x65,0x06,0x3a,0x06,0x45,0x54,0x3a,0x0c,0x40,0x76,0x6f,0x6c,0x75,0x6d,0x65,0x69,0x69,0x3a,0x0b,0x40,0x70,0x69,0x74,0x63,0x68,0x69,0x69))
     ChangeSwitch(1903,1903,0)
     314(0,0)
     PictureDisplay(5,"80_queenbee_st03",0,0,0,0,100,100,0,0)
     PictureMove(5,null,0,0,0,0,100,100,255,0,30,true)
     ShowMessageFace("queenbee_fc1",2,0,2,10)
     ShowMessage("【クィーンビー】")
     ShowMessage("まさか、妾を打ち破るとは……")
     ShowMessage("この戦、昆虫族の負けか……")
     If(4,203,0)
      ShowMessageFace("tatunoko_k_fc1",1,0,2,11)
      ShowMessage("【たつこ】")
      ShowMessage("あたし達の勝利なのです！")
      ShowMessage("また戦功を重ねてしまったのです！")
      0()
     EndIf()
     ShowMessageFace("queenbee_fc1",2,0,2,12)
     ShowMessage("【クィーンビー】")
     ShowMessage("妾の身は、どうなっても構わん。")
     ShowMessage("だが、働き蜂達は助けてやってくれんか……？")
     If(0,4,0)
      ShowMessageFace("alice_fc5",0,0,2,13)
      ShowMessage("【アリス】")
      ShowMessage("敗者に危害を加える気など、元よりない。")
      ShowMessage("我々は、この無益な戦争を終わらせたかっただけだ。")
      0()
     EndIf()
     If(0,5,0)
      ShowMessageFace("iriasu_fc4",1,0,2,14)
      ShowMessage("【イリアス】")
      ShowMessage("ふふふ……地に這いつくばり、許しを乞うのです。")
      ShowMessage("その態度が無様であればあるほど、助かるハチの数が増えますよ。")
      ShowMessageFace("queenbee_fc1",2,0,2,15)
      ShowMessage("【クィーンビー】")
      ShowMessage("娘達のためなら、どれほどの恥辱も受け入れよう……")
      If(0,6,0)
       ShowMessageFace("sonia_fc2",2,0,2,16)
       ShowMessage("【ソニア】")
       ShowMessage("ちょっと、真に受けないでよ。")
       ShowMessage("ほら、イリアス様もワガママ言わないの。")
       ShowMessageFace("iriasu_fc5",0,0,2,17)
       ShowMessage("【イリアス】")
       ShowMessage("私を子供扱いしないように！")
       0()
      EndIf()
      0()
     EndIf()
     PictureClear(5)
     ShowMessageFace("ruka_fc1",0,0,2,18)
     ShowMessage("【ルカ】")
     ShowMessage("それじゃあ、プランセクト村に戻ろう。")
     ShowMessage("昆虫族にひどい処遇をしないよう、プリエステスに頼まないとね。")
     ShowMessageFace("",0,0,2,19)
     ShowMessage("こうして、戦いは植物族の勝利に終わった。")
     ShowMessage("功労者である僕達は、プランセクト村に戻ったのである――")
     TeleportPlayer(0,132,35,36,8,0)
     241(bytes(0x04,0x08,0x6f,0x3a,0x0d,0x52,0x50,0x47,0x3a,0x3a,0x42,0x47,0x4d,0x08,0x3a,0x0a,0x40,0x6e,0x61,0x6d,0x65,0x49,0x22,0x14,0x73,0x63,0x65,0x6e,0x65,0x5f,0x65,0x70,0x69,0x6c,0x6f,0x67,0x75,0x65,0x32,0x06,0x3a,0x06,0x45,0x54,0x3a,0x0c,0x40,0x76,0x6f,0x6c,0x75,0x6d,0x65,0x69,0x69,0x3a,0x0b,0x40,0x70,0x69,0x74,0x63,0x68,0x69,0x69))
     355("gain_medal(39)")
     PictureDisplay(5,"80_a_emp_st02",0,0,0,0,100,100,0,0)
     PictureMove(5,null,0,0,0,0,100,100,255,0,30,true)
     ShowMessageFace("a_emp_fc1",1,0,2,20)
     ShowMessage("【アルラ・プリエステス】")
     ShowMessage("あなたの働きにより、我々は勝利しました。")
     ShowMessage("植物族の代表として、心より礼を言わせて頂きます。")
     If(0,4,0)
      ShowMessageFace("alice_fc5",0,0,2,21)
      ShowMessage("【アリス】")
      ShowMessage("昆虫族に対して、あまり残酷な処遇はするなよ……")
      ShowMessage("事によっては、我々が相手になるぞ。")
      0()
     EndIf()
     If(0,5,0)
      ShowMessageFace("iriasu_fc4",0,0,2,22)
      ShowMessage("【イリアス】")
      ShowMessage("ところで、敗れた昆虫族の処遇はどうなるのです？")
      ShowMessage("拷問や処刑なら、私が手伝っても良いですよ。")
      0()
     EndIf()
     ShowMessageFace("a_emp_fc1",1,0,2,23)
     ShowMessage("【アルラ・プリエステス】")
     ShowMessage("クィーンビーも含め、誰を罰するつもりもありません。")
     ShowMessage("いらぬ禍根は、また騒乱の火種になりかねませんから……")
     ShowMessageFace("a_emp_fc1",1,0,2,24)
     ShowMessage("【アルラ・プリエステス】")
     ShowMessage("なお昆虫族は、今のままレド山に住んでもらう事になりました。")
     ShowMessage("この森ほどではありませんが、決して悪い環境ではありませんよ。")
     If(4,529,0)
      ShowMessageFace("sara_fc1",1,0,2,25)
      ShowMessage("【サラ】")
      ShowMessage("いちおう、和平が成立したと見るべきね。")
      0()
     EndIf()
     If(0,4,0)
      ShowMessageFace("alice_fc5",2,0,2,26)
      ShowMessage("【アリス】")
      ShowMessage("そう言えば、テスカトリポカはどうなったのだ？")
      ShowMessage("昆虫族を率いていたというケツァルコァトルも姿を見なかったが……")
      0()
     EndIf()
     If(0,5,0)
      ShowMessageFace("iriasu_fc4",5,0,2,27)
      ShowMessage("【イリアス】")
      ShowMessage("そう言えば、テスカトリポカの事をすっかり忘れていませんか！？")
      ShowMessage("昆虫族を率いるケツァルコァトルも見ないままですが……")
      0()
     EndIf()
     ShowMessageFace("a_emp_fc1",0,0,2,28)
     ShowMessage("【アルラ・プリエステス】")
     ShowMessage("部下の報告によると……")
     ShowMessage("はるか西方の平原で、殴り合っている両者の姿が目撃されました。")
     ShowMessageFace("a_emp_fc1",0,0,2,29)
     ShowMessage("【アルラ・プリエステス】")
     ShowMessage("もはや、我々の事をすっかり忘れているのでしょう。")
     ShowMessage("いったい、何だったのやら……")
     ShowMessageFace("ruka_fc1",0,0,2,30)
     ShowMessage("【ルカ】")
     ShowMessage("うん……まあ、一件落着かな。")
     If(0,4,0)
      ShowMessageFace("alice_fc5",0,0,2,31)
      ShowMessage("【アリス】")
      ShowMessage("バカ二匹は、黒のアリスの命令で村を支配しに来たと言ったな。")
      ShowMessage("また黒のアリスが接触してきたら、我々に連絡してくれ。")
      0()
     EndIf()
     If(0,5,0)
      ShowMessageFace("iriasu_fc4",2,0,2,32)
      ShowMessage("【イリアス】")
      ShowMessage("馬鹿二匹は、黒のアリスに差し向けられたという話でしたね……")
      ShowMessage("また黒のアリスが接触してきたら、必ず我々に連絡を取るように。")
      0()
     EndIf()
     ShowMessageFace("a_emp_fc1",1,0,2,33)
     ShowMessage("【アルラ・プリエステス】")
     ShowMessage("その際は植物族と昆虫族で結束し、無法な支配に抵抗しましょう。")
     ShowMessage("あなた達の力も、再び借りる事になるかもしれませんね……")
     ShowMessageFace("a_emp_fc1",1,0,2,34)
     ShowMessage("【アルラ・プリエステス】")
     ShowMessage("ともかく、あなた方の助力に心から感謝致します。")
     ShowMessage("我々に出来る事があれば、何でもおっしゃって下さいね。")
     PictureClear(5)
     ShowMessageFace("",0,0,2,35)
     ShowMessage("こうして、プランセクト村の争いは幕を閉じた。")
     ShowMessage("さあ、冒険の旅を続けよう――")
     ChangeVariable(1061,1061,0,0,1)
     EndEventProcessing()
     0()
    IfPlayerPicksChoice(1,null)
     ShowMessageFace("ruka_fc1",0,0,2,36)
     ShowMessage("【ルカ】")
     ShowMessage("……ちょっと待っててね。")
     ShowMessageFace("queenbee_fc1",2,0,2,37)
     ShowMessage("【クィーンビー】")
     ShowMessage("突然現れ、何を言っているのか……")
     ShowMessage("ともかく失せよ、今はお前達に構っているヒマなどない。")
     PictureClear(5)
     EndEventProcessing()
     0()
    404()
    0()
   IfPlayerPicksChoice(1,null)
    ChangeVariable(1056,1056,0,0,3)
    ShowMessageFace("ruka_fc1",0,0,2,38)
    ShowMessage("【ルカ】")
    ShowMessage("僕達は、昆虫族に味方しに来たんだ。")
    DefineLabel("味方")
    PictureDisplay(5,"80_queenbee_st02",0,0,0,0,100,100,255,0)
    ShowMessageFace("queenbee_fc1",1,0,2,39)
    ShowMessage("【クィーンビー】")
    ShowMessage("人間の勇者が手を貸すとな……？")
    ShowMessage("この苦境では、受け入れるより他にあるまい。")
    ShowMessageFace("queenbee_fc1",1,0,2,40)
    ShowMessage("【クィーンビー】")
    ShowMessage("それでは、プリエステスの討伐を頼めるだろうか。")
    ShowMessage("奴を討てば、形勢は一気に逆転するに違いない……")
    ShowMessageFace("queenbee_fc1",1,0,2,41)
    ShowMessage("【クィーンビー】")
    ShowMessage("プリエステスは、知っての通りプランセクトの森にいる。")
    ShowMessage("人間の勇者よ、期待しているぞ……")
    If(0,4,0)
     ShowMessageFace("alice_fc5",3,0,2,42)
     ShowMessage("【アリス】")
     ShowMessage("昆虫族に手を貸す事にしたのか……")
     ShowMessage("まあ、余は何も言うまい。")
     0()
    EndIf()
    If(0,5,0)
     ShowMessageFace("iriasu_fc4",0,0,2,43)
     ShowMessage("【イリアス】")
     ShowMessage("植物族を先に滅ぼす事にしたのですか？")
     ShowMessage("その後は、もちろん……分かっていますよね。")
     0()
    EndIf()
    PictureClear(5)
    EndEventProcessing()
    0()
   IfPlayerPicksChoice(2,null)
    ChangeVariable(1056,1056,0,0,3)
    ShowMessageFace("ruka_fc1",0,0,2,44)
    ShowMessage("【ルカ】")
    ShowMessage("僕達は、そっちの話を聞きに来たんだ。")
    PictureDisplay(5,"80_queenbee_st03",0,0,0,0,100,100,255,0)
    ShowMessageFace("queenbee_fc1",2,0,2,45)
    ShowMessage("【クィーンビー】")
    ShowMessage("話だと？　そんな暇など……")
    PictureDisplay(5,"80_queenbee_st01",0,0,0,0,100,100,255,0)
    ShowMessageFace("queenbee_fc1",0,0,2,46)
    ShowMessage("【クィーンビー】")
    ShowMessage("……いや、そう言うならば聞いてもらおうか。")
    ShowMessageFace("queenbee_fc1",0,0,2,47)
    ShowMessage("【クィーンビー】")
    ShowMessage("本音を言えば、我々は戦いに疲れ果てていたのだ……")
    ShowMessage("アリス17世による強引な停戦は、勿怪の幸いでもあった。")
    ShowMessageFace("queenbee_fc1",0,0,2,48)
    ShowMessage("【クィーンビー】")
    ShowMessage("しかし、黒のアリスの使い二人の対立で争いが再燃……")
    ShowMessage("昆虫族は森を追われ、この山に追い込まれてしまったのだ。")
    ShowMessageFace("queenbee_fc1",0,0,2,49)
    ShowMessage("【クィーンビー】")
    ShowMessage("だが……いざ来てみれば、この山は意外と住み心地が良い。")
    ShowMessage("ここに腰を落ち着けるのも悪くはない……そうも思うのだ。")
    If(0,6,0)
     ShowMessageFace("sonia_fc1",0,0,2,50)
     ShowMessage("【ソニア】")
     ShowMessage("なら、それで問題解決じゃないの？")
     0()
    Else()
     ShowMessageFace("ruka_fc1",0,0,2,51)
     ShowMessage("【ルカ】")
     ShowMessage("じゃあ、それで問題解決なんじゃ……")
     0()
    EndIf()
    PictureDisplay(5,"80_queenbee_st03",0,0,0,0,100,100,255,0)
    ShowMessageFace("queenbee_fc1",2,0,2,52)
    ShowMessage("【クィーンビー】")
    ShowMessage("しかし、植物族にしてみればそうは行かんようだ。")
    ShowMessage("連中は、我々を滅ぼさねば気が済まんらしい。")
    ShowMessageFace("queenbee_fc1",2,0,2,53)
    ShowMessage("【クィーンビー】")
    ShowMessage("奴等は、我らがこの地に安寧を得る事さえ許さず……")
    ShowMessage("我々が滅ばぬ限り、戦いをやめないハラだと見える。")
    If(0,4,0)
     ShowMessageFace("alice_fc5",0,0,2,54)
     ShowMessage("【アリス】")
     ShowMessage("なるほど……なら植物族が手を引くならば、")
     ShowMessage("昆虫族はこの山に住んでも良いという事か？")
     0()
    EndIf()
    If(0,5,0)
     ShowMessageFace("iriasu_fc4",2,0,2,55)
     ShowMessage("【イリアス】")
     ShowMessage("植物族が手を引けば、昆虫族はこの山に引っ込む……")
     ShowMessage("……そう言いたいのですか？")
     0()
    EndIf()
    PictureDisplay(5,"80_queenbee_st01",0,0,0,0,100,100,255,0)
    ShowMessageFace("queenbee_fc1",0,0,2,56)
    ShowMessage("【クィーンビー】")
    ShowMessage("今後永遠に、植物族は我らの生存を脅かさない……")
    ShowMessage("そう確約するならば、この地に昆虫族の拠点を移しても構わぬ。")
    PictureDisplay(5,"80_queenbee_st03",0,0,0,0,100,100,255,0)
    ShowMessageFace("queenbee_fc1",2,0,2,57)
    ShowMessage("【クィーンビー】")
    ShowMessage("とは言え、目下に迫るは植物族の軍勢。")
    ShowMessage("もはや和平を説いてる局面でもなかろう……")
    ShowMessageFace("ruka_fc1",0,0,2,58)
    ShowMessage("【ルカ】")
    ShowMessage("……………………")
    ShowMessageFace("",0,0,2,59)
    ShowMessage("昆虫族のリーダー、クィーンビーの話を聞いた。")
    ShowMessage("さて、どうするべきだろうか……")
    ShowChoices(strings("クィーンビーと戦う","昆虫族に味方する","植物族と話し合いに行く"),0)
    IfPlayerPicksChoice(0,null)
     JumpToLabel("戦い")
     0()
    IfPlayerPicksChoice(1,null)
     JumpToLabel("味方")
     0()
    IfPlayerPicksChoice(2,null)
     ShowMessageFace("ruka_fc1",0,0,2,60)
     ShowMessage("【ルカ】")
     ShowMessage("……分かった、僕がプリエステスに話してくるよ。")
     If(4,529,0)
      ShowMessageFace("sara_fc1",1,0,2,61)
      ShowMessage("【サラ】")
      ShowMessage("妥協点が見い出せそうね。")
      ShowMessage("ここは、私達が仲介を果たしてみせるわ。")
      0()
     EndIf()
     PictureDisplay(5,"80_queenbee_st01",0,0,0,0,100,100,255,0)
     ShowMessageFace("queenbee_fc1",0,0,2,62)
     ShowMessage("【クィーンビー】")
     ShowMessage("お前達が、和平の使者になるというのか……")
     ShowMessage("どうせ向こうは耳を貸すまい。")
     ShowMessageFace("queenbee_fc1",0,0,2,63)
     ShowMessage("【クィーンビー】")
     ShowMessage("だが、プリエステスに近付く事には意義があるな。")
     ShowMessage("停戦を聞き入れぬなら、その刃を奴に……")
     If(0,4,0)
      ShowMessageFace("alice_fc5",1,0,2,64)
      ShowMessage("【アリス】")
      ShowMessage("まったく、またプランセクトに逆戻りか……")
      ShowMessage("まあ、骨を折る価値はあるだろう。")
      0()
     EndIf()
     If(0,5,0)
      ShowMessageFace("iriasu_fc4",2,0,2,65)
      ShowMessage("【イリアス】")
      ShowMessage("またプランセクトに戻るのですか……")
      ShowMessage("この戦、血を見なければ収まりませんよ？")
      0()
     EndIf()
     PictureClear(5)
     ShowMessageFace("",0,0,2,66)
     ShowMessage("こうして僕達は、和平の使者としてプランセクト村に戻る事となった。")
     ShowMessage("なんとしても、戦火を収めなければ――")
     EndEventProcessing()
     0()
    404()
    0()
   404()
   0()
  EndIf()
  If(1,1056,0,3,0)
   PictureDisplay(5,"80_queenbee_st01",0,0,0,0,100,100,0,0)
   PictureMove(5,null,0,0,0,0,100,100,255,0,30,true)
   ShowMessageFace("queenbee_fc1",0,0,2,67)
   ShowMessage("【クィーンビー】")
   ShowMessage("プリエステスは、知っての通りプランセクト村にいる。")
   ShowMessage("人間の勇者よ、どうか頼んだぞ。")
   ShowChoices(strings("やっぱりクィーンビーと戦う","戦わない"),2)
   IfPlayerPicksChoice(0,null)
    JumpToLabel("戦い")
    0()
   IfPlayerPicksChoice(1,null)
    PictureClear(5)
    EndEventProcessing()
    0()
   404()
   0()
  EndIf()
  0()
 PAGE   2
  // condition: variable 1056 >= 4
  241(bytes(0x04,0x08,0x6f,0x3a,0x0d,0x52,0x50,0x47,0x3a,0x3a,0x42,0x47,0x4d,0x08,0x3a,0x0a,0x40,0x6e,0x61,0x6d,0x65,0x49,0x22,0x0a,0x62,0x6f,0x73,0x73,0x30,0x06,0x3a,0x06,0x45,0x54,0x3a,0x0c,0x40,0x76,0x6f,0x6c,0x75,0x6d,0x65,0x69,0x69,0x3a,0x0b,0x40,0x70,0x69,0x74,0x63,0x68,0x69,0x69))
  PictureDisplay(6,"80_queenbee_st03",0,0,-150,0,100,100,0,0)
  PictureDisplay(5,"80_coatlus_st05",0,0,150,0,100,100,0,0)
  PictureMove(6,null,0,0,-150,0,100,100,255,0,30,false)
  PictureMove(5,null,0,0,150,0,100,100,255,0,30,true)
  ShowMessageFace("coatlus_fc1",4,0,2,1)
  ShowMessage("【ケツァルコァトル】")
  ShowMessage("私の目を盗み、勝手に和睦を進めるなんて……")
  ShowMessage("支配者を軽んじた報いを受けなさい！")
  ShowMessageFace("",0,0,2,2)
  ShowMessage("ケツァルコァトルが、クィーンビーを攻撃している！")
  ShowMessageFace("queenbee_fc1",2,0,2,3)
  ShowMessage("【クィーンビー】")
  ShowMessage("う……ぐっ……！")
  If(4,202,0)
   ShowMessageFace("bonny_fc1",0,0,2,4)
   ShowMessage("【ボニー】")
   ShowMessage("これは、見過ごせんぞ……！")
   0()
  EndIf()
  ShowMessageFace("a_emp_fc1",0,0,2,5)
  ShowMessage("【アルラ・プリエステス】")
  ShowMessage("クィーンビー、大丈夫ですか……？")
  PictureClear(5)
  PictureClear(6)
  Wait(60)
  205(0,bytes(0x04,0x08,0x6f,0x3a,0x13,0x52,0x50,0x47,0x3a,0x3a,0x4d,0x6f,0x76,0x65,0x52,0x6f,0x75,0x74,0x65,0x09,0x3a,0x0c,0x40,0x72,0x65,0x70,0x65,0x61,0x74,0x46,0x3a,0x0f,0x40,0x73,0x6b,0x69,0x70,0x70,0x61,0x62,0x6c,0x65,0x46,0x3a,0x0a,0x40,0x77,0x61,0x69,0x74,0x54,0x3a,0x0a,0x40,0x6c,0x69,0x73,0x74,0x5b,0x08,0x6f,0x3a,0x15,0x52,0x50,0x47,0x3a,0x3a,0x4d,0x6f,0x76,0x65,0x43,0x6f,0x6d,0x6d,0x61,0x6e,0x64,0x07,0x3a,0x0a,0x40,0x63,0x6f,0x64,0x65,0x69,0x29,0x3a,0x10,0x40,0x70,0x61,0x72,0x61,0x6d,0x65,0x74,0x65,0x72,0x73,0x5b,0x00,0x6f,0x3b,0x0a,0x07,0x3b,0x0b,0x69,0x1e,0x3b,0x0c,0x5b,0x00,0x6f,0x3b,0x0a,0x07,0x3b,0x0b,0x69,0x00,0x3b,0x0c,0x5b,0x00))
  Wait(60)
  PictureDisplay(5,"80_queenbee_st01",0,0,0,0,100,100,0,0)
  PictureMove(5,null,0,0,0,0,100,100,255,0,30,true)
  ShowMessageFace("queenbee_fc1",2,0,2,6)
  ShowMessage("【クィーンビー】")
  ShowMessage("プリエステス……！")
  ShowMessage("まさか、助けに来たのか……？")
  ShowMessageFace("a_emp_fc1",1,0,2,7)
  ShowMessage("【アルラ・プリエステス】")
  ShowMessage("まだ停戦もなっていないのに、責任者に死なれては困ります。")
  ShowMessage("ここは共に戦いましょう……！")
  ShowMessageFace("queenbee_fc1",0,0,2,8)
  ShowMessage("【クィーンビー】")
  ShowMessage("助力、感謝しよう……")
  PictureClear(5)
  205(0,bytes(0x04,0x08,0x6f,0x3a,0x13,0x52,0x50,0x47,0x3a,0x3a,0x4d,0x6f,0x76,0x65,0x52,0x6f,0x75,0x74,0x65,0x09,0x3a,0x0c,0x40,0x72,0x65,0x70,0x65,0x61,0x74,0x46,0x3a,0x0f,0x40,0x73,0x6b,0x69,0x70,0x70,0x61,0x62,0x6c,0x65,0x46,0x3a,0x0a,0x40,0x77,0x61,0x69,0x74,0x54,0x3a,0x0a,0x40,0x6c,0x69,0x73,0x74,0x5b,0x09,0x6f,0x3a,0x15,0x52,0x50,0x47,0x3a,0x3a,0x4d,0x6f,0x76,0x65,0x43,0x6f,0x6d,0x6d,0x61,0x6e,0x64,0x07,0x3a,0x0a,0x40,0x63,0x6f,0x64,0x65,0x69,0x2a,0x3a,0x10,0x40,0x70,0x61,0x72,0x61,0x6d,0x65,0x74,0x65,0x72,0x73,0x5b,0x00,0x6f,0x3b,0x0a,0x07,0x3b,0x0b,0x69,0x0f,0x3b,0x0c,0x5b,0x00,0x6f,0x3b,0x0a,0x07,0x3b,0x0b,0x69,0x2c,0x3b,0x0c,0x5b,0x00,0x6f,0x3b,0x0a,0x07,0x3b,0x0b,0x69,0x00,0x3b,0x0c,0x5b,0x00))
  355("add_actor_ex(245)")
  249(bytes(0x04,0x08,0x6f,0x3a,0x0c,0x52,0x50,0x47,0x3a,0x3a,0x4d,0x45,0x08,0x3a,0x0a,0x40,0x6e,0x61,0x6d,0x65,0x49,0x22,0x0c,0x66,0x61,0x6e,0x66,0x61,0x6c,0x65,0x06,0x3a,0x06,0x45,0x54,0x3a,0x0b,0x40,0x70,0x69,0x74,0x63,0x68,0x69,0x69,0x3a,0x0c,0x40,0x76,0x6f,0x6c,0x75,0x6d,0x65,0x69,0x69))
  ShowMessageFace("",0,0,2,9)
  ShowMessage("蜜璃亜が仲間に加わった！")
  ChangeSwitch(2323,2323,0)
  Wait(60)
  PictureDisplay(5,"80_coatlus_st05",0,0,0,0,100,100,0,0)
  PictureMove(5,null,0,0,0,0,100,100,255,0,30,true)
  ShowMessageFace("coatlus_fc1",4,0,2,10)
  ShowMessage("【ケツァルコァトル】")
  ShowMessage("どいつもこいつも、私に楯突くなんて……")
  ShowMessage("いいわ、報いを受けさせてあげる！")
  If(0,4,0)
   ShowMessageFace("alice_fc6",1,0,2,11)
   ShowMessage("【アリス】")
   ShowMessage("勝手な事を抜かすな、三下め！")
   ShowMessage("すでに和睦はなっている、貴様等の横槍も叩き折ってくれるわ！")
   0()
  EndIf()
  If(0,5,0)
   ShowMessageFace("iriasu_fc4",7,0,2,12)
   ShowMessage("【イリアス】")
   ShowMessage("妖魔の分際で、何を偉そうに！")
   ShowMessage("誰に口を利いているのか、思い知らせてやりましょう！")
   0()
  EndIf()
  If(4,129,0)
   ShowMessageFace("brunhild_fc1",0,0,2,13)
   ShowMessage("【ヒルデ】")
   ShowMessage("敵は竜？　巨鳥……？")
   ShowMessage("とにかく、戦闘開始……")
   0()
  EndIf()
  If(4,79,0)
   ShowMessageFace("nuruko_fc1",0,0,2,14)
   ShowMessage("【ヌルコ】")
   ShowMessage("きゅ～っ！！")
   0()
  EndIf()
  PictureClear(5)
  SetBattleBGM(bytes(0x04,0x08,0x6f,0x3a,0x0d,0x52,0x50,0x47,0x3a,0x3a,0x42,0x47,0x4d,0x08,0x3a,0x0a,0x40,0x6e,0x61,0x6d,0x65,0x49,0x22,0x0a,0x62,0x6f,0x73,0x73,0x31,0x06,0x3a,0x06,0x45,0x54,0x3a,0x0c,0x40,0x76,0x6f,0x6c,0x75,0x6d,0x65,0x69,0x69,0x3a,0x0b,0x40,0x70,0x69,0x74,0x63,0x68,0x69,0x69))
  ChangeSwitch(22,22,0)
  Battle(0,671,false,false)
  ChangeSwitch(22,22,1)
  SetBattleBGM(bytes(0x04,0x08,0x6f,0x3a,0x0d,0x52,0x50,0x47,0x3a,0x3a,0x42,0x47,0x4d,0x08,0x3a,0x0a,0x40,0x6e,0x61,0x6d,0x65,0x49,0x22,0x0b,0x62,0x61,0x74,0x74,0x6c,0x65,0x06,0x3a,0x06,0x45,0x54,0x3a,0x0c,0x40,0x76,0x6f,0x6c,0x75,0x6d,0x65,0x69,0x69,0x3a,0x0b,0x40,0x70,0x69,0x74,0x63,0x68,0x69,0x69))
  ChangeSwitch(1904,1904,0)
  314(0,0)
  PictureDisplay(5,"80_coatlus_st05",0,0,0,0,100,100,0,0)
  PictureMove(5,null,0,0,0,0,100,100,255,0,30,true)
  ShowMessageFace("coatlus_fc1",4,0,2,15)
  ShowMessage("【ケツァルコァトル】")
  ShowMessage("くっ、不覚を取ったわね……")
  ShowMessage("やっぱり、バカネコとやり合った時のダメージが……")
  If(0,6,0)
   ShowMessageFace("sonia_fc1",3,0,2,16)
   ShowMessage("【ソニア】")
   ShowMessage("追い詰めたわよ！　このまま、一気に――")
   0()
  Else()
   ShowMessageFace("ruka_fc1",0,0,2,17)
   ShowMessage("【ルカ】")
   ShowMessage("追い詰めたぞ！　一気に、このまま――")
   0()
  EndIf()
  241(bytes(0x04,0x08,0x6f,0x3a,0x0d,0x52,0x50,0x47,0x3a,0x3a,0x42,0x47,0x4d,0x08,0x3a,0x0a,0x40,0x6e,0x61,0x6d,0x65,0x49,0x22,0x0a,0x62,0x6f,0x73,0x73,0x30,0x06,0x3a,0x06,0x45,0x54,0x3a,0x0c,0x40,0x76,0x6f,0x6c,0x75,0x6d,0x65,0x69,0x69,0x3a,0x0b,0x40,0x70,0x69,0x74,0x63,0x68,0x69,0x69))
  If(0,4,0)
   ShowMessageFace("alice_fc5",2,0,2,18)
   ShowMessage("【アリス】")
   ShowMessage("……何か来るぞ、注意しろ！")
   ShowMessage("まさか、敵の援軍か……！？")
   0()
  EndIf()
  If(0,5,0)
   ShowMessageFace("iriasu_fc4",7,0,2,19)
   ShowMessage("【イリアス】")
   ShowMessage("気を抜いてはなりません、何かが近付いてきますよ！")
   ShowMessage("敵の援軍かもしれません！")
   0()
  EndIf()
  PictureClear(5)
  Wait(60)
  250(bytes(0x04,0x08,0x6f,0x3a,0x0c,0x52,0x50,0x47,0x3a,0x3a,0x53,0x45,0x08,0x3a,0x0a,0x40,0x6e,0x61,0x6d,0x65,0x49,0x22,0x0d,0x6d,0x6f,0x6e,0x5f,0x77,0x61,0x72,0x70,0x06,0x3a,0x06,0x45,0x54,0x3a,0x0b,0x40,0x70,0x69,0x74,0x63,0x68,0x69,0x69,0x3a,0x0c,0x40,0x76,0x6f,0x6c,0x75,0x6d,0x65,0x69,0x55))
  ChangeSwitch(31,31,0)
  Wait(60)
  PictureDisplay(5,"80_tezcatlipoca_st06",0,0,0,0,100,100,0,0)
  PictureMove(5,null,0,0,0,0,100,100,255,0,30,true)
  ShowMessageFace("tezcatlipoca_fc1",5,0,2,20)
  ShowMessage("【テスカトリポカ】")
  ShowMessage("ウニャー！　今がチャンスニャー！")
  If(0,4,0)
   ShowMessageFace("alice_fc5",6,0,2,21)
   ShowMessage("【アリス】")
   ShowMessage("まずいぞ……！")
   ShowMessage("ここで、二体相手に戦う余裕など――")
   0()
  EndIf()
  If(0,5,0)
   ShowMessageFace("iriasu_fc4",5,0,2,22)
   ShowMessage("【イリアス】")
   ShowMessage("なんという事でしょう！")
   ShowMessage("二体を相手に戦う余力など、我々にはもはや――")
   0()
  EndIf()
  PictureClear(5)
  Wait(60)
  205(35,bytes(0x04,0x08,0x6f,0x3a,0x13,0x52,0x50,0x47,0x3a,0x3a,0x4d,0x6f,0x76,0x65,0x52,0x6f,0x75,0x74,0x65,0x09,0x3a,0x0c,0x40,0x72,0x65,0x70,0x65,0x61,0x74,0x46,0x3a,0x0f,0x40,0x73,0x6b,0x69,0x70,0x70,0x61,0x62,0x6c,0x65,0x46,0x3a,0x0a,0x40,0x77,0x61,0x69,0x74,0x46,0x3a,0x0a,0x40,0x6c,0x69,0x73,0x74,0x5b,0x07,0x6f,0x3a,0x15,0x52,0x50,0x47,0x3a,0x3a,0x4d,0x6f,0x76,0x65,0x43,0x6f,0x6d,0x6d,0x61,0x6e,0x64,0x07,0x3a,0x0a,0x40,0x63,0x6f,0x64,0x65,0x69,0x18,0x3a,0x10,0x40,0x70,0x61,0x72,0x61,0x6d,0x65,0x74,0x65,0x72,0x73,0x5b,0x00,0x6f,0x3b,0x0a,0x07,0x3b,0x0b,0x69,0x00,0x3b,0x0c,0x5b,0x00))
  250(bytes(0x04,0x08,0x6f,0x3a,0x0c,0x52,0x50,0x47,0x3a,0x3a,0x53,0x45,0x08,0x3a,0x0a,0x40,0x6e,0x61,0x6d,0x65,0x49,0x22,0x0e,0x6d,0x6f,0x6e,0x5f,0x73,0x6c,0x61,0x73,0x68,0x06,0x3a,0x06,0x45,0x54,0x3a,0x0b,0x40,0x70,0x69,0x74,0x63,0x68,0x69,0x69,0x3a,0x0c,0x40,0x76,0x6f,0x6c,0x75,0x6d,0x65,0x69,0x55))
  205(36,bytes(0x04,0x08,0x6f,0x3a,0x13,0x52,0x50,0x47,0x3a,0x3a,0x4d,0x6f,0x76,0x65,0x52,0x6f,0x75,0x74,0x65,0x09,0x3a,0x0c,0x40,0x72,0x65,0x70,0x65,0x61,0x74,0x46,0x3a,0x0f,0x40,0x73,0x6b,0x69,0x70,0x70,0x61,0x62,0x6c,0x65,0x46,0x3a,0x0a,0x40,0x77,0x61,0x69,0x74,0x54,0x3a,0x0a,0x40,0x6c,0x69,0x73,0x74,0x5b,0x0a,0x6f,0x3a,0x15,0x52,0x50,0x47,0x3a,0x3a,0x4d,0x6f,0x76,0x65,0x43,0x6f,0x6d,0x6d,0x61,0x6e,0x64,0x07,0x3a,0x0a,0x40,0x63,0x6f,0x64,0x65,0x69,0x22,0x3a,0x10,0x40,0x70,0x61,0x72,0x61,0x6d,0x65,0x74,0x65,0x72,0x73,0x5b,0x06,0x69,0x0b,0x6f,0x3b,0x0a,0x07,0x3b,0x0b,0x69,0x23,0x3b,0x0c,0x5b,0x06,0x69,0x09,0x6f,0x3b,0x0a,0x07,0x3b,0x0b,0x69,0x06,0x3b,0x0c,0x5b,0x00,0x6f,0x3b,0x0a,0x07,0x3b,0x0b,0x69,0x06,0x3b,0x0c,0x5b,0x00,0x6f,0x3b,0x0a,0x07,0x3b,0x0b,0x69,0x00,0x3b,0x0c,0x5b,0x00))
  Wait(60)
  PictureDisplay(6,"80_tezcatlipoca_st06",0,0,-150,0,100,100,0,0)
  PictureDisplay(5,"80_coatlus_st05",0,0,150,0,100,100,0,0)
  PictureMove(6,null,0,0,-150,0,100,100,255,0,30,false)
  PictureMove(5,null,0,0,150,0,100,100,255,0,30,true)
  ShowMessageFace("tezcatlipoca_fc1",4,0,2,23)
  ShowMessage("【テスカトリポカ】")
  ShowMessage("ウニャー！")
  ShowMessageFace("coatlus_fc1",4,0,2,24)
  ShowMessage("【ケツァルコァトル】")
  ShowMessage("おのれ、何を……！")
  ShowMessageFace("tezcatlipoca_fc1",4,0,2,25)
  ShowMessage("【テスカトリポカ】")
  ShowMessage("コアトリ！　今こそ、ここで退治してやるのニャー！")
  ShowMessageFace("coatlus_fc1",4,0,2,26)
  ShowMessage("【ケツァルコァトル】")
  ShowMessage("バカネコ一匹、倒せる力くらい残っているわ……！")
  241(bytes(0x04,0x08,0x6f,0x3a,0x0d,0x52,0x50,0x47,0x3a,0x3a,0x42,0x47,0x4d,0x08,0x3a,0x0a,0x40,0x6e,0x61,0x6d,0x65,0x49,0x22,0x10,0x73,0x63,0x65,0x6e,0x65,0x5f,0x63,0x6f,0x6d,0x69,0x32,0x06,0x3a,0x06,0x45,0x54,0x3a,0x0c,0x40,0x76,0x6f,0x6c,0x75,0x6d,0x65,0x69,0x69,0x3a,0x0b,0x40,0x70,0x69,0x74,0x63,0x68,0x69,0x69))
  PictureClear(6)
  PictureDisplay(5,"iv_tezcacoatlus2",0,0,0,0,100,100,255,0)
  250(bytes(0x04,0x08,0x6f,0x3a,0x0c,0x52,0x50,0x47,0x3a,0x3a,0x53,0x45,0x08,0x3a,0x0a,0x40,0x6e,0x61,0x6d,0x65,0x49,0x22,0x0e,0x6d,0x6f,0x6e,0x5f,0x73,0x6c,0x61,0x73,0x68,0x06,0x3a,0x06,0x45,0x54,0x3a,0x0b,0x40,0x70,0x69,0x74,0x63,0x68,0x69,0x69,0x3a,0x0c,0x40,0x76,0x6f,0x6c,0x75,0x6d,0x65,0x69,0x55))
  ShowMessageFace("tezcatlipoca_fc1",4,0,2,27)
  ShowMessage("【テスカトリポカ】")
  ShowMessage("ウニャー！")
  250(bytes(0x04,0x08,0x6f,0x3a,0x0c,0x52,0x50,0x47,0x3a,0x3a,0x53,0x45,0x08,0x3a,0x0a,0x40,0x6e,0x61,0x6d,0x65,0x49,0x22,0x10,0x6d,0x6f,0x6e,0x5f,0x64,0x61,0x67,0x65,0x6b,0x69,0x32,0x06,0x3a,0x06,0x45,0x54,0x3a,0x0b,0x40,0x70,0x69,0x74,0x63,0x68,0x69,0x69,0x3a,0x0c,0x40,0x76,0x6f,0x6c,0x75,0x6d,0x65,0x69,0x55))
  ShowMessageFace("coatlus_fc1",4,0,2,28)
  ShowMessage("【ケツァルコァトル】")
  ShowMessage("キエー！")
  250(bytes(0x04,0x08,0x6f,0x3a,0x0c,0x52,0x50,0x47,0x3a,0x3a,0x53,0x45,0x08,0x3a,0x0a,0x40,0x6e,0x61,0x6d,0x65,0x49,0x22,0x0f,0x6d,0x6f,0x6e,0x5f,0x73,0x6c,0x61,0x73,0x68,0x33,0x06,0x3a,0x06,0x45,0x54,0x3a,0x0b,0x40,0x70,0x69,0x74,0x63,0x68,0x69,0x69,0x3a,0x0c,0x40,0x76,0x6f,0x6c,0x75,0x6d,0x65,0x69,0x55))
  ShowMessageFace("tezcatlipoca_fc1",4,0,2,29)
  ShowMessage("【テスカトリポカ】")
  ShowMessage("コアトリー！")
  250(bytes(0x04,0x08,0x6f,0x3a,0x0c,0x52,0x50,0x47,0x3a,0x3a,0x53,0x45,0x08,0x3a,0x0a,0x40,0x6e,0x61,0x6d,0x65,0x49,0x22,0x0d,0x6d,0x6f,0x6e,0x5f,0x62,0x6f,0x6d,0x32,0x06,0x3a,0x06,0x45,0x54,0x3a,0x0b,0x40,0x70,0x69,0x74,0x63,0x68,0x69,0x69,0x3a,0x0c,0x40,0x76,0x6f,0x6c,0x75,0x6d,0x65,0x69,0x55))
  ShowMessageFace("coatlus_fc1",4,0,2,30)
  ShowMessage("【ケツァルコァトル】")
  ShowMessage("バカネコー！")
  Wait(60)
  PictureClear(5)
  205(35,bytes(0x04,0x08,0x6f,0x3a,0x13,0x52,0x50,0x47,0x3a,0x3a,0x4d,0x6f,0x76,0x65,0x52,0x6f,0x75,0x74,0x65,0x09,0x3a,0x0c,0x40,0x72,0x65,0x70,0x65,0x61,0x74,0x46,0x3a,0x0f,0x40,0x73,0x6b,0x69,0x70,0x70,0x61,0x62,0x6c,0x65,0x46,0x3a,0x0a,0x40,0x77,0x61,0x69,0x74,0x46,0x3a,0x0a,0x40,0x6c,0x69,0x73,0x74,0x5b,0x1e,0x6f,0x3a,0x15,0x52,0x50,0x47,0x3a,0x3a,0x4d,0x6f,0x76,0x65,0x43,0x6f,0x6d,0x6d,0x61,0x6e,0x64,0x07,0x3a,0x0a,0x40,0x63,0x6f,0x64,0x65,0x69,0x2a,0x3a,0x10,0x40,0x70,0x61,0x72,0x61,0x6d,0x65,0x74,0x65,0x72,0x73,0x5b,0x00,0x6f,0x3b,0x0a,0x07,0x3b,0x0b,0x69,0x28,0x3b,0x0c,0x5b,0x00,0x6f,0x3b,0x0a,0x07,0x3b,0x0b,0x69,0x22,0x3b,0x0c,0x5b,0x06,0x69,0x0b,0x6f,0x3b,0x0a,0x07,0x3b,0x0b,0x69,0x23,0x3b,0x0c,0x5b,0x06,0x69,0x0a,0x6f,0x3b,0x0a,0x07,0x3b,0x0b,0x69,0x08,0x3b,0x0c,0x5b,0x00,0x6f,0x3b,0x0a,0x07,0x3b,0x0b,0x69,0x08,0x3b,0x0c,0x5b,0x00,0x6f,0x3b,0x0a,0x07,0x3b,0x0b,0x69,0x08,0x3b,0x0c,0x5b,0x00,0x6f,0x3b,0x0a,0x07,0x3b,0x0b,0x69,0x08,0x3b,0x0c,0x5b,0x00,0x6f,0x3b,0x0a,0x07,0x3b,0x0b,0x69,0x08,0x3b,0x0c,0x5b,0x00,0x6f,0x3b,0x0a,0x07,0x3b,0x0b,0x69,0x08,0x3b,0x0c,0x5b,0x00,0x6f,0x3b,0x0a,0x07,0x3b,0x0b,0x69,0x08,0x3b,0x0c,0x5b,0x00,0x6f,0x3b,0x0a,0x07,0x3b,0x0b,0x69,0x08,0x3b,0x0c,0x5b,0x00,0x6f,0x3b,0x0a,0x07,0x3b,0x0b,0x69,0x08,0x3b,0x0c,0x5b,0x00,0x6f,0x3b,0x0a,0x07,0x3b,0x0b,0x69,0x08,0x3b,0x0c,0x5b,0x00,0x6f,0x3b,0x0a,0x07,0x3b,0x0b,0x69,0x08,0x3b,0x0c,0x5b,0x00,0x6f,0x3b,0x0a,0x07,0x3b,0x0b,0x69,0x08,0x3b,0x0c,0x5b,0x00,0x6f,0x3b,0x0a,0x07,0x3b,0x0b,0x69,0x08,0x3b,0x0c,0x5b,0x00,0x6f,0x3b,0x0a,0x07,0x3b,0x0b,0x69,0x08,0x3b,0x0c,0x5b,0x00,0x6f,0x3b,0x0a,0x07,0x3b,0x0b,0x69,0x08,0x3b,0x0c,0x5b,0x00,0x6f,0x3b,0x0a,0x07,0x3b,0x0b,0x69,0x08,0x3b,0x0c,0x5b,0x00,0x6f,0x3b,0x0a,0x07,0x3b,0x0b,0x69,0x08,0x3b,0x0c,0x5b,0x00,0x6f,0x3b,0x0a,0x07,0x3b,0x0b,0x69,0x08,0x3b,0x0c,0x5b,0x00,0x6f,0x3b,0x0a,0x07,0x3b,0x0b,0x69,0x08,0x3b,0x0c,0x5b,0x00,0x6f,0x3b,0x0a,0x07,0x3b,0x0b,0x69,0x2c,0x3b,0x0c,0x5b,0x00,0x6f,0x3b,0x0a,0x07,0x3b,0x0b,0x69,0x00,0x3b,0x0c,0x5b,0x00))
  205(36,bytes(0x04,0x08,0x6f,0x3a,0x13,0x52,0x50,0x47,0x3a,0x3a,0x4d,0x6f,0x76,0x65,0x52,0x6f,0x75,0x74,0x65,0x09,0x3a,0x0c,0x40,0x72,0x65,0x70,0x65,0x61,0x74,0x46,0x3a,0x0f,0x40,0x73,0x6b,0x69,0x70,0x70,0x61,0x62,0x6c,0x65,0x46,0x3a,0x0a,0x40,0x77,0x61,0x69,0x74,0x54,0x3a,0x0a,0x40,0x6c,0x69,0x73,0x74,0x5b,0x1e,0x6f,0x3a,0x15,0x52,0x50,0x47,0x3a,0x3a,0x4d,0x6f,0x76,0x65,0x43,0x6f,0x6d,0x6d,0x61,0x6e,0x64,0x07,0x3a,0x0a,0x40,0x63,0x6f,0x64,0x65,0x69,0x2a,0x3a,0x10,0x40,0x70,0x61,0x72,0x61,0x6d,0x65,0x74,0x65,0x72,0x73,0x5b,0x00,0x6f,0x3b,0x0a,0x07,0x3b,0x0b,0x69,0x28,0x3b,0x0c,0x5b,0x00,0x6f,0x3b,0x0a,0x07,0x3b,0x0b,0x69,0x22,0x3b,0x0c,0x5b,0x06,0x69,0x0b,0x6f,0x3b,0x0a,0x07,0x3b,0x0b,0x69,0x23,0x3b,0x0c,0x5b,0x06,0x69,0x0a,0x6f,0x3b,0x0a,0x07,0x3b,0x0b,0x69,0x08,0x3b,0x0c,0x5b,0x00,0x6f,0x3b,0x0a,0x07,0x3b,0x0b,0x69,0x08,0x3b,0x0c,0x5b,0x00,0x6f,0x3b,0x0a,0x07,0x3b,0x0b,0x69,0x08,0x3b,0x0c,0x5b,0x00,0x6f,0x3b,0x0a,0x07,0x3b,0x0b,0x69,0x08,0x3b,0x0c,0x5b,0x00,0x6f,0x3b,0x0a,0x07,0x3b,0x0b,0x69,0x08,0x3b,0x0c,0x5b,0x00,0x6f,0x3b,0x0a,0x07,0x3b,0x0b,0x69,0x08,0x3b,0x0c,0x5b,0x00,0x6f,0x3b,0x0a,0x07,0x3b,0x0b,0x69,0x08,0x3b,0x0c,0x5b,0x00,0x6f,0x3b,0x0a,0x07,0x3b,0x0b,0x69,0x08,0x3b,0x0c,0x5b,0x00,0x6f,0x3b,0x0a,0x07,0x3b,0x0b,0x69,0x08,0x3b,0x0c,0x5b,0x00,0x6f,0x3b,0x0a,0x07,0x3b,0x0b,0x69,0x08,0x3b,0x0c,0x5b,0x00,0x6f,0x3b,0x0a,0x07,0x3b,0x0b,0x69,0x08,0x3b,0x0c,0x5b,0x00,0x6f,0x3b,0x0a,0x07,0x3b,0x0b,0x69,0x08,0x3b,0x0c,0x5b,0x00,0x6f,0x3b,0x0a,0x07,0x3b,0x0b,0x69,0x08,0x3b,0x0c,0x5b,0x00,0x6f,0x3b,0x0a,0x07,0x3b,0x0b,0x69,0x08,0x3b,0x0c,0x5b,0x00,0x6f,0x3b,0x0a,0x07,0x3b,0x0b,0x69,0x08,0x3b,0x0c,0x5b,0x00,0x6f,0x3b,0x0a,0x07,0x3b,0x0b,0x69,0x08,0x3b,0x0c,0x5b,0x00,0x6f,0x3b,0x0a,0x07,0x3b,0x0b,0x69,0x08,0x3b,0x0c,0x5b,0x00,0x6f,0x3b,0x0a,0x07,0x3b,0x0b,0x69,0x08,0x3b,0x0c,0x5b,0x00,0x6f,0x3b,0x0a,0x07,0x3b,0x0b,0x69,0x08,0x3b,0x0c,0x5b,0x00,0x6f,0x3b,0x0a,0x07,0x3b,0x0b,0x69,0x2c,0x3b,0x0c,0x5b,0x00,0x6f,0x3b,0x0a,0x07,0x3b,0x0b,0x69,0x00,0x3b,0x0c,0x5b,0x00))
  ChangeSwitch(31,31,1)
  If(0,6,0)
   ShowMessageFace("sonia_fc4",0,0,2,31)
   ShowMessage("【ソニア】")
   ShowMessage("……………………")
   0()
  Else()
   ShowMessageFace("ruka_fc1",0,0,2,32)
   ShowMessage("【ルカ】")
   ShowMessage("……………………")
   0()
  EndIf()
  ShowMessageFace("a_emp_fc1",2,0,2,33)
  ShowMessage("【アルラ・プリエステス】")
  ShowMessage("もう一つ、私が停戦を決断した理由は……")
  ShowMessageFace("queenbee_fc1",2,0,2,34)
  ShowMessage("【クィーンビー】")
  ShowMessage("うむ、言わずとも分かる……")
  ShowMessage("あのような様は、見苦しいものよな……")
  221()
  Wait(60)
  TeleportPlayer(0,132,35,36,8,2)
  241(bytes(0x04,0x08,0x6f,0x3a,0x0d,0x52,0x50,0x47,0x3a,0x3a,0x42,0x47,0x4d,0x08,0x3a,0x0a,0x40,0x6e,0x61,0x6d,0x65,0x49,0x22,0x14,0x73,0x63,0x65,0x6e,0x65,0x5f,0x65,0x70,0x69,0x6c,0x6f,0x67,0x75,0x65,0x32,0x06,0x3a,0x06,0x45,0x54,0x3a,0x0c,0x40,0x76,0x6f,0x6c,0x75,0x6d,0x65,0x69,0x69,0x3a,0x0b,0x40,0x70,0x69,0x74,0x63,0x68,0x69,0x69))
  ChangeSwitch(32,32,0)
  222()
  If(1,909,0,0,0)
   ShowMessageFace("",0,0,2,35)
   ShowMessage("プリエステスと蜜璃亜が仲間から離れた……")
   ChangeSwitch(1241,1241,1)
   ChangePartyMember(241,1,0)
   ChangeSwitch(1245,1245,1)
   ChangePartyMember(245,1,0)
   0()
  EndIf()
  355("gain_medal(39)")
  PictureDisplay(5,"80_a_emp_st02",0,0,-150,0,100,100,0,0)
  PictureDisplay(6,"80_queenbee_st02",0,0,150,0,100,100,0,0)
  PictureMove(5,null,0,0,-150,0,100,100,255,0,30,false)
  PictureMove(6,null,0,0,150,0,100,100,255,0,30,true)
  ShowMessageFace("a_emp_fc1",1,0,2,36)
  ShowMessage("【アルラ・プリエステス】")
  ShowMessage("本当にありがとうございました。")
  ShowMessage("黒のアリスの手先を撃退できたのは、あなた達のおかげです。")
  ShowMessageFace("queenbee_fc1",1,0,2,37)
  ShowMessage("【クィーンビー】")
  ShowMessage("あの二人の争いに巻き込まれ……")
  ShowMessage("我らもまた、過ちを犯してしまうところだった。")
  If(4,226,0)
   ShowMessageFace("sirohebisama_fc1",0,0,2,38)
   ShowMessage("【白蛇様】")
   ShowMessage("うむうむ……これで万事解決というわけだ。")
   0()
  EndIf()
  If(0,4,0)
   ShowMessageFace("alice_fc5",0,0,2,39)
   ShowMessage("【アリス】")
   ShowMessage("三人の魔王の一人、黒のアリス……")
   ShowMessage("奴もまた、動き出していたのだな。")
   ShowMessageFace("alice_fc5",0,0,2,40)
   ShowMessage("【アリス】")
   ShowMessage("また黒のアリスが接触してきたら、我々に連絡してくれ。")
   ShowMessage("奴が何を企んでいるのか、知る必要があるからな。")
   0()
  EndIf()
  If(0,5,0)
   ShowMessageFace("iriasu_fc4",2,0,2,41)
   ShowMessage("【イリアス】")
   ShowMessage("黒のアリスも、やはり陰謀を巡らせているようですね。")
   ShowMessage("あんなポンコツ二人を送ってきた意図は分かりませんが……")
   ShowMessageFace("iriasu_fc4",2,0,2,42)
   ShowMessage("【イリアス】")
   ShowMessage("また黒のアリスが接触してきたら、必ず我々に連絡を取るように。")
   ShowMessage("奴の動向は、必ず把握しておかねばなりません。")
   0()
  EndIf()
  ShowMessageFace("a_emp_fc1",1,0,2,43)
  ShowMessage("【アルラ・プリエステス】")
  ShowMessage("その際は植物族と昆虫族で結束し、無法な支配に抵抗しましょう。")
  ShowMessage("あなた達の力も、再び借りる事になるかもしれませんね……")
  ShowMessageFace("a_emp_fc1",1,0,2,44)
  ShowMessage("【アルラ・プリエステス】")
  ShowMessage("ともかく、あなた方の助力に心から感謝致します。")
  ShowMessage("我々に出来る事があれば、何でもおっしゃって下さいね。")
  ShowMessageFace("queenbee_fc1",1,0,2,45)
  ShowMessage("【クィーンビー】")
  ShowMessage("妾としても、この恩は忘れまい。")
  ShowMessage("根城はレド山に移ったゆえ、妾に会いたければそちらに来たれ。")
  ShowMessageFace("queenbee_fc1",1,0,2,46)
  ShowMessage("【クィーンビー】")
  ShowMessage("それでは、またな。")
  ShowMessage("その旅に、武運あらん事を。")
  PictureClear(5)
  PictureClear(6)
  ShowMessageFace("",0,0,2,47)
  ShowMessage("こうして、プランセクト村の争いは幕を閉じた。")
  ShowMessage("さあ、冒険の旅を続けよう――")
  ChangeVariable(1056,1056,0,0,5)
  ChangeVariable(1061,1061,0,0,3)
  221()
  Wait(60)
  TeleportPlayer(0,2,283,198,2,2)
  ChangeSwitch(32,32,1)
  222()
  0()
 PAGE   3
  // condition: switch 2323 is ON
  0()
 PAGE   4
  // condition: variable 1061 >= 1
  If(1,1061,0,1,0)
   PictureDisplay(5,"80_queenbee_st03",0,0,0,0,100,100,0,0)
   PictureMove(5,null,0,0,0,0,100,100,255,0,30,true)
   ShowMessageFace("queenbee_fc1",2,0,2,1)
   ShowMessage("【クィーンビー】")
   ShowMessage("昆虫族は、レド山に住み続ける事が許された。")
   ShowMessage("正直なところ、この山の環境は悪くない……")
   ShowMessageFace("queenbee_fc1",2,0,2,2)
   ShowMessage("【クィーンビー】")
   ShowMessage("……が、これから先はどうなる事か。")
   ShowMessage("植物族が心変わりし、我らを滅ぼしに来るかもしれん。")
   ShowMessageFace("queenbee_fc1",2,0,2,3)
   ShowMessage("【クィーンビー】")
   ShowMessage("心、穏やかならざる日々が続くな。")
   ShowMessage("これも我らが負けたせいか……")
   PictureClear(5)
   EndEventProcessing()
   0()
  EndIf()
  If(1,1061,0,2,1)
   PictureDisplay(5,"80_queenbee_st02",0,0,0,0,100,100,0,0)
   PictureMove(5,null,0,0,0,0,100,100,255,0,30,true)
   ShowMessageFace("queenbee_fc1",1,0,2,4)
   ShowMessage("【クィーンビー】")
   ShowMessage("お前達か、よくぞ参ったな。")
   ShowMessage("妾に何か用があるならば、遠慮なく言うが良い。")
   ShowChoices(strings("仲間になってほしい","用はない"),2)
   IfPlayerPicksChoice(0,null)
    ShowMessageFace("queenbee_fc1",1,0,2,5)
    ShowMessage("【クィーンビー】")
    ShowMessage("なんと、妾の力を欲しているとな？")
    ShowMessage("ふむ……世界を旅し、次なる安住の場を探すのも面白い。")
    ShowMessageFace("queenbee_fc1",1,0,2,6)
    ShowMessage("【クィーンビー】")
    ShowMessage("よかろう、共に征ってやる。")
    ShowMessage("妾の力、好きに使うが良い……")
    PictureClear(5)
    205(0,bytes(0x04,0x08,0x6f,0x3a,0x13,0x52,0x50,0x47,0x3a,0x3a,0x4d,0x6f,0x76,0x65,0x52,0x6f,0x75,0x74,0x65,0x09,0x3a,0x0c,0x40,0x72,0x65,0x70,0x65,0x61,0x74,0x46,0x3a,0x0f,0x40,0x73,0x6b,0x69,0x70,0x70,0x61,0x62,0x6c,0x65,0x46,0x3a,0x0a,0x40,0x77,0x61,0x69,0x74,0x54,0x3a,0x0a,0x40,0x6c,0x69,0x73,0x74,0x5b,0x09,0x6f,0x3a,0x15,0x52,0x50,0x47,0x3a,0x3a,0x4d,0x6f,0x76,0x65,0x43,0x6f,0x6d,0x6d,0x61,0x6e,0x64,0x07,0x3a,0x0a,0x40,0x63,0x6f,0x64,0x65,0x69,0x2a,0x3a,0x10,0x40,0x70,0x61,0x72,0x61,0x6d,0x65,0x74,0x65,0x72,0x73,0x5b,0x00,0x6f,0x3b,0x0a,0x07,0x3b,0x0b,0x69,0x0f,0x3b,0x0c,0x5b,0x00,0x6f,0x3b,0x0a,0x07,0x3b,0x0b,0x69,0x2c,0x3b,0x0c,0x5b,0x00,0x6f,0x3b,0x0a,0x07,0x3b,0x0b,0x69,0x00,0x3b,0x0c,0x5b,0x00))
    355("add_actor_ex(245)")
    249(bytes(0x04,0x08,0x6f,0x3a,0x0c,0x52,0x50,0x47,0x3a,0x3a,0x4d,0x45,0x08,0x3a,0x0a,0x40,0x6e,0x61,0x6d,0x65,0x49,0x22,0x0c,0x66,0x61,0x6e,0x66,0x61,0x6c,0x65,0x06,0x3a,0x06,0x45,0x54,0x3a,0x0b,0x40,0x70,0x69,0x74,0x63,0x68,0x69,0x69,0x3a,0x0c,0x40,0x76,0x6f,0x6c,0x75,0x6d,0x65,0x69,0x69))
    ShowMessageFace("",0,0,2,7)
    ShowMessage("蜜璃亜が仲間に加わった！")
    Wait(60)
    If(0,4,0)
     ShowMessageFace("alice_fc5",7,0,2,8)
     ShowMessage("【アリス】")
     ShowMessage("そう言えば、ハチミツが食べたいな……♪")
     0()
    EndIf()
    If(0,5,0)
     ShowMessageFace("iriasu_fc4",1,0,2,9)
     ShowMessage("【イリアス】")
     ShowMessage("突然ですが、ハチミツが食べたくなりました。")
     0()
    EndIf()
    ShowMessageFace("queenbee_fc1",2,0,2,10)
    ShowMessage("【クィーンビー】")
    ShowMessage("仕方ないのう……娘達の分も含めた備蓄なのだ。")
    ShowMessage("心して味わうが良い。")
    If(0,6,0)
     ShowMessageFace("sonia_fc4",0,0,2,11)
     ShowMessage("【ソニア】")
     ShowMessage("そのハチミツ壺、明日には空っぽになってるから……")
     0()
    Else()
     ShowMessageFace("ruka_fc1",0,0,2,12)
     ShowMessage("【ルカ】")
     ShowMessage("そのハチミツ壺、明日には空っぽになってるから……")
     0()
    EndIf()
    ChangeSelfSwitch("B",0)
    EndEventProcessing()
    0()
   IfPlayerPicksChoice(1,null)
    ShowMessageFace("queenbee_fc1",1,0,2,13)
    ShowMessage("【クィーンビー】")
    ShowMessage("特に用はないが、妾の顔を見に参ったか。")
    ShowMessage("なかなか愛い奴よ……")
    PictureClear(5)
    EndEventProcessing()
    0()
   404()
   0()
  EndIf()
  0()
 PAGE   5
  // condition: self-switch B is ON
  0()
 PAGE   6
  // condition: switch 2279 is ON
  0()



EVENT   35
 PAGE   1
  // condition: variable 1056 >= 4
  PictureDisplay(5,"80_coatlus_st01",0,0,0,0,100,100,255,0)
  ShowMessageFace("coatlus_fc1",0,0,2,1)
  ShowMessage("【ケツァルコアトル】")
  ShowMessage("待っていなさい……")
  ShowMessage("このハチを始末したら、次はあなたの番よ……")
  PictureClear(5)
  EndEventProcessing()
  0()
 PAGE   2
  // condition: variable 1061 >= 1
  0()



EVENT   36
 PAGE   1
  // condition: switch 31 is ON
  0()



EVENT   37
 PAGE   1
  0()
 PAGE   2
  // condition: variable 1056 >= 2
  0()



EVENT   38
 PAGE   1
  ShowMessageFace("a_vore_fc1",2,0,2,1)
  ShowMessage("【アルラ・ボア】")
  ShowMessage("ここまで追い込んだものの、一進一退……")
  ShowMessage("流石に簡単にはいかないわね。")
  RunCommonEvent(335)
  0()
 PAGE   2
  // condition: variable 1056 >= 2
  0()



EVENT   39
 PAGE   1
  ShowMessageFace("a_alm_fc1",0,0,2,1)
  ShowMessage("【アルラ・アルム】")
  ShowMessage("流石に満身創痍です……")
  ShowMessage("ここまで来ながら、楽にはいきませんね。")
  If(4,166,0)
   ShowMessageFace("narcubus_fc1",0,0,2,2)
   ShowMessage("【ナビス】")
   ShowMessage("看護が必要ですか……？")
   ShowMessageFace("a_alm_fc1",0,0,2,3)
   ShowMessage("【アルラ・アルム】")
   ShowMessage("いいえ、私は大丈夫です。")
   ShowMessage("これでもアルラウネ、治療には長けていますので……")
   0()
  EndIf()
  0()
 PAGE   2
  // condition: variable 1061 >= 1
  0()



EVENT   40
 PAGE   1
  ShowMessageFace("a_looty_fc1",2,0,2,1)
  ShowMessage("【アルラ・ルーティ】")
  ShowMessage("さすがに疲れたな……ちょっと休息するぜ。")
  0()
 PAGE   2
  // condition: variable 1061 >= 1
  0()



EVENT   41
 PAGE   1
  ShowMessageFace("a_vore_fc1",2,0,2,1)
  ShowMessage("【アルラ・ボア】")
  ShowMessage("さすがに虫を食べすぎて、胃もたれしそう……")
  355("actor_label_jump")
  EndEventProcessing()
  DefineLabel("112")
  ShowMessageFace("utubo_fc1",0,0,2,2)
  ShowMessage("【かずら】")
  ShowMessage("ちょっと分けてほしいな……")
  EndEventProcessing()
  0()
 PAGE   2
  // condition: variable 1061 >= 1
  0()



EVENT   42
 PAGE   1
  ShowMessageFace("a_parasol_fc1",2,0,2,1)
  ShowMessage("【アルラ・パラソル】")
  ShowMessage("この子も、ずいぶん疲れているようですね……")
  ShowMessage("しかし、クィーンビーの元まであと少しです。")
  0()
 PAGE   2
  // condition: variable 1061 >= 1
  0()



EVENT   43
 PAGE   1
  ShowMessageFace("a_mash_fc1",0,0,2,1)
  ShowMessage("【アルラ・マッシュ】")
  ShowMessage("ウケケケケケケ……！")
  0()
 PAGE   2
  // condition: variable 1061 >= 1
  0()



EVENT   44
 PAGE   1
  // condition: variable 1056 >= 2
  ChangeSelfSwitch("A",0)
  If(0,4,0)
   ShowMessageFace("alice_fc5",2,0,2,1)
   ShowMessage("【アリス】")
   ShowMessage("ここが、昆虫族の立てこもるレド山か。")
   ShowMessage("植物族の兵達がなだれ込んだものの、戦局は良いとは言えんようだ。")
   0()
  EndIf()
  If(0,5,0)
   ShowMessageFace("iriasu_fc4",2,0,2,2)
   ShowMessage("【イリアス】")
   ShowMessage("昆虫族の立てこもるレド山……")
   ShowMessage("植物族の連中がなだれ込んだものの、あまり戦局は良くありませんね。")
   0()
  EndIf()
  If(4,129,0)
   ShowMessageFace("brunhild_fc1",0,0,2,3)
   ShowMessage("【ヒルデ】")
   ShowMessage("戦局判断……")
   ShowMessage("しばらくは膠着するよ、たぶん。")
   0()
  EndIf()
  ShowMessageFace("ruka_fc1",0,0,2,4)
  ShowMessage("【ルカ】")
  ShowMessage("昆虫族のリーダー、クィーンビーの元に行こう！")
  0()
 PAGE   2
  // condition: self-switch A is ON
  0()



EVENT   45
 PAGE   1
  250(bytes(0x04,0x08,0x6f,0x3a,0x0c,0x52,0x50,0x47,0x3a,0x3a,0x53,0x45,0x08,0x3a,0x0a,0x40,0x6e,0x61,0x6d,0x65,0x49,0x22,0x0a,0x43,0x68,0x65,0x73,0x74,0x06,0x3a,0x06,0x45,0x54,0x3a,0x0b,0x40,0x70,0x69,0x74,0x63,0x68,0x69,0x69,0x3a,0x0c,0x40,0x76,0x6f,0x6c,0x75,0x6d,0x65,0x69,0x55))
  205(0,bytes(0x04,0x08,0x6f,0x3a,0x13,0x52,0x50,0x47,0x3a,0x3a,0x4d,0x6f,0x76,0x65,0x52,0x6f,0x75,0x74,0x65,0x09,0x3a,0x0c,0x40,0x72,0x65,0x70,0x65,0x61,0x74,0x46,0x3a,0x0f,0x40,0x73,0x6b,0x69,0x70,0x70,0x61,0x62,0x6c,0x65,0x46,0x3a,0x0a,0x40,0x77,0x61,0x69,0x74,0x54,0x3a,0x0a,0x40,0x6c,0x69,0x73,0x74,0x5b,0x0b,0x6f,0x3a,0x15,0x52,0x50,0x47,0x3a,0x3a,0x4d,0x6f,0x76,0x65,0x43,0x6f,0x6d,0x6d,0x61,0x6e,0x64,0x07,0x3a,0x0a,0x40,0x63,0x6f,0x64,0x65,0x69,0x29,0x3a,0x10,0x40,0x70,0x61,0x72,0x61,0x6d,0x65,0x74,0x65,0x72,0x73,0x5b,0x00,0x6f,0x3b,0x0a,0x07,0x3b,0x0b,0x69,0x16,0x3b,0x0c,0x5b,0x00,0x6f,0x3b,0x0a,0x07,0x3b,0x0b,0x69,0x14,0x3b,0x0c,0x5b,0x06,0x69,0x08,0x6f,0x3b,0x0a,0x07,0x3b,0x0b,0x69,0x17,0x3b,0x0c,0x5b,0x00,0x6f,0x3b,0x0a,0x07,0x3b,0x0b,0x69,0x14,0x3b,0x0c,0x5b,0x06,0x69,0x08,0x6f,0x3b,0x0a,0x07,0x3b,0x0b,0x69,0x00,0x3b,0x0c,0x5b,0x00))
  ShowMessageFace("",0,0,2,1)
  ShowMessage("The treasure chest was a box girl!")
  Battle(0,606,false,false)
  ChangeSelfSwitch("A",0)
  0()
 PAGE   2
  // condition: self-switch A is ON
  0()



EVENT   46
 PAGE   1
  ShowMessageFace("",0,0,2,1)
  ShowMessage("回復の泉だ！")
  250(bytes(0x04,0x08,0x6f,0x3a,0x0c,0x52,0x50,0x47,0x3a,0x3a,0x53,0x45,0x08,0x3a,0x0a,0x40,0x6e,0x61,0x6d,0x65,0x49,0x22,0x0a,0x48,0x65,0x61,0x6c,0x37,0x06,0x3a,0x06,0x45,0x54,0x3a,0x0b,0x40,0x70,0x69,0x74,0x63,0x68,0x69,0x69,0x3a,0x0c,0x40,0x76,0x6f,0x6c,0x75,0x6d,0x65,0x69,0x55))
  224(bytes(0x04,0x08,0x75,0x3a,0x0a,0x43,0x6f,0x6c,0x6f,0x72,0x25,0x00,0x00,0x00,0x00,0x00,0xe0,0x6f,0x40,0x00,0x00,0x00,0x00,0x00,0xe0,0x6f,0x40,0x00,0x00,0x00,0x00,0x00,0xe0,0x6f,0x40,0x00,0x00,0x00,0x00,0x00,0xe0,0x6f,0x40),30,true)
  314(0,0)
  ShowMessageFace("",0,0,2,2)
  ShowMessage("The party's HP and MP have been fully restored!")
  0()



EVENT   47
 PAGE   1
  // condition: switch 2279 is ON
  0()



EVENT   48
 PAGE   1
  // condition: variable 1056 >= 3
  ShowMessageFace("suzumebati_fc1",0,0,2,1)
  ShowMessage("【スズメバチ娘】")
  ShowMessage("山ノ頂上マデ、行クカ？")
  ShowChoices(strings("頼む","断る"),2)
  IfPlayerPicksChoice(0,null)
   TeleportPlayer(0,134,30,15,8,0)
   0()
  IfPlayerPicksChoice(1,null)
   0()
  404()
  0()



EVENT   49
 PAGE   1
  // condition: switch 2279 is ON
  0()



EVENT   50
 PAGE   1
  // condition: switch 2279 is ON
  // condition: switch 32 is ON
  0()
