﻿// EVENT 3144
Name "Alipheese The 16th"

If(0,25,1)
 JumpToLabel("反省会")
 0()
EndIf()
PictureDisplay(5,"80_alice_st02",0,0,0,0,100,100,0,0)
PictureMove(5,null,0,0,0,0,100,100,255,0,30,true)
241(bytes(0x04,0x08,0x6f,0x3a,0x0d,0x52,0x50,0x47,0x3a,0x3a,0x42,0x47,0x4d,0x08,0x3a,0x0a,0x40,0x6e,0x61,0x6d,0x65,0x49,0x22,0x09,0x65,0x72,0x6f,0x31,0x06,0x3a,0x06,0x45,0x54,0x3a,0x0c,0x40,0x76,0x6f,0x6c,0x75,0x6d,0x65,0x69,0x69,0x3a,0x0b,0x40,0x70,0x69,0x74,0x63,0x68,0x69,0x69))
ShowMessageFace("",0,0,2,1)
ShowMessage("\\n<Luka>Urhg...")
ShowMessageFace("alice_fc1",2,0,2,2)
ShowMessage("\\n<Alice>Is that all you had? How weak.")
250(bytes(0x04,0x08,0x6f,0x3a,0x0c,0x52,0x50,0x47,0x3a,0x3a,0x53,0x45,0x08,0x3a,0x0a,0x40,0x6e,0x61,0x6d,0x65,0x49,0x22,0x16,0x6d,0x6f,0x6e,0x5f,0x65,0x72,0x6f,0x5f,0x73,0x69,0x6d,0x65,0x74,0x75,0x6b,0x65,0x31,0x06,0x3a,0x06,0x45,0x54,0x3a,0x0b,0x40,0x70,0x69,0x74,0x63,0x68,0x69,0x69,0x3a,0x0c,0x40,0x76,0x6f,0x6c,0x75,0x6d,0x65,0x69,0x69))
ShowMessageFace("",0,0,2,3)
ShowMessage("She looks down at me on the ground with her cold eyes and coils around me with her huge tail!")
ShowMessageFace("",0,0,2,4)
ShowMessage("\\n<Luka>Uwaa!")
ShowMessageFace("alice_fc1",2,0,2,5)
ShowMessage("\\n<Alice>......")
ShowMessageFace("",0,0,2,6)
ShowMessage("She coils around me from my shoulder to my foot, leaving me unable to move.")
ShowMessageFace("",0,0,2,7)
ShowMessage("With my body completely wound by her tail, I can feel her strong muscles flex around me.")
ShowMessageFace("alice_fc1",2,0,2,8)
ShowMessage("\\n<Alice>My injuries haven't fully healed yet... \nbut I'm awfully hungry.")
ShowMessageFace("",0,0,2,9)
ShowMessage("\\n<Luka>Ge... get off of me!")
ShowMessageFace("alice_fc1",2,0,2,10)
ShowMessage("\\n<Alice>Let me suck out all of your energy... \nUntil there's nothing left!")
250(bytes(0x04,0x08,0x6f,0x3a,0x0c,0x52,0x50,0x47,0x3a,0x3a,0x53,0x45,0x08,0x3a,0x0a,0x40,0x6e,0x61,0x6d,0x65,0x49,0x22,0x11,0x6d,0x6f,0x6e,0x5f,0x65,0x72,0x6f,0x5f,0x70,0x79,0x75,0x32,0x06,0x3a,0x06,0x45,0x54,0x3a,0x0b,0x40,0x70,0x69,0x74,0x63,0x68,0x69,0x69,0x3a,0x0c,0x40,0x76,0x6f,0x6c,0x75,0x6d,0x65,0x69,0x69))
PictureDisplay(5,"80_alice_st21",0,0,0,0,100,100,255,0)
ShowMessageFace("",0,0,2,11)
ShowMessage("She opens a mouth on the tip of her tail.")
ShowMessage("The inside has a pink color, with mucus dripping out...")
ShowMessageFace("",0,0,2,12)
ShowMessage("It looks like some sort of digestive system...")
ShowMessageFace("alice_fc1",2,0,2,13)
ShowMessage("\\n<Alice>Haha... with this hole, I'll suck in your penis.")
ShowMessageFace("alice_fc1",2,0,2,14)
ShowMessage("\\n<Alice>Doesn't it look like it would feel amazing? \nSome kid like you wouldn't even last ten seconds...")
ShowMessageFace("",0,0,2,15)
ShowMessage("\\n<Luka>N-No...!")
PictureDisplay(5,"80_alice_st22",0,0,0,0,100,100,255,0)
ShowMessageFace("alice_fc1",2,0,2,16)
ShowMessage("\\n<Alice>Hahaha... aren't you glad? \nBeing played with by me will bring you the ultimate pleasure you know.")
ShowMessageFace("alice_fc1",2,0,2,17)
ShowMessage("\\n<Alice>While experiencing a man's pleasure, \nyou can come over and over again inside here.")
ShowMessageFace("alice_fc1",2,0,2,18)
ShowMessage("\\n<Alice>I'll suck everything out of you \nuntil you're too exhausted to go on...")
ShowMessageFace("",0,0,2,19)
ShowMessage("\\n<Luka>No! I don't want that!")
ShowMessageFace("",0,0,2,20)
ShowMessage("She skillfully cuts open my clothes with her tail, exposing only my erect dick to the air.")
ShowMessageFace("alice_fc1",2,0,2,21)
ShowMessage("\\n<Alice>Haha... it's already up? \nAlready excited in preparation for me to suck everything out... \nHow pathetic.")
ShowMessageFace("",0,0,2,22)
ShowMessage("Her frightening tail approaches my groin.")
ShowMessage("The mouth at the end of her tail opens up, aiming for my penis.")
ShowMessageFace("",0,0,2,23)
ShowMessage("\\n<Luka>Hiii...!　Stop! I'm begging you... please stop!")
ShowMessageFace("alice_fc1",2,0,2,24)
ShowMessage("\\n<Alice>Hora... have a taste of the pleasure a monster can bring...")
ShowMessageFace("",0,0,2,25)
ShowMessage("\\n<Luka>Ah, Aaaaaah!!")
245(bytes(0x04,0x08,0x6f,0x3a,0x0d,0x52,0x50,0x47,0x3a,0x3a,0x42,0x47,0x53,0x08,0x3a,0x0a,0x40,0x6e,0x61,0x6d,0x65,0x49,0x22,0x17,0x6d,0x6f,0x6e,0x5f,0x68,0x73,0x65,0x61,0x6e,0x31,0x35,0x5f,0x6b,0x79,0x75,0x69,0x6e,0x32,0x06,0x3a,0x06,0x45,0x54,0x3a,0x0c,0x40,0x76,0x6f,0x6c,0x75,0x6d,0x65,0x69,0x55,0x3a,0x0b,0x40,0x70,0x69,0x74,0x63,0x68,0x69,0x69))
PictureDisplay(5,"ev_alice_h01_1",0,0,0,0,100,100,255,0)
ShowMessageFace("",0,0,2,26)
ShowMessage("The monster's tail sucks in my penis!")
ShowMessageFace("",0,0,2,27)
ShowMessage("The mouth in her tail feels very slimy and warm...")
ShowMessage("The walls of the mouth wriggle and squirm around my penis, rubbing it all over.")
ShowMessageFace("",0,0,2,28)
ShowMessage("Suddenly, the soft walls of the mouth tighten around me.")
ShowMessageFace("",0,0,2,29)
ShowMessage("\\n<Luka>Hnnaaa...")
ShowMessageFace("",0,0,2,30)
ShowMessage("The pleasure was too intense, and I lost all my strength for a moment.")
ShowMessage("The feelings coming from her mouth are too intense, and I feel ready to explode at any moment.")
ShowMessageFace("",0,0,2,31)
ShowMessage("\\n<Luka>S... stop it!")
ShowMessageFace("alice_fc1",2,0,2,32)
ShowMessage("\\n<Alice>Fuu... you really can't hold it for even ten seconds? \nJust surrender, and come.")
ShowMessageFace("alice_fc1",2,0,2,33)
ShowMessage("\\n<Alice>Hoora, I'll keep squeezing you like this.")
ShowMessageFace("",0,0,2,34)
ShowMessage("\\n<Luka>Aauuu..")
245(bytes(0x04,0x08,0x6f,0x3a,0x0d,0x52,0x50,0x47,0x3a,0x3a,0x42,0x47,0x53,0x08,0x3a,0x0a,0x40,0x6e,0x61,0x6d,0x65,0x49,0x22,0x17,0x6d,0x6f,0x6e,0x5f,0x68,0x73,0x65,0x61,0x6e,0x31,0x36,0x5f,0x6b,0x79,0x75,0x69,0x6e,0x33,0x06,0x3a,0x06,0x45,0x54,0x3a,0x0c,0x40,0x76,0x6f,0x6c,0x75,0x6d,0x65,0x69,0x55,0x3a,0x0b,0x40,0x70,0x69,0x74,0x63,0x68,0x69,0x69))
ShowMessageFace("",0,0,2,35)
ShowMessage("Her mouth tightened again, almost like it was trying to milk me.")
ShowMessage("She starts to tighten in a rhythmic motion, trying to squeeze out my semen.")
ShowMessageFace("",0,0,2,36)
ShowMessage("With her rubbing me like that, there's no way I can hold on...!")
ShowMessageFace("alice_fc1",2,0,2,37)
ShowMessage("\\n<Alice>Hoora... let it out!")
ShowMessageFace("",0,0,2,38)
ShowMessage("\\n<Luka>Ah... Aaaaaah!!")
RunCommonEvent(104)
PictureDisplay(5,"ev_alice_h01_2",0,0,0,0,100,100,255,0)
RunCommonEvent(105)
ShowMessageFace("",0,0,2,39)
ShowMessage("Spurt... Spurt... Spurt... My semen gushes out.")
ShowMessageFace("",0,0,2,40)
ShowMessage("My body, tightly held by her tail, starts to shake as I explode my semen into her.")
ShowMessageFace("",0,0,2,41)
ShowMessage("The pleasure I feel as I shoot out my semen in her fleshy tail is overwhelming...")
ShowMessage("My head starts to go white as the pleasure starts to take over my mind.")
ShowMessageFace("alice_fc1",2,0,2,42)
ShowMessage("\\n<Alice>Mmm... you let out a lot. \nYour delicious semen.")
ShowMessageFace("",0,0,2,43)
ShowMessage("Even after ejaculating, she doesn't stop stimulating my penis.")
ShowMessage("She continues to play with me, like a snake toying with its prey.")
ShowMessageFace("",0,0,2,44)
ShowMessage("\\n<Luka>Ahii... hii.... Aaaa! ")
ShowMessageFace("",0,0,2,45)
ShowMessage("While she plays with my penis, my body writhes in futility.")
ShowMessage("With her tail wrapped around me, there's no way for me to escape... ")
ShowMessageFace("alice_fc1",2,0,2,46)
ShowMessage("\\n<Alice>Haha... how miserable. \nThe moment when a man is most vulnerable... \nare you humiliated?")
ShowMessageFace("alice_fc1",2,0,2,47)
ShowMessage("\\n<Alice>Hora... shall I let you come again?")
ShowMessageFace("",0,0,2,48)
ShowMessage("\\n<Luka>Ahh...stop... Hyaa!")
ShowMessageFace("",0,0,2,49)
ShowMessage("The soft walls inside her tail start to massage me softly again, while slowly shrinking...")
ShowMessageFace("",0,0,2,50)
ShowMessage("She makes the pressure around my dick extremely tight, trying to force a second orgasm.")
ShowMessageFace("alice_fc1",2,0,2,51)
ShowMessage("\\n<Alice>Horahora... how is it? ")
ShowMessageFace("alice_fc1",2,0,2,52)
ShowMessage("\\n<Alice>It's useless to resist...\nIf I made an effort, you would come instantly after all.\nNow come again.")
ShowMessageFace("alice_fc1",2,0,2,53)
ShowMessage("\\n<Alice>Hoora... like this! ")
ShowMessageFace("",0,0,2,54)
ShowMessage("\\n<Luka>Hyaaaa!!")
ShowMessageFace("",0,0,2,55)
ShowMessage("Squeeze...Squeeze...Squeeze... The inside of her tail rythmically tightens.")
ShowMessageFace("",0,0,2,56)
ShowMessage("She stimulates my whole glans squeezing and tightening around it.")
ShowMessage("I writhe fruitlessly as I'm stuck in her tail.")
ShowMessageFace("",0,0,2,57)
ShowMessage("Just like a mouse, I'm completely at the mercy of the snake...")
ShowMessageFace("",0,0,2,58)
ShowMessage("\\n<Luka>Aaah...I'm coming again......")
ShowMessageFace("",0,0,2,59)
ShowMessage("I'm unable to endure the intense pleasure racing through me!")
RunCommonEvent(104)
PictureDisplay(5,"ev_alice_h01_3",0,0,0,0,100,100,255,0)
RunCommonEvent(105)
ShowMessageFace("",0,0,2,60)
ShowMessage("I explode again in her tail's mouth...")
ShowMessageFace("",0,0,2,61)
ShowMessage("Given no time to recover, I was already forced to come again...")
ShowMessageFace("",0,0,2,62)
ShowMessage("\\n<Luka>U... uuuu....")
ShowMessageFace("",0,0,2,63)
ShowMessage("My mind was filled with horror at my situation, while my body was writhing in pleasure.")
ShowMessageFace("alice_fc1",2,0,2,64)
ShowMessage("\\n<Alice>Fuu... it must have felt amazing, to gush out like that. \nWell then, it's about time I really started to play with you.")
ShowMessageFace("",0,0,2,65)
ShowMessage("\\n<Luka>Huaaa...Stop...Aaaaaah!!")
ShowMessageFace("",0,0,2,66)
ShowMessage("My body shot back at the sudden increase in pleasure that attacked it.")
ShowMessageFace("",0,0,2,67)
ShowMessage("Like the beating of a heart, the walls of the mouth begin to contract and massage me!")
ShowMessage("Pleasure shoots through me, making my head go white!")
RunCommonEvent(104)
RunCommonEvent(105)
ShowMessageFace("",0,0,2,68)
ShowMessage("To such an intense motion, I instantly ejaculated.")
ShowMessage("Like being milked, there was no way to stop the leaking semen...")
ShowMessageFace("",0,0,2,69)
ShowMessage("\\n<Luka>Ahii... what... is this...? Too... good...")
RunCommonEvent(104)
RunCommonEvent(105)
ShowMessageFace("",0,0,2,70)
ShowMessage("The ecstasy flooding through me made it feel like I was melting in her tail...")
ShowMessageFace("alice_fc1",2,0,2,71)
ShowMessage("\\n<Alice>I'll squeeze even the life out of you, you know? \nAscend to heaven while you come over and over...")
ShowMessageFace("",0,0,2,72)
ShowMessage("\\n<Luka>Ahiii! ")
RunCommonEvent(104)
PictureDisplay(5,"ev_alice_h01_4",0,0,0,0,100,100,255,0)
RunCommonEvent(105)
ShowMessageFace("",0,0,2,73)
ShowMessage("Tears and saliva fall off my face as my body shakes.")
ShowMessageFace("",0,0,2,74)
ShowMessage("My head starts to go completely white, as I become unable to focus on anything but the pleasure.")
ShowMessageFace("",0,0,2,75)
ShowMessage("While I know what will happen to me after this...")
ShowMessage("I still want to surrender to these amazing feelings.")
ShowMessageFace("alice_fc1",2,0,2,76)
ShowMessage("\\n<Alice>Fufu... make sure to remember in your next life \nthat Lamias are very vengeful...")
ShowMessageFace("",0,0,2,77)
ShowMessage("She continues to wring the semen out of me as I feel humiliation, despair and pleasure that is bringing me to paradise.")
ShowMessageFace("",0,0,2,78)
ShowMessage("With my mind turning to mush, it feels like my whole body is being sucked into her tail.")
ShowMessageFace("",0,0,2,79)
ShowMessage("\\n<Luka>Uu... aa...")
RunCommonEvent(104)
RunCommonEvent(105)
ShowMessageFace("",0,0,2,80)
ShowMessage("While she squeezes out even more, the realization of my impending death truly dawns on me.")
ShowMessageFace("",0,0,2,81)
ShowMessage("Even so, it feels so good...")
ShowMessageFace("alice_fc1",2,0,2,82)
ShowMessage("\\n<Alice>Haha... amazing, isn't it? \nEven as I suck out both your semen and your life, you still feel such happiness... \nHow miserable.")
ShowMessageFace("",0,0,2,83)
ShowMessage("\\n<Luka>Auu.... uu...")
ShowMessageFace("",0,0,2,84)
ShowMessage("A sweet ecstasy fills my head.")
ShowMessageFace("",0,0,2,85)
ShowMessage("It feels as though my entire body has melted.")
ShowMessage("My melted body feels like it's being sucked up through my penis...")
ShowMessageFace("",0,0,2,86)
ShowMessage("Until I become completely empty...")
ShowMessageFace("",0,0,2,87)
ShowMessage("Is this what it's like to be eaten by a monster...?")
ShowMessageFace("alice_fc1",2,0,2,88)
ShowMessage("\\n<Alice>Haha... it's about time to finish this. \nWrapped in my tail, I'll squeeze everything out \nand send you to heaven.")
ShowMessageFace("",0,0,2,89)
ShowMessage("\\n<Luka>Ah...ah...")
RunCommonEvent(104)
RunCommonEvent(105)
ShowMessageFace("",0,0,2,90)
ShowMessage("I traded my life for pleasure...")
ShowMessage("As I ejaculate again, I realize that my life itself has been sucked up.")
ShowMessageFace("",0,0,2,91)
ShowMessage("\\n<Luka>Ah...")
ShowMessageFace("",0,0,2,92)
ShowMessage("Then...")
ShowMessage("I start to lose consciousness...")
ShowMessageFace("",0,0,2,93)
ShowMessage("My life, that has turned into nothing but food for the Lamia... ")
ShowMessage("Being absorbed by her to the last drop...")
221()
PictureClear(5)
246(2)
ShowMessageFace("",0,0,2,94)
ShowMessage("With a pop, Luka's penis comes out of her tail, covered in mucus.")
ShowMessageFace("alice_fc1",2,0,2,95)
ShowMessage("\\n<Alice>Hahaha... thanks for the meal.")
ShowMessageFace("",0,0,2,96)
ShowMessage("I thought I heard a voice from the distance...")
DefineLabel("反省会")
ShowMessageFace("",0,0,2,97)
ShowMessage("......")
221()
242(1)
Wait(120)
355("memory_interruption")
ShowMessageFace("",0,0,2,98)
ShowMessage("You hear Ilias' voice calling out to you...")
ShowMessage("Receive her evaluation?")
ShowChoices(strings("Receive evaluation","Change difficulty","Reincarnate"),3)
IfPlayerPicksChoice(0,null)
 241(bytes(0x04,0x08,0x6f,0x3a,0x0d,0x52,0x50,0x47,0x3a,0x3a,0x42,0x47,0x4d,0x08,0x3a,0x0a,0x40,0x6e,0x61,0x6d,0x65,0x49,0x22,0x0a,0x69,0x72,0x69,0x61,0x73,0x06,0x3a,0x06,0x45,0x54,0x3a,0x0c,0x40,0x76,0x6f,0x6c,0x75,0x6d,0x65,0x69,0x5f,0x3a,0x0b,0x40,0x70,0x69,0x74,0x63,0x68,0x69,0x6e))
 PictureDisplay(1,"bg001",0,0,0,0,100,100,255,0)
 222()
 PictureDisplay(5,"80_iriasu_st04",0,0,0,0,100,100,0,0)
 PictureMove(5,null,0,0,0,0,100,100,255,0,30,true)
 ShowMessageFace("iriasu_fc1",3,0,2,99)
 ShowMessage("\\n<Ilias>It seems you were defeated without giving up right away... \n...Why does this not seem right?")
 PictureDisplay(5,"80_iriasu_st01",0,0,0,0,100,100,255,0)
 ShowMessageFace("iriasu_fc1",0,0,2,100)
 ShowMessage("\\n<Ilias>Alipheese the 16th is the strongest creature in the world. \nEarly on in your adventure you have no chance of winning.")
 ShowMessageFace("iriasu_fc1",0,0,2,101)
 ShowMessage("\\n<Ilias>She uses party-wide Fire and Ice spells. \nShe also uses a Dark skill...If you don't survive it, you're history.")
 ShowMessageFace("iriasu_fc1",0,0,2,102)
 ShowMessage("\\n<Ilias>Try increasing your Ice and Fire resistance... \nThe Dark element is hard to guard against, you'll have to endure it.")
 ShowMessageFace("iriasu_fc1",0,0,2,103)
 ShowMessage("\\n<Ilias>Status ailments almost never connect except the Time Magic specific ones. \nIf you can't Slow or Stop her, you have no chance.")
 ShowMessageFace("iriasu_fc1",0,0,2,104)
 ShowMessage("\\n<Ilias>Her elemental resistences are also high. \nHowever she has a slight weakness for the Holy element.")
 ShowMessageFace("iriasu_fc1",0,0,2,105)
 ShowMessage("\\n<Ilias>Also, make use of support magic.\nIf you use it wisely you will surely win.")
 PictureDisplay(5,"80_iriasu_st02",0,0,0,0,100,100,255,0)
 ShowMessageFace("iriasu_fc1",1,0,2,106)
 ShowMessage("\\n<Ilias>Now go, oh brave Luka.\nI shall wait for the day you destroy the Monster Lord.")
 242(1)
 221()
 PictureClear(5)
 PictureClear(1)
 Wait(60)
 0()
IfPlayerPicksChoice(1,null)
 ShowMessageFace("",0,0,2,107)
 ShowMessage("Please choose a difficulty level.")
 RunCommonEvent(110)
 0()
IfPlayerPicksChoice(2,null)
 0()
404()
RunCommonEvent(3000)
0()
