// EVENT 0073
Name "Skill: Play 331-340"

ChangeVariable(11,11,0,2,1,5)
If(1,100,0,331,0)
 If(1,11,0,1,0)
  ShowMessageFace("tutigumo_fc1",0,0,2,1)
  ShowMessage("【ミズキ】")
  ShowMessage("ふふふっ……")
  355("interrupt_skill(3296)")
  EndEventProcessing()
  0()
 EndIf()
 If(1,11,0,2,0)
  ShowMessageFace("tutigumo_fc1",2,0,2,2)
  ShowMessage("【ミズキ】")
  ShowMessage("あうっ！")
  355("interrupt_skill(3310)")
  EndEventProcessing()
  0()
 EndIf()
 If(1,11,0,3,0)
  ShowMessageFace("tutigumo_fc1",2,0,2,3)
  ShowMessage("【ミズキ】")
  ShowMessage("これは、獲物の怨念……！？")
  313(0,331,0,12)
  ShowMessageFace("",0,0,2,4)
  ShowMessage("ミズキは金縛りにあった！")
  EndEventProcessing()
  0()
 EndIf()
 If(1,11,0,4,0)
  ShowMessageFace("tutigumo_fc1",0,0,2,5)
  ShowMessage("【ミズキ】")
  ShowMessage("これを差し上げましょう……")
  ShowMessageFace("",0,0,2,6)
  ShowMessage("ミズキからの差し入れだ！")
  250(bytes(0x04,0x08,0x6f,0x3a,0x0c,0x52,0x50,0x47,0x3a,0x3a,0x53,0x45,0x08,0x3a,0x0a,0x40,0x6e,0x61,0x6d,0x65,0x49,0x22,0x0a,0x49,0x74,0x65,0x6d,0x31,0x06,0x3a,0x06,0x45,0x54,0x3a,0x0b,0x40,0x70,0x69,0x74,0x63,0x68,0x69,0x69,0x3a,0x0c,0x40,0x76,0x6f,0x6c,0x75,0x6d,0x65,0x69,0x55))
  ChangeInventory_Item(383,0,0,1)
  ShowMessageFace("",0,0,2,7)
  ShowMessage("「焼き魚」を手に入れた！")
  EndEventProcessing()
  0()
 EndIf()
 If(1,11,0,5,0)
  ShowMessageFace("tutigumo_fc1",0,0,2,8)
  ShowMessage("【ミズキ】")
  ShowMessage("蜘蛛の巣に掛かってみますか……？")
  355("interrupt_skill(2868)")
  EndEventProcessing()
  0()
 EndIf()
 0()
EndIf()
If(1,100,0,332,0)
 If(1,11,0,1,0)
  ShowMessageFace("alakneload_fc1",1,0,2,9)
  ShowMessage("【アラーニェ】")
  ShowMessage("くくくっ……")
  ShowMessageFace("",0,0,2,10)
  ShowMessage("アラーニェはにやにや笑っている……")
  EndEventProcessing()
  0()
 EndIf()
 If(1,11,0,2,0)
  ShowMessageFace("alakneload_fc1",2,0,2,11)
  ShowMessage("【アラーニェ】")
  ShowMessage("くっ、しまった……！")
  355("interrupt_skill(3310)")
  EndEventProcessing()
  0()
 EndIf()
 If(1,11,0,3,0)
  ShowMessageFace("alakneload_fc1",1,0,2,12)
  ShowMessage("【アラーニェ】")
  ShowMessage("くく……")
  ShowMessageFace("",0,0,2,13)
  ShowMessage("アラーニェは流し目を送った……")
  ShowMessage("しかし、睨んでいるようにしか見えない！")
  EndEventProcessing()
  0()
 EndIf()
 If(1,11,0,4,0)
  ShowMessageFace("alakneload_fc1",0,0,2,14)
  ShowMessage("【アラーニェ】")
  ShowMessage("これを食らうがいい……")
  ShowMessageFace("",0,0,2,15)
  ShowMessage("アラーニェからの差し入れだ！")
  250(bytes(0x04,0x08,0x6f,0x3a,0x0c,0x52,0x50,0x47,0x3a,0x3a,0x53,0x45,0x08,0x3a,0x0a,0x40,0x6e,0x61,0x6d,0x65,0x49,0x22,0x0a,0x49,0x74,0x65,0x6d,0x31,0x06,0x3a,0x06,0x45,0x54,0x3a,0x0b,0x40,0x70,0x69,0x74,0x63,0x68,0x69,0x69,0x3a,0x0c,0x40,0x76,0x6f,0x6c,0x75,0x6d,0x65,0x69,0x55))
  ChangeInventory_Item(448,0,0,1)
  ShowMessageFace("",0,0,2,16)
  ShowMessage("「カブトムシ」を手に入れた！")
  EndEventProcessing()
  0()
 EndIf()
 If(1,11,0,5,0)
  ShowMessageFace("alakneload_fc1",0,0,2,17)
  ShowMessage("【アラーニェ】")
  ShowMessage("虫のようにもがくがいい……！")
  355("interrupt_skill(2868)")
  EndEventProcessing()
  0()
 EndIf()
 0()
EndIf()
If(1,100,0,333,0)
 If(1,11,0,1,0)
  ShowMessageFace("atlach_fc1",0,0,2,18)
  ShowMessage("【ナクア】")
  ShowMessage("ああ、痛い……")
  355("interrupt_skill(3310)")
  EndEventProcessing()
  0()
 EndIf()
 If(1,11,0,2,0)
  ShowMessageFace("atlach_fc1",0,0,2,19)
  ShowMessage("【ナクア】")
  ShowMessage("今日は良い日ですね……")
  ShowMessageFace("",0,0,2,20)
  ShowMessage("ナクアはぼーっとしている……")
  EndEventProcessing()
  0()
 EndIf()
 If(1,11,0,3,0)
  ShowMessageFace("atlach_fc1",0,0,2,21)
  ShowMessage("【ナクア】")
  ShowMessage("……………………")
  313(0,333,0,11)
  ShowMessageFace("",0,0,2,22)
  ShowMessage("ナクアは居眠りしている……")
  EndEventProcessing()
  0()
 EndIf()
 If(1,11,0,4,0)
  ShowMessageFace("atlach_fc1",0,0,2,23)
  ShowMessage("【ナクア】")
  ShowMessage("これをどうぞ……")
  ShowMessageFace("",0,0,2,24)
  ShowMessage("ナクアからの差し入れだ！")
  250(bytes(0x04,0x08,0x6f,0x3a,0x0c,0x52,0x50,0x47,0x3a,0x3a,0x53,0x45,0x08,0x3a,0x0a,0x40,0x6e,0x61,0x6d,0x65,0x49,0x22,0x0a,0x49,0x74,0x65,0x6d,0x31,0x06,0x3a,0x06,0x45,0x54,0x3a,0x0b,0x40,0x70,0x69,0x74,0x63,0x68,0x69,0x69,0x3a,0x0c,0x40,0x76,0x6f,0x6c,0x75,0x6d,0x65,0x69,0x55))
  ChangeInventory_Item(365,0,0,1)
  ShowMessageFace("",0,0,2,25)
  ShowMessage("「チャーハン」を手に入れた！")
  EndEventProcessing()
  0()
 EndIf()
 If(1,11,0,5,0)
  ShowMessageFace("atlach_fc1",0,0,2,26)
  ShowMessage("【ナクア】")
  ShowMessage("さあ、餌食にしましょう……")
  355("interrupt_skill(2868)")
  EndEventProcessing()
  0()
 EndIf()
 0()
EndIf()
If(1,100,0,334,0)
 If(1,11,0,1,0)
  ShowMessageFace("kumonomiko_fc1",2,0,2,27)
  ShowMessage("【蜘蛛之皇女】")
  ShowMessage("ぬぅっ、こんな……！")
  355("interrupt_skill(3310)")
  EndEventProcessing()
  0()
 EndIf()
 If(1,11,0,2,0)
  ShowMessageFace("kumonomiko_fc1",0,0,2,28)
  ShowMessage("【蜘蛛之皇女】")
  ShowMessage("これが妾の戯れよ……")
  355("interrupt_skill(3295)")
  EndEventProcessing()
  0()
 EndIf()
 If(1,11,0,3,0)
  ShowMessageFace("kumonomiko_fc1",0,0,2,29)
  ShowMessage("【蜘蛛之皇女】")
  ShowMessage("くくく……")
  ShowMessageFace("",0,0,2,30)
  ShowMessage("蜘蛛之皇女は不敵に笑っている……")
  EndEventProcessing()
  0()
 EndIf()
 If(1,11,0,4,0)
  ShowMessageFace("kumonomiko_fc1",0,0,2,31)
  ShowMessage("【蜘蛛之皇女】")
  ShowMessage("さあ、これを食らうが良い……")
  ShowMessageFace("",0,0,2,32)
  ShowMessage("蜘蛛之皇女からの差し入れだ！")
  250(bytes(0x04,0x08,0x6f,0x3a,0x0c,0x52,0x50,0x47,0x3a,0x3a,0x53,0x45,0x08,0x3a,0x0a,0x40,0x6e,0x61,0x6d,0x65,0x49,0x22,0x0a,0x49,0x74,0x65,0x6d,0x31,0x06,0x3a,0x06,0x45,0x54,0x3a,0x0b,0x40,0x70,0x69,0x74,0x63,0x68,0x69,0x69,0x3a,0x0c,0x40,0x76,0x6f,0x6c,0x75,0x6d,0x65,0x69,0x55))
  ChangeInventory_Item(368,0,0,1)
  ShowMessageFace("",0,0,2,33)
  ShowMessage("「お寿司」を手に入れた！")
  EndEventProcessing()
  0()
 EndIf()
 If(1,11,0,5,0)
  ShowMessageFace("kumonomiko_fc1",0,0,2,34)
  ShowMessage("【蜘蛛之皇女】")
  ShowMessage("くくっ、餌食にしてくれるわ……")
  355("interrupt_skill(2869)")
  EndEventProcessing()
  0()
 EndIf()
 0()
EndIf()
If(1,100,0,335,0)
 If(1,11,0,1,0)
  ShowMessageFace("conquista_fc1",0,0,2,35)
  ShowMessage("【エビータ】")
  ShowMessage("常に研鑽せねばな……")
  ShowMessageFace("",0,0,2,36)
  ShowMessage("エビータは本を読んでいる……")
  EndEventProcessing()
  0()
 EndIf()
 If(1,11,0,2,0)
  ShowMessageFace("conquista_fc1",0,0,2,37)
  ShowMessage("【エビータ】")
  ShowMessage("キッ！")
  ShowMessageFace("",0,0,2,38)
  ShowMessage("エビータは流し目を送った……")
  ShowMessage("しかし、睨んでいるようにしか見えない！")
  EndEventProcessing()
  0()
 EndIf()
 If(1,11,0,3,0)
  ShowMessageFace("conquista_fc1",0,0,2,39)
  ShowMessage("【エビータ】")
  ShowMessage("これが、闇の力だ……！")
  355("interrupt_skill(2543)")
  EndEventProcessing()
  0()
 EndIf()
 If(1,11,0,4,0)
  ShowMessageFace("conquista_fc1",0,0,2,40)
  ShowMessage("【エビータ】")
  ShowMessage("これを味わうがいい……")
  ShowMessageFace("",0,0,2,41)
  ShowMessage("エビータからの差し入れだ！")
  250(bytes(0x04,0x08,0x6f,0x3a,0x0c,0x52,0x50,0x47,0x3a,0x3a,0x53,0x45,0x08,0x3a,0x0a,0x40,0x6e,0x61,0x6d,0x65,0x49,0x22,0x0a,0x49,0x74,0x65,0x6d,0x31,0x06,0x3a,0x06,0x45,0x54,0x3a,0x0b,0x40,0x70,0x69,0x74,0x63,0x68,0x69,0x69,0x3a,0x0c,0x40,0x76,0x6f,0x6c,0x75,0x6d,0x65,0x69,0x55))
  ChangeInventory_Item(331,0,0,1)
  ShowMessageFace("",0,0,2,42)
  ShowMessage("「ソーセージ」を手に入れた！")
  EndEventProcessing()
  0()
 EndIf()
 If(1,11,0,5,0)
  ShowMessageFace("conquista_fc1",0,0,2,43)
  ShowMessage("【エビータ】")
  ShowMessage("貴族たる者、音楽に造詣がなければ……")
  355("interrupt_skill(3305)")
  EndEventProcessing()
  0()
 EndIf()
 0()
EndIf()
If(1,100,0,336,0)
 If(1,11,0,1,0)
  ShowMessageFace("vendetta_fc1",0,0,2,44)
  ShowMessage("【アンヘラ】")
  ShowMessage("ふふふっ……")
  ShowMessageFace("",0,0,2,45)
  ShowMessage("アンヘラはくすくす笑っている……")
  EndEventProcessing()
  0()
 EndIf()
 If(1,11,0,2,0)
  ShowMessageFace("vendetta_fc1",0,0,2,46)
  ShowMessage("【アンヘラ】")
  ShowMessage("闇に閉ざしましょう……")
  355("interrupt_skill(2547)")
  EndEventProcessing()
  0()
 EndIf()
 If(1,11,0,3,0)
  ShowMessageFace("vendetta_fc1",0,0,2,47)
  ShowMessage("【アンヘラ】")
  ShowMessage("少し眠りに就きましょう……")
  313(0,336,0,11)
  ShowMessageFace("",0,0,2,48)
  ShowMessage("アンヘラは居眠りしている……")
  EndEventProcessing()
  0()
 EndIf()
 If(1,11,0,4,0)
  ShowMessageFace("vendetta_fc1",0,0,2,49)
  ShowMessage("【アンヘラ】")
  ShowMessage("これをどうぞ……")
  ShowMessageFace("",0,0,2,50)
  ShowMessage("アンヘラからの差し入れだ！")
  250(bytes(0x04,0x08,0x6f,0x3a,0x0c,0x52,0x50,0x47,0x3a,0x3a,0x53,0x45,0x08,0x3a,0x0a,0x40,0x6e,0x61,0x6d,0x65,0x49,0x22,0x0a,0x49,0x74,0x65,0x6d,0x31,0x06,0x3a,0x06,0x45,0x54,0x3a,0x0b,0x40,0x70,0x69,0x74,0x63,0x68,0x69,0x69,0x3a,0x0c,0x40,0x76,0x6f,0x6c,0x75,0x6d,0x65,0x69,0x55))
  ChangeInventory_Item(440,0,0,1)
  ShowMessageFace("",0,0,2,51)
  ShowMessage("「イモリの蒸し焼き」を手に入れた！")
  EndEventProcessing()
  0()
 EndIf()
 If(1,11,0,5,0)
  ShowMessageFace("vendetta_fc1",0,0,2,52)
  ShowMessage("【アンヘラ】")
  ShowMessage("少し、血を頂きますよ……")
  355("interrupt_skill(2538)")
  EndEventProcessing()
  0()
 EndIf()
 0()
EndIf()
If(1,100,0,337,0)
 If(1,11,0,1,0)
  ShowMessageFace("e_vampire_fc1",0,0,2,53)
  ShowMessage("【ヴァルヘルト】")
  ShowMessage("まったく、餌をやるのも大変だな……")
  ShowMessageFace("",0,0,2,54)
  ShowMessage("ヴァルヘルトは触手に餌をやっている……")
  EndEventProcessing()
  0()
 EndIf()
 If(1,11,0,2,0)
  ShowMessageFace("e_vampire_fc1",0,0,2,55)
  ShowMessage("【ヴァルヘルト】")
  ShowMessage("この体では、腹が減ってな……")
  ShowMessageFace("",0,0,2,56)
  ShowMessage("ヴァルヘルトは食料を盗み食いしている……")
  EndEventProcessing()
  0()
 EndIf()
 If(1,11,0,3,0)
  ShowMessageFace("e_vampire_fc1",0,0,2,57)
  ShowMessage("【ヴァルヘルト】")
  ShowMessage("これが、吸血鬼の罠よ……")
  355("interrupt_skill(3297)")
  EndEventProcessing()
  0()
 EndIf()
 If(1,11,0,4,0)
  ShowMessageFace("e_vampire_fc1",0,0,2,58)
  ShowMessage("【ヴァルヘルト】")
  ShowMessage("これが、吸血鬼の罠よ……")
  355("interrupt_skill(3298)")
  EndEventProcessing()
  0()
 EndIf()
 If(1,11,0,5,0)
  ShowMessageFace("e_vampire_fc1",0,0,2,59)
  ShowMessage("【ヴァルヘルト】")
  ShowMessage("血をもらおうか……")
  355("interrupt_skill(2538)")
  EndEventProcessing()
  0()
 EndIf()
 0()
EndIf()
If(1,100,0,338,0)
 If(1,11,0,1,0)
  ShowMessageFace("carmilla_fc1",0,0,2,60)
  ShowMessage("【カーミラ】")
  ShowMessage("うふふふっ……♪")
  ShowMessageFace("",0,0,2,61)
  ShowMessage("カーミラはくすくす笑っている……")
  EndEventProcessing()
  0()
 EndIf()
 If(1,11,0,2,0)
  ShowMessageFace("carmilla_fc1",0,0,2,62)
  ShowMessage("【カーミラ】")
  ShowMessage("楽しくいきましょうよ～♪")
  ShowMessageFace("",0,0,2,63)
  ShowMessage("カーミラは陽気に歌って踊っている……")
  EndEventProcessing()
  0()
 EndIf()
 If(1,11,0,3,0)
  ShowMessageFace("carmilla_fc1",0,0,2,64)
  ShowMessage("【カーミラ】")
  ShowMessage("お腹が減りましたね……")
  ShowMessageFace("",0,0,2,65)
  ShowMessage("カーミラは食料を盗み食いしている……")
  EndEventProcessing()
  0()
 EndIf()
 If(1,11,0,4,0)
  ShowMessageFace("carmilla_fc1",0,0,2,66)
  ShowMessage("【カーミラ】")
  ShowMessage("これ、プレゼントですよ♪")
  ShowMessageFace("",0,0,2,67)
  ShowMessage("カーミラからの差し入れだ！")
  250(bytes(0x04,0x08,0x6f,0x3a,0x0c,0x52,0x50,0x47,0x3a,0x3a,0x53,0x45,0x08,0x3a,0x0a,0x40,0x6e,0x61,0x6d,0x65,0x49,0x22,0x0a,0x49,0x74,0x65,0x6d,0x31,0x06,0x3a,0x06,0x45,0x54,0x3a,0x0b,0x40,0x70,0x69,0x74,0x63,0x68,0x69,0x69,0x3a,0x0c,0x40,0x76,0x6f,0x6c,0x75,0x6d,0x65,0x69,0x55))
  ChangeInventory_Item(391,0,0,1)
  ShowMessageFace("",0,0,2,68)
  ShowMessage("「トマトスープ」を手に入れた！")
  EndEventProcessing()
  0()
 EndIf()
 If(1,11,0,5,0)
  ShowMessageFace("carmilla_fc1",0,0,2,69)
  ShowMessage("【カーミラ】")
  ShowMessage("血を吸っちゃいますよ～！")
  355("interrupt_skill(2538)")
  EndEventProcessing()
  0()
 EndIf()
 0()
EndIf()
If(1,100,0,339,0)
 If(1,11,0,1,0)
  ShowMessageFace("elisabeth_fc1",0,0,2,70)
  ShowMessage("【エリザベート】")
  ShowMessage("吸血鬼は炎に弱い……")
  ShowMessage("だからこそ、火遊びはスリルがあるのだ！")
  355("interrupt_skill(3295)")
  EndEventProcessing()
  0()
 EndIf()
 If(1,11,0,2,0)
  ShowMessageFace("elisabeth_fc1",0,0,2,71)
  ShowMessage("【エリザベート】")
  ShowMessage("大地と交信するぞ！")
  ShowMessageFace("",0,0,2,72)
  ShowMessage("エリザベートは地面に落書きをしている……")
  EndEventProcessing()
  0()
 EndIf()
 If(1,11,0,3,0)
  ShowMessageFace("elisabeth_fc1",0,0,2,73)
  ShowMessage("【エリザベート】")
  ShowMessage("ヘーイ！！")
  ShowMessageFace("",0,0,2,74)
  ShowMessage("エリザベートはクラッカーを鳴らした！")
  ShowMessage("しかし誰も相手にしない……")
  EndEventProcessing()
  0()
 EndIf()
 If(1,11,0,4,0)
  ShowMessageFace("elisabeth_fc1",0,0,2,75)
  ShowMessage("【エリザベート】")
  ShowMessage("これを食うが良い！")
  ShowMessageFace("",0,0,2,76)
  ShowMessage("エリザベートからの差し入れだ！")
  250(bytes(0x04,0x08,0x6f,0x3a,0x0c,0x52,0x50,0x47,0x3a,0x3a,0x53,0x45,0x08,0x3a,0x0a,0x40,0x6e,0x61,0x6d,0x65,0x49,0x22,0x0a,0x49,0x74,0x65,0x6d,0x31,0x06,0x3a,0x06,0x45,0x54,0x3a,0x0b,0x40,0x70,0x69,0x74,0x63,0x68,0x69,0x69,0x3a,0x0c,0x40,0x76,0x6f,0x6c,0x75,0x6d,0x65,0x69,0x55))
  ChangeInventory_Item(390,0,0,1)
  ShowMessageFace("",0,0,2,77)
  ShowMessage("「クリームシチュー」を手に入れた！")
  EndEventProcessing()
  0()
 EndIf()
 If(1,11,0,5,0)
  ShowMessageFace("elisabeth_fc1",0,0,2,78)
  ShowMessage("【エリザベート】")
  ShowMessage("くくっ、腹が減ったぞ！")
  355("interrupt_skill(2538)")
  EndEventProcessing()
  0()
 EndIf()
 0()
EndIf()
If(1,100,0,340,0)
 If(1,11,0,1,0)
  ShowMessageFace("queenvampire_fc1",0,0,2,79)
  ShowMessage("【ファティマ】")
  ShowMessage("くくく……")
  ShowMessageFace("",0,0,2,80)
  ShowMessage("ファティマは不敵に笑っている……")
  EndEventProcessing()
  0()
 EndIf()
 If(1,11,0,2,0)
  ShowMessageFace("queenvampire_fc1",0,0,2,81)
  ShowMessage("【ファティマ】")
  ShowMessage("女王の力を見るが良い！")
  355("interrupt_skill(2543)")
  EndEventProcessing()
  0()
 EndIf()
 If(1,11,0,3,0)
  ShowMessageFace("queenvampire_fc1",0,0,2,82)
  ShowMessage("【ファティマ】")
  ShowMessage("長い眠りに就こうぞ……")
  313(0,340,0,11)
  ShowMessageFace("",0,0,2,83)
  ShowMessage("ファティマは居眠りしている……")
  EndEventProcessing()
  0()
 EndIf()
 If(1,11,0,4,0)
  ShowMessageFace("queenvampire_fc1",0,0,2,84)
  ShowMessage("【ファティマ】")
  ShowMessage("さあ、これを貪るが良い……")
  ShowMessageFace("",0,0,2,85)
  ShowMessage("ファティマからの差し入れだ！")
  250(bytes(0x04,0x08,0x6f,0x3a,0x0c,0x52,0x50,0x47,0x3a,0x3a,0x53,0x45,0x08,0x3a,0x0a,0x40,0x6e,0x61,0x6d,0x65,0x49,0x22,0x0a,0x49,0x74,0x65,0x6d,0x31,0x06,0x3a,0x06,0x45,0x54,0x3a,0x0b,0x40,0x70,0x69,0x74,0x63,0x68,0x69,0x69,0x3a,0x0c,0x40,0x76,0x6f,0x6c,0x75,0x6d,0x65,0x69,0x55))
  ChangeInventory_Item(398,0,0,1)
  ShowMessageFace("",0,0,2,86)
  ShowMessage("「麻婆豆腐」を手に入れた！")
  EndEventProcessing()
  0()
 EndIf()
 If(1,11,0,5,0)
  ShowMessageFace("queenvampire_fc1",0,0,2,87)
  ShowMessage("【ファティマ】")
  ShowMessage("その血を味わわせてもらおうか……")
  355("interrupt_skill(2539)")
  EndEventProcessing()
  0()
 EndIf()
 0()
EndIf()
0()
